verilogCode/tb/1wv_waveforms/wv_mod_reg16.vcd
$date
	Wed Sep  1 16:26:09 2021
$end
$version
	Icarus Verilog
$end
$timescale
	10ps
$end
$scope module tb_mod_reg16 $end
$var wire 1 ! reg_full $end
$var wire 128 " o [127:0] $end
$var reg 1 # clk $end
$var reg 128 $ i [127:0] $end
$var reg 1 % resetn $end
$var reg 1 & wr_en $end
$var integer 32 ' index [31:0] $end
$scope module DUT $end
$var wire 1 # clk $end
$var wire 128 ( i [127:0] $end
$var wire 1 % resetn $end
$var wire 1 & wr_en $end
$var reg 128 ) o [127:0] $end
$var reg 1 ! reg_full $end
$var integer 32 * index [31:0] $end
$upscope $end
$scope task enableResetn $end
$upscope $end
$scope task enableWrite $end
$upscope $end
$scope task setInput $end
$var reg 8 + seed [7:0] $end
$upscope $end
$scope task test_read $end
$upscope $end
$scope task test_resetn $end
$upscope $end
$upscope $end
$enddefinitions $end
#0
$dumpvars
bx +
bx *
bx )
bx (
bx '
x&
0%
bx $
0#
bx "
x!
$end
#2000
0!
b10000 '
b1111000011100000110100001100000010110000101000001001000010000000011100000110000001010000010000000011000000100000000100000000 $
b1111000011100000110100001100000010110000101000001001000010000000011100000110000001010000010000000011000000100000000100000000 (
b0 +
1%
#10000
1#
#12000
1&
#20000
0#
#30000
b1111000011100000110100001100000010110000101000001001000010000000011100000110000001010000010000000011000000100000000100000000 "
b1111000011100000110100001100000010110000101000001001000010000000011100000110000001010000010000000011000000100000000100000000 )
b10000 *
0!
1#
#32000
0&
#36000
b0 '
#38000
b1 '
#40000
b10 '
0#
#42000
b11 '
#44000
b100 '
#46000
b101 '
#48000
b110 '
#50000
b111 '
1#
#52000
b1000 '
#54000
b1001 '
#56000
b1010 '
#58000
b1011 '
#60000
b1100 '
0#
#62000
b1101 '
#64000
b1110 '
#66000
b1111 '
#68000
b11110000111010001110000011011000110100001100100011000000101110001011000010101000101000001001100010010000100010001000000001111 $
b11110000111010001110000011011000110100001100100011000000101110001011000010101000101000001001100010010000100010001000000001111 (
b1111 +
b10000 '
#70000
1#
#72000
1&
#80000
0#
#90000
b11110000111010001110000011011000110100001100100011000000101110001011000010101000101000001001100010010000100010001000000001111 "
b11110000111010001110000011011000110100001100100011000000101110001011000010101000101000001001100010010000100010001000000001111 )
b10000 *
0!
1#
#92000
0&
#96000
b0 '
#98000
b1 '
#100000
b10 '
0#
#102000
b11 '
#104000
b100 '
#106000
b101 '
#108000
b110 '
#110000
b111 '
1#
#112000
b1000 '
#114000
b1001 '
#116000
b1010 '
#118000
b1011 '
#120000
b1100 '
0#
#122000
b1101 '
#124000
b1110 '
#126000
b1111 '
#128000
b11111000111100001110100011100000110110001101000011001000110000001011100010110000101010001010000010011000100100001000100010000 $
b11111000111100001110100011100000110110001101000011001000110000001011100010110000101010001010000010011000100100001000100010000 (
b10000 +
b10000 '
#130000
1#
#132000
1&
#140000
0#
#150000
b11111000111100001110100011100000110110001101000011001000110000001011100010110000101010001010000010011000100100001000100010000 "
b11111000111100001110100011100000110110001101000011001000110000001011100010110000101010001010000010011000100100001000100010000 )
b10000 *
0!
1#
#152000
0&
#156000
b0 '
#158000
b1 '
#160000
b10 '
0#
#162000
b11 '
#164000
b100 '
#166000
b101 '
#168000
b110 '
#170000
b111 '
1#
#172000
b1000 '
#174000
b1001 '
#176000
b1010 '
#178000
b1011 '
#180000
b1100 '
0#
#182000
b1101 '
#184000
b1110 '
#186000
b1111 '
#188000
b10000 '
