Vivado_projects/AES256_decrypter/AES256_decrypter.sim/sim_1/behav/xsim/wv_AES256_dec.vcd
$date
   Mon Dec  6 18:21:11 2021
$end
$version
  2020.2
$end
$timescale
  1ps
$end
$scope module tb_AES256_dec $end
$var reg 1 ! clk $end
$var reg 1 " resetn $end
$var reg 1 # ctrl_dataIn $end
$var reg 128 $ inpAES [127:0] $end
$var wire 1 % ctrl_dataOut $end
$var wire 128 & outAES [127:0] $end
$var integer 32 ' index $end
$var integer 32 ( i $end
$scope module DUT $end
$var wire 1 ) clk $end
$var wire 1 * resetn $end
$var wire 128 + inpAES [127:0] $end
$var wire 1 , ctrl_dataIn $end
$var reg 1 - ctrl_dataOut $end
$var reg 128 . outAES [127:0] $end
$var reg 128 / auxData [15:0] $end
$var integer 32 0 i $end
$var integer 32 1 index $end
$var reg 4 2 aes_st [3:0] $end
$var reg 4 3 aes_st_next [3:0] $end
$var reg 4 4 round [3:0] $end
$var wire 128 5 dataOut_reg416 [15:0] $end
$var wire 1 6 reg416_empty $end
$var wire 1 7 reg416_full $end
$var wire 8 8 dataOut1_demux [7:0] $end
$var wire 128 9 dataOut2_demux [15:0] $end
$var wire 8 : dataOut_ROM [7:0] $end
$var reg 5 ; rom_cnt [4:0] $end
$var reg 1 < req_rom $end
$var reg 1 = shf_reg $end
$var wire 128 > dataIn_shifter [15:0] $end
$var wire 128 ? dataOut_shifter [15:0] $end
$var reg 1 @ wr_shf $end
$var reg 1 A wr_shf_delay $end
$var reg 1 B outp_en_shf $end
$var reg 1 C outp_en_shf_delay $end
$var wire 128 D dataOut_mixColumns [15:0] $end
$var reg 1 E wr_mC $end
$var reg 1 F wr_mC_delay $end
$var wire 128 G dataOut_reg162 [15:0] $end
$var reg 2 H reg162_cnt [1:0] $end
$var reg 1 I wr_reg162 $end
$var reg 1 J wr_reg162_delay $end
$var wire 128 K dataOut_reg161 [15:0] $end
$var reg 1 L wr_reg161 $end
$var wire 128 M dataIn_addRK [15:0] $end
$var reg 128 N dataOut_addRK [15:0] $end
$var reg 1 O wr_addRK $end
$var wire 8 P dataOut_reg163 [7:0] $end
$var reg 1 Q wr_reg163 $end
$var wire 128 R key [127:0] $end
$var reg 1 S mux1_chgInp $end
$var reg 1 T mux2_chgInp $end
$var reg 1 U end_st_reg $end
$scope module mux $end
$var wire 4 V addr [3:0] $end
$var wire 128 W inp0 [15:0] $end
$var wire 128 G inp1 [15:0] $end
$var reg 128 X aux [15:0] $end
$var reg 128 Y outp [15:0] $end
$upscope $end
$scope module shifter $end
$var wire 1 ) clk $end
$var wire 1 * resetn $end
$var wire 128 > inp_shf [15:0] $end
$var wire 1 Z outp_en $end
$var reg 128 [ aux [15:0] $end
$var reg 128 \ outp_shf [15:0] $end
$var integer 32 ] index $end
$upscope $end
$scope module reg16_3 $end
$var integer 32 ^ index $end
$var wire 1 ) clk $end
$var wire 1 * resetn $end
$var wire 1 _ wr_en $end
$var wire 1 ` req_rom $end
$var wire 128 ? inp_reg163 [15:0] $end
$var reg 128 a aux [15:0] $end
$var reg 4 b n_read [3:0] $end
$var reg 4 c n_read_delay [3:0] $end
$var reg 8 d outp_reg163 [7:0] $end
$upscope $end
$scope module rom_Sbox $end
$var wire 1 ) clk $end
$var wire 1 * resetn $end
$var wire 8 P addr_romSbox [7:0] $end
$var reg 8 e aux [7:0] $end
$var reg 8 f outp_romSbox [7:0] $end
$var integer 32 g index $end
$upscope $end
$scope module reg16_1 $end
$var integer 32 h index $end
$var wire 1 ) clk $end
$var wire 1 * resetn $end
$var wire 1 i wr_en $end
$var wire 8 : i [7:0] $end
$var reg 128 j aux [15:0] $end
$var reg 4 k counter [3:0] $end
$var reg 128 l o [15:0] $end
$upscope $end
$scope module mux2 $end
$var wire 4 m addr [3:0] $end
$var wire 128 n inp0 [15:0] $end
$var wire 128 K inp1 [15:0] $end
$var reg 128 o aux [15:0] $end
$var reg 128 p outp [15:0] $end
$upscope $end
$scope module addRK $end
$var wire 1 ) clk $end
$var wire 1 * resetn $end
$var wire 128 R inp_key_addRK [127:0] $end
$var wire 128 M inp_addRK [15:0] $end
$var reg 128 N outp_addRK [15:0] $end
$var integer 32 q index $end
$var integer 32 r row $end
$upscope $end
$scope module rom_key $end
$var wire 1 ) clk $end
$var wire 1 * resetn $end
$var wire 4 s addr_romKey [3:0] $end
$var reg 128 t outp_romKey [127:0] $end
$upscope $end
$scope module mixColumns $end
$var wire 1 ) clk $end
$var wire 1 * resetn $end
$var wire 128 u inp_mC [15:0] $end
$var wire 1 v wr_en $end
$var reg 128 w lookup [15:0] $end
$var reg 128 x temp [15:0] $end
$var reg 128 y auxIn [15:0] $end
$var reg 128 z outp_mC [15:0] $end
$var integer 32 { index $end
$var integer 32 | rowNum $end
$var integer 32 } i $end
$var integer 32 ~ j $end
$scope function invMixColumns $end
$var reg 128 !! invMixColumns [15:0] $end
$var reg 128 "! inp_mC [15:0] $end
$upscope $end
$scope function xtime $end
$var reg 8 #! xtime [7:0] $end
$var reg 8 $! num [7:0] $end
$upscope $end
$upscope $end
$scope module reg16_2 $end
$var integer 32 %! index $end
$var wire 1 ) clk $end
$var wire 1 * resetn $end
$var wire 1 &! wr_en $end
$var wire 4 '! round [3:0] $end
$var wire 128 D inp_reg162_mC [15:0] $end
$var wire 128 (! inp_reg162_shf [15:0] $end
$var reg 128 )! aux [15:0] $end
$var reg 128 *! outp_reg162 [15:0] $end
$upscope $end
$upscope $end
$scope task enableResetn $end
$upscope $end
$scope task test_AES_encryption $end
$upscope $end
$upscope $end
$enddefinitions $end
#0
$dumpvars
0!
bx !!
x"
bx "!
x#
b0 #!
bx $
bx $!
x%
bx %!
bx &
x&!
bx '
bx '!
b0 (
bx (!
0)
bx )!
x*
bx *!
bx +
x,
x-
bx .
bx /
bx 0
bx 1
bx 2
bx 3
bx 4
bz 5
z6
z7
bz 8
bz 9
bx :
bx ;
x<
x=
bx >
bx ?
x@
xA
xB
xC
bx D
xE
xF
bx G
bx H
xI
xJ
bx K
xL
bx M
bx N
xO
bx P
xQ
bx R
xS
xT
xU
bzx V
bx W
bx X
bx Y
xZ
bx [
bx \
bx ]
bx ^
x_
x`
bx a
bx b
bx c
bx d
bx e
bx f
bx g
bx h
xi
bx j
bx k
bx l
bzx m
bx n
bx o
bx p
bx q
bx r
bx s
bx t
bx u
xv
bx w
bx x
bx y
bx z
bx {
bx |
bx }
bx ~
$end
#10000
1!
0%
0&!
1)
0-
b0 ;
0<
0B
0E
0I
0Q
0U
0Z
0_
0`
b10000 q
bx r
0v
#11000
0"
b10000 %!
bx0000000000000000 &
b0 '!
b0 (!
b0 )!
0*
b0 *!
bx0000000000000000 .
b10000 0
b0 2
b0 3
b0 4
b0 >
b0 ?
b0 D
b0 G
b0 K
0L
b0 N
b0 P
b101110010011111011011101010100001001000001010001011011000011101011111001110000100000110001101110111010101110110001001011100101 R
0S
0T
bz0 V
b0 W
b0 Y
b0 \
b10000 ^
b0 a
b0 b
b0 c
b0 d
b1010010 e
b10000 h
0i
b0 j
b0 k
b0 l
bz0 m
bx p
b10000 q
b0 r
b0 s
b101110010011111011011101010100001001000001010001011011000011101011111001110000100000110001101110111010101110110001001011100101 t
b0 u
b0 y
b0 z
b10000 {
#20000
0!
0)
#30000
1!
b10000 %!
1)
b10000 0
b10000 ^
b10000 h
b10000 q
b10000 {
#31000
1"
1*
#40000
0!
0)
#50000
1!
1#
bx (!
1)
1,
b100 1
b110 3
bx >
bx ?
bx N
bx W
bx Y
bx \
b10000 q
b1 r
bx u
#60000
0!
0)
#70000
1!
b1111010010110000100110110011001111111101011110010010011111010101101011010110011010101100011110011000100101011010011101001100011 $
1)
b1111010010110000100110110011001111111101011110010010011111010101101011010110011010101100011110011000100101011010011101001100011 +
b1111010010110000100110110011001111111101011110010010011111010101101011010110011010101100011110011000100101011010011101001100011 /
b100 1
b110 2
b1 3
b0xxxx0x00x0xx0000x00xx0xx00xx00xxxxxxxx0x0xxxx00x00x00xxxxx0x0x0xx0x0xx0x0xx00xx0x0x0xx000xxxx00xx000x00x0x0xx0x00xxx0x00xx000xx M
b1111010010110000100110110011001111111101011110010010011111010101101011010110011010101100011110011000100101011010011101001100011 n
b0xxxx0x00x0xx0000x00xx0xx00xx00xxxxxxxx0x0xxxx00x00x00xxxxx0x0x0xx0x0xx0x0xx00xx0x0x0xx000xxxx00xx000x00x0x0xx0x00xxx0x00xx000xx p
b10000 q
b10 r
#80000
0!
0)
#90000
1!
b0xxxx1x00x0xx1111x11xx1xx10xx10xxxxxxxx0x0xxxx00x10x10xxxxx0x1x0xx1x1xx0x1xx00xx1x0x0xx100xxxx11xx111x10x0x1xx1x00xxx0x01xx001xx (!
1)
b100 1
b1 2
b10 3
b0xxxxxx00x0xxxxxxxxxxxxxxx0xxx0xxxxxxxx0x0xxxx00xx0xx0xxxxx0xxx0xxxxxxx0xxxx00xxxx0x0xxx00xxxxxxxxxxxxx0x0xxxxxx00xxx0x0xxx00xxx >
bx0xxx0x0xxxxxx00x0xxxxxxxxxxxxxxx0xx0xxxxx0xxx0xxxxxxx0x0xxxx00xxxx00xxxx0x0xxx00xxxxxxxxxxxxx0xxxxxxx0x0xxxxxx00xxx0x0xxx00xxx ?
1B
b0xxxx1x00x0xx1111x11xx1xx10xx10xxxxxxxx0x0xxxx00x10x10xxxxx0x1x0xx1x1xx0x1xx00xx1x0x0xx100xxxx11xx111x10x0x1xx1x00xxx0x01xx001xx N
b0xxxx1x00x0xx1111x11xx1xx10xx10xxxxxxxx0x0xxxx00x10x10xxxxx0x1x0xx1x1xx0x1xx00xx1x0x0xx100xxxx11xx111x10x0x1xx1x00xxx0x01xx001xx W
b0xxxxxx00x0xxxxxxxxxxxxxxx0xxx0xxxxxxxx0x0xxxx00xx0xx0xxxxx0xxx0xxxxxxx0xxxx00xxxx0x0xxx00xxxxxxxxxxxxx0x0xxxxxx00xxx0x0xxx00xxx Y
1Z
bx0xxx0x0xxxxxx00x0xxxxxxxxxxxxxxx0xx0xxxxx0xxx0xxxxxxx0x0xxxx00xxxx00xxxx0x0xxx00xxxxxxxxxxxxx0xxxxxxx0x0xxxxxx00xxx0x0xxx00xxx \
b10000 q
b11 r
b0xxxx1x00x0xx1111x11xx1xx10xx10xxxxxxxx0x0xxxx00x10x10xxxxx0x1x0xx1x1xx0x1xx00xx1x0x0xx100xxxx11xx111x10x0x1xx1x00xxx0x01xx001xx u
#100000
0!
0)
#110000
1!
b1 '!
1)
b100 1
b10 2
b11 3
b1 4
1Q
b10111001101010011011000001010110011000101110010011001010001001000001110111000111010000100001001100011001010110100111111101101000 R
1_
b10000 q
b100 r
b1 s
b10111001101010011011000001010110011000101110010011001010001001000001110111000111010000100001001100011001010110100111111101101000 t
#120000
0!
0)
#130000
1!
b1xxxx0x11x1xx0011x11xx0xx10xx11xxxxxxxx0x1xxxx00x10x10xxxxx0x1x0xx0x1xx1x1xx01xx0x0x0xx000xxxx11xx011x01x1x1xx1x01xxx1x10xx010xx (!
1)
b100 1
b11 2
b1010010 :
0<
b0 >
b0 ?
0B
0L
b1xxxx0x11x1xx0011x11xx0xx10xx11xxxxxxxx0x1xxxx00x10x10xxxxx0x1x0xx0x1xx1x1xx01xx0x0x0xx000xxxx11xx011x01x1x1xx1x01xxx1x10xx010xx N
bx00xxx P
0Q
1S
bz1 V
b1xxxx0x11x1xx0011x11xx0xx10xx11xxxxxxxx0x1xxxx00x10x10xxxxx0x1x0xx0x1xx1x1xx01xx0x0x0xx000xxxx11xx011x01x1x1xx1x01xxx1x10xx010xx W
b0 Y
0Z
b0 \
0_
bx0xxx0x0xxxxxx00x0xxxxxxxxxxxxxxx0xx0xxxxx0xxx0xxxxxxx0x0xxxx00xxxx00xxxx0x0xxx00xxxxxxxxxxxxx0xxxxxxx0x0xxxxxx00xxx0x0xxx00xxx a
bx00xxx d
bx e
b1010010 f
b10000 q
b101 r
b1xxxx0x11x1xx0011x11xx0xx10xx11xxxxxxxx0x1xxxx00x10x10xxxxx0x1x0xx0x1xx1x1xx01xx0x0x0xx000xxxx11xx011x01x1x1xx1x01xxx1x10xx010xx u
#140000
0!
0)
#150000
1!
1)
b100 1
b1 ;
1<
1`
b10000 q
b110 r
#160000
0!
0)
#170000
1!
1)
b100 1
bx :
b10 ;
1L
b0xxx0x0 P
b1 b
b0xxx0x0 d
bx f
1i
b10000 q
b111 r
#180000
0!
0)
#190000
1!
1)
b100 1
b11 ;
b0xxxxxxxx K
b0xxxx0x00x0xx0000x00xx0xx00xx00xxxxxxxx0x0xxxx00x00x00xxxxx0x0x0xx0x0xx0x0xx00xx0x0x0xx000xxxx00xx000x00x0x0xx0x00xxx0x0xxxxxxxx M
bx0xxxxxx P
b10 b
b1 c
bx0xxxxxx d
b0xxxxxxxx j
b1 k
b0xxxxxxxx l
b0xxxx0x00x0xx0000x00xx0xx00xx00xxxxxxxx0x0xxxx00x00x00xxxxx0x0x0xx0x0xx0x0xx00xx0x0x0xx000xxxx00xx000x00x0x0xx0x00xxx0x0xxxxxxxx p
b10000 q
b1000 r
#200000
0!
0)
#210000
1!
b1xxxx0x11x1xx0011x11xx0xx10xx11xxxxxxxx0x1xxxx00x10x10xxxxx0x1x0xx0x1xx1x1xx01xx0x0x0xx000xxxx11xx011x01x1x1xx1x01xxx1x1xxxxxxxx (!
1)
b100 1
b100 ;
b0xxxxxxxxxxxxxxxx K
b0xxxx0x00x0xx0000x00xx0xx00xx00xxxxxxxx0x0xxxx00x00x00xxxxx0x0x0xx0x0xx0x0xx00xx0x0x0xx000xxxx00xx000x00x0x0xx0xxxxxxxxxxxxxxxxx M
b1xxxx0x11x1xx0011x11xx0xx10xx11xxxxxxxx0x1xxxx00x10x10xxxxx0x1x0xx0x1xx1x1xx01xx0x0x0xx000xxxx11xx011x01x1x1xx1x01xxx1x1xxxxxxxx N
bx0 P
b1xxxx0x11x1xx0011x11xx0xx10xx11xxxxxxxx0x1xxxx00x10x10xxxxx0x1x0xx0x1xx1x1xx01xx0x0x0xx000xxxx11xx011x01x1x1xx1x01xxx1x1xxxxxxxx W
b0 Y
b11 b
b10 c
bx0 d
b0xxxxxxxxxxxxxxxx j
b10 k
b0xxxxxxxxxxxxxxxx l
b0xxxx0x00x0xx0000x00xx0xx00xx00xxxxxxxx0x0xxxx00x00x00xxxxx0x0x0xx0x0xx0x0xx00xx0x0x0xx000xxxx00xx000x00x0x0xx0xxxxxxxxxxxxxxxxx p
b10000 q
b1001 r
b1xxxx0x11x1xx0011x11xx0xx10xx11xxxxxxxx0x1xxxx00x10x10xxxxx0x1x0xx0x1xx1x1xx01xx0x0x0xx000xxxx11xx011x01x1x1xx1x01xxx1x1xxxxxxxx u
#220000
0!
0)
#230000
1!
b1xxxx0x11x1xx0011x11xx0xx10xx11xxxxxxxx0x1xxxx00x10x10xxxxx0x1x0xx0x1xx1x1xx01xx0x0x0xx000xxxx11xx011x01x1x1xx1xxxxxxxxxxxxxxxxx (!
1)
b100 1
b101 ;
b0xxxxxxxxxxxxxxxxxxxxxxxx K
b0xxxx0x00x0xx0000x00xx0xx00xx00xxxxxxxx0x0xxxx00x00x00xxxxx0x0x0xx0x0xx0x0xx00xx0x0x0xx000xxxx00xx000x00xxxxxxxxxxxxxxxxxxxxxxxx M
b1xxxx0x11x1xx0011x11xx0xx10xx11xxxxxxxx0x1xxxx00x10x10xxxxx0x1x0xx0x1xx1x1xx01xx0x0x0xx000xxxx11xx011x01x1x1xx1xxxxxxxxxxxxxxxxx N
b1xxxx0x11x1xx0011x11xx0xx10xx11xxxxxxxx0x1xxxx00x10x10xxxxx0x1x0xx0x1xx1x1xx01xx0x0x0xx000xxxx11xx011x01x1x1xx1xxxxxxxxxxxxxxxxx W
b0 Y
b100 b
b11 c
bx0 d
b0xxxxxxxxxxxxxxxxxxxxxxxx j
b11 k
b0xxxxxxxxxxxxxxxxxxxxxxxx l
b0xxxx0x00x0xx0000x00xx0xx00xx00xxxxxxxx0x0xxxx00x00x00xxxxx0x0x0xx0x0xx0x0xx00xx0x0x0xx000xxxx00xx000x00xxxxxxxxxxxxxxxxxxxxxxxx p
b10000 q
b1010 r
b1xxxx0x11x1xx0011x11xx0xx10xx11xxxxxxxx0x1xxxx00x10x10xxxxx0x1x0xx0x1xx1x1xx01xx0x0x0xx000xxxx11xx011x01x1x1xx1xxxxxxxxxxxxxxxxx u
#240000
0!
0)
#250000
1!
b1xxxx0x11x1xx0011x11xx0xx10xx11xxxxxxxx0x1xxxx00x10x10xxxxx0x1x0xx0x1xx1x1xx01xx0x0x0xx000xxxx11xx011x01xxxxxxxxxxxxxxxxxxxxxxxx (!
1)
b100 1
b110 ;
b0xxxxxxxxxxxxxxxxxxxxxxxxxxxxxxxx K
b0xxxx0x00x0xx0000x00xx0xx00xx00xxxxxxxx0x0xxxx00x00x00xxxxx0x0x0xx0x0xx0x0xx00xx0x0x0xx000xxxx00xxxxxxxxxxxxxxxxxxxxxxxxxxxxxxxx M
b1xxxx0x11x1xx0011x11xx0xx10xx11xxxxxxxx0x1xxxx00x10x10xxxxx0x1x0xx0x1xx1x1xx01xx0x0x0xx000xxxx11xx011x01xxxxxxxxxxxxxxxxxxxxxxxx N
b0xxxxxx P
b1xxxx0x11x1xx0011x11xx0xx10xx11xxxxxxxx0x1xxxx00x10x10xxxxx0x1x0xx0x1xx1x1xx01xx0x0x0xx000xxxx11xx011x01xxxxxxxxxxxxxxxxxxxxxxxx W
b0 Y
b101 b
b100 c
b0xxxxxx d
b0xxxxxxxxxxxxxxxxxxxxxxxxxxxxxxxx j
b100 k
b0xxxxxxxxxxxxxxxxxxxxxxxxxxxxxxxx l
b0xxxx0x00x0xx0000x00xx0xx00xx00xxxxxxxx0x0xxxx00x00x00xxxxx0x0x0xx0x0xx0x0xx00xx0x0x0xx000xxxx00xxxxxxxxxxxxxxxxxxxxxxxxxxxxxxxx p
b10000 q
b1011 r
b1xxxx0x11x1xx0011x11xx0xx10xx11xxxxxxxx0x1xxxx00x10x10xxxxx0x1x0xx0x1xx1x1xx01xx0x0x0xx000xxxx11xx011x01xxxxxxxxxxxxxxxxxxxxxxxx u
#260000
0!
0)
#270000
1!
b1xxxx0x11x1xx0011x11xx0xx10xx11xxxxxxxx0x1xxxx00x10x10xxxxx0x1x0xx0x1xx1x1xx01xx0x0x0xx000xxxx11xxxxxxxxxxxxxxxxxxxxxxxxxxxxxxxx (!
1)
b100 1
b111 ;
b0xxxxxxxxxxxxxxxxxxxxxxxxxxxxxxxxxxxxxxxx K
b0xxxx0x00x0xx0000x00xx0xx00xx00xxxxxxxx0x0xxxx00x00x00xxxxx0x0x0xx0x0xx0x0xx00xx0x0x0xx0xxxxxxxxxxxxxxxxxxxxxxxxxxxxxxxxxxxxxxxx M
b1xxxx0x11x1xx0011x11xx0xx10xx11xxxxxxxx0x1xxxx00x10x10xxxxx0x1x0xx0x1xx1x1xx01xx0x0x0xx000xxxx11xxxxxxxxxxxxxxxxxxxxxxxxxxxxxxxx N
bx0x0xxx P
b1xxxx0x11x1xx0011x11xx0xx10xx11xxxxxxxx0x1xxxx00x10x10xxxxx0x1x0xx0x1xx1x1xx01xx0x0x0xx000xxxx11xxxxxxxxxxxxxxxxxxxxxxxxxxxxxxxx W
b0 Y
b110 b
b101 c
bx0x0xxx d
b0xxxxxxxxxxxxxxxxxxxxxxxxxxxxxxxxxxxxxxxx j
b101 k
b0xxxxxxxxxxxxxxxxxxxxxxxxxxxxxxxxxxxxxxxx l
b0xxxx0x00x0xx0000x00xx0xx00xx00xxxxxxxx0x0xxxx00x00x00xxxxx0x0x0xx0x0xx0x0xx00xx0x0x0xx0xxxxxxxxxxxxxxxxxxxxxxxxxxxxxxxxxxxxxxxx p
b10000 q
b1100 r
b1xxxx0x11x1xx0011x11xx0xx10xx11xxxxxxxx0x1xxxx00x10x10xxxxx0x1x0xx0x1xx1x1xx01xx0x0x0xx000xxxx11xxxxxxxxxxxxxxxxxxxxxxxxxxxxxxxx u
#280000
0!
0)
#290000
1!
b1xxxx0x11x1xx0011x11xx0xx10xx11xxxxxxxx0x1xxxx00x10x10xxxxx0x1x0xx0x1xx1x1xx01xx0x0x0xx0xxxxxxxxxxxxxxxxxxxxxxxxxxxxxxxxxxxxxxxx (!
1)
b100 1
b1000 ;
b0xxxxxxxxxxxxxxxxxxxxxxxxxxxxxxxxxxxxxxxxxxxxxxxx K
b0xxxx0x00x0xx0000x00xx0xx00xx00xxxxxxxx0x0xxxx00x00x00xxxxx0x0x0xx0x0xx0x0xx00xxxxxxxxxxxxxxxxxxxxxxxxxxxxxxxxxxxxxxxxxxxxxxxxxx M
b1xxxx0x11x1xx0011x11xx0xx10xx11xxxxxxxx0x1xxxx00x10x10xxxxx0x1x0xx0x1xx1x1xx01xx0x0x0xx0xxxxxxxxxxxxxxxxxxxxxxxxxxxxxxxxxxxxxxxx N
bx00xx P
b1xxxx0x11x1xx0011x11xx0xx10xx11xxxxxxxx0x1xxxx00x10x10xxxxx0x1x0xx0x1xx1x1xx01xx0x0x0xx0xxxxxxxxxxxxxxxxxxxxxxxxxxxxxxxxxxxxxxxx W
b0 Y
b111 b
b110 c
bx00xx d
b0xxxxxxxxxxxxxxxxxxxxxxxxxxxxxxxxxxxxxxxxxxxxxxxx j
b110 k
b0xxxxxxxxxxxxxxxxxxxxxxxxxxxxxxxxxxxxxxxxxxxxxxxx l
b0xxxx0x00x0xx0000x00xx0xx00xx00xxxxxxxx0x0xxxx00x00x00xxxxx0x0x0xx0x0xx0x0xx00xxxxxxxxxxxxxxxxxxxxxxxxxxxxxxxxxxxxxxxxxxxxxxxxxx p
b10000 q
b1101 r
b1xxxx0x11x1xx0011x11xx0xx10xx11xxxxxxxx0x1xxxx00x10x10xxxxx0x1x0xx0x1xx1x1xx01xx0x0x0xx0xxxxxxxxxxxxxxxxxxxxxxxxxxxxxxxxxxxxxxxx u
#300000
0!
0)
#310000
1!
b1xxxx0x11x1xx0011x11xx0xx10xx11xxxxxxxx0x1xxxx00x10x10xxxxx0x1x0xx0x1xx1x1xx01xxxxxxxxxxxxxxxxxxxxxxxxxxxxxxxxxxxxxxxxxxxxxxxxxx (!
1)
b100 1
b1001 ;
b0xxxxxxxxxxxxxxxxxxxxxxxxxxxxxxxxxxxxxxxxxxxxxxxxxxxxxxxx K
b0xxxx0x00x0xx0000x00xx0xx00xx00xxxxxxxx0x0xxxx00x00x00xxxxx0x0x0xx0x0xx0xxxxxxxxxxxxxxxxxxxxxxxxxxxxxxxxxxxxxxxxxxxxxxxxxxxxxxxx M
b1xxxx0x11x1xx0011x11xx0xx10xx11xxxxxxxx0x1xxxx00x10x10xxxxx0x1x0xx0x1xx1x1xx01xxxxxxxxxxxxxxxxxxxxxxxxxxxxxxxxxxxxxxxxxxxxxxxxxx N
bx0xxxx00 P
b1xxxx0x11x1xx0011x11xx0xx10xx11xxxxxxxx0x1xxxx00x10x10xxxxx0x1x0xx0x1xx1x1xx01xxxxxxxxxxxxxxxxxxxxxxxxxxxxxxxxxxxxxxxxxxxxxxxxxx W
b0 Y
b1000 b
b111 c
bx0xxxx00 d
b0xxxxxxxxxxxxxxxxxxxxxxxxxxxxxxxxxxxxxxxxxxxxxxxxxxxxxxxx j
b111 k
b0xxxxxxxxxxxxxxxxxxxxxxxxxxxxxxxxxxxxxxxxxxxxxxxxxxxxxxxx l
b0xxxx0x00x0xx0000x00xx0xx00xx00xxxxxxxx0x0xxxx00x00x00xxxxx0x0x0xx0x0xx0xxxxxxxxxxxxxxxxxxxxxxxxxxxxxxxxxxxxxxxxxxxxxxxxxxxxxxxx p
b10000 q
b1110 r
b1xxxx0x11x1xx0011x11xx0xx10xx11xxxxxxxx0x1xxxx00x10x10xxxxx0x1x0xx0x1xx1x1xx01xxxxxxxxxxxxxxxxxxxxxxxxxxxxxxxxxxxxxxxxxxxxxxxxxx u
#320000
0!
0)
#330000
1!
b1xxxx0x11x1xx0011x11xx0xx10xx11xxxxxxxx0x1xxxx00x10x10xxxxx0x1x0xx0x1xx1xxxxxxxxxxxxxxxxxxxxxxxxxxxxxxxxxxxxxxxxxxxxxxxxxxxxxxxx (!
1)
b100 1
b1010 ;
b0xxxxxxxxxxxxxxxxxxxxxxxxxxxxxxxxxxxxxxxxxxxxxxxxxxxxxxxxxxxxxxxx K
b0xxxx0x00x0xx0000x00xx0xx00xx00xxxxxxxx0x0xxxx00x00x00xxxxx0x0x0xxxxxxxxxxxxxxxxxxxxxxxxxxxxxxxxxxxxxxxxxxxxxxxxxxxxxxxxxxxxxxxx M
b1xxxx0x11x1xx0011x11xx0xx10xx11xxxxxxxx0x1xxxx00x10x10xxxxx0x1x0xx0x1xx1xxxxxxxxxxxxxxxxxxxxxxxxxxxxxxxxxxxxxxxxxxxxxxxxxxxxxxxx N
bx0 P
b1xxxx0x11x1xx0011x11xx0xx10xx11xxxxxxxx0x1xxxx00x10x10xxxxx0x1x0xx0x1xx1xxxxxxxxxxxxxxxxxxxxxxxxxxxxxxxxxxxxxxxxxxxxxxxxxxxxxxxx W
b0 Y
b1001 b
b1000 c
bx0 d
b0xxxxxxxxxxxxxxxxxxxxxxxxxxxxxxxxxxxxxxxxxxxxxxxxxxxxxxxxxxxxxxxx j
b1000 k
b0xxxxxxxxxxxxxxxxxxxxxxxxxxxxxxxxxxxxxxxxxxxxxxxxxxxxxxxxxxxxxxxx l
b0xxxx0x00x0xx0000x00xx0xx00xx00xxxxxxxx0x0xxxx00x00x00xxxxx0x0x0xxxxxxxxxxxxxxxxxxxxxxxxxxxxxxxxxxxxxxxxxxxxxxxxxxxxxxxxxxxxxxxx p
b10000 q
b1111 r
b1xxxx0x11x1xx0011x11xx0xx10xx11xxxxxxxx0x1xxxx00x10x10xxxxx0x1x0xx0x1xx1xxxxxxxxxxxxxxxxxxxxxxxxxxxxxxxxxxxxxxxxxxxxxxxxxxxxxxxx u
#340000
0!
0)
#350000
1!
b1xxxx0x11x1xx0011x11xx0xx10xx11xxxxxxxx0x1xxxx00x10x10xxxxx0x1x0xxxxxxxxxxxxxxxxxxxxxxxxxxxxxxxxxxxxxxxxxxxxxxxxxxxxxxxxxxxxxxxx (!
1)
b100 1
b1011 ;
b0xxxxxxxxxxxxxxxxxxxxxxxxxxxxxxxxxxxxxxxxxxxxxxxxxxxxxxxxxxxxxxxxxxxxxxxx K
b0xxxx0x00x0xx0000x00xx0xx00xx00xxxxxxxx0x0xxxx00x00x00xxxxxxxxxxxxxxxxxxxxxxxxxxxxxxxxxxxxxxxxxxxxxxxxxxxxxxxxxxxxxxxxxxxxxxxxxx M
b1xxxx0x11x1xx0011x11xx0xx10xx11xxxxxxxx0x1xxxx00x10x10xxxxx0x1x0xxxxxxxxxxxxxxxxxxxxxxxxxxxxxxxxxxxxxxxxxxxxxxxxxxxxxxxxxxxxxxxx N
bx0xxx0 P
b1xxxx0x11x1xx0011x11xx0xx10xx11xxxxxxxx0x1xxxx00x10x10xxxxx0x1x0xxxxxxxxxxxxxxxxxxxxxxxxxxxxxxxxxxxxxxxxxxxxxxxxxxxxxxxxxxxxxxxx W
b0 Y
b1010 b
b1001 c
bx0xxx0 d
b0xxxxxxxxxxxxxxxxxxxxxxxxxxxxxxxxxxxxxxxxxxxxxxxxxxxxxxxxxxxxxxxxxxxxxxxx j
b1001 k
b0xxxxxxxxxxxxxxxxxxxxxxxxxxxxxxxxxxxxxxxxxxxxxxxxxxxxxxxxxxxxxxxxxxxxxxxx l
b0xxxx0x00x0xx0000x00xx0xx00xx00xxxxxxxx0x0xxxx00x00x00xxxxxxxxxxxxxxxxxxxxxxxxxxxxxxxxxxxxxxxxxxxxxxxxxxxxxxxxxxxxxxxxxxxxxxxxxx p
b10000 q
b10000 r
b1xxxx0x11x1xx0011x11xx0xx10xx11xxxxxxxx0x1xxxx00x10x10xxxxx0x1x0xxxxxxxxxxxxxxxxxxxxxxxxxxxxxxxxxxxxxxxxxxxxxxxxxxxxxxxxxxxxxxxx u
#360000
0!
0)
