Vivado_projects/shifter/shifter.sim/sim_1/behav/xsim/wv_mod_enc_shifter.vcd
$date
   Sat Sep 18 18:48:54 2021
$end
$version
  2020.2
$end
$timescale
  1ps
$end
$scope module tb_mod_enc_shifter $end
$var integer 32 ! index $end
$var reg 1 " clk $end
$var reg 1 # resetn $end
$var reg 1 $ wr_en $end
$var reg 1 % reg41_full $end
$var reg 32 & p00 [3:0] $end
$var wire 32 ' o00 [3:0] $end
$var wire 1 ( done $end
$scope module DUT $end
$var wire 1 ) clk $end
$var wire 1 * resetn $end
$var wire 1 + wr_en $end
$var wire 1 , reg41_full $end
$var wire 32 - inp [3:0] $end
$var reg 1 . reg_wrEn $end
$var reg 1 / reg_reg41Full $end
$var reg 32 0 aux [3:0] $end
$var reg 32 1 outp [3:0] $end
$var reg 1 2 done $end
$var reg 2 3 row [1:0] $end
$var integer 32 4 index $end
$upscope $end
$scope task test_shifter_row0 $end
$upscope $end
$scope task test_shifter_row1 $end
$upscope $end
$scope task test_shifter_row2 $end
$upscope $end
$scope task test_shifter_row3 $end
$upscope $end
$upscope $end
$enddefinitions $end
#0
$dumpvars
bx !
0"
0#
x$
x%
bx &
bx '
x(
0)
0*
x+
x,
bx -
x.
x/
bx 0
bx 1
x2
bx 3
bx 4
$end
#10000
1"
1(
1)
b0 0
12
b11 3
b100 4
#20000
b100 !
0"
1#
b11000000100000000100000000 &
0)
1*
b11000000100000000100000000 -
#30000
1"
0$
1)
0+
0.
b11000000100000000100000000 0
#40000
0"
0)
#50000
1"
1%
b10000000010000000000000011 '
1)
1,
1/
b10000000010000000000000011 1
12
b0 3
#60000
0"
0)
#70000
1"
b11000000100000000100000000 '
1)
b11000000100000000100000000 1
12
b1 3
#80000
0"
0)
#90000
1"
0$
b110000001000000001 '
1)
0+
b110000001000000001 1
12
b10 3
#100000
0"
0)
#110000
1"
b1000000000000001100000010 '
1)
b1000000000000001100000010 1
12
b11 3
#120000
0"
0)
#130000
1"
0%
1)
0,
0/
#140000
0"
0)
#150000
1"
1%
b10000000010000000000000011 '
1)
1,
1/
b10000000010000000000000011 1
12
b0 3
#160000
0"
0)
#170000
1"
b11000000100000000100000000 '
1)
b11000000100000000100000000 1
12
b1 3
#180000
0"
0)
#190000
1"
1$
1)
1+
1.
#200000
0"
0)
#210000
1"
0$
b110000001000000001 '
1)
0+
0.
b110000001000000001 1
12
b10 3
#220000
0"
0)
#230000
1"
b1000000000000001100000010 '
1)
b1000000000000001100000010 1
12
b11 3
#240000
0"
0)
#250000
1$
