Vivado_projects/AES256_enc/AES256_enc.sim/sim_1/behav/xsim/wv_AES256_enc.vcd
$date
   Sat Sep 11 20:19:51 2021
$end
$version
  2020.2
$end
$timescale
  1ps
$end
$scope module tb_AES256_enc $end
$var reg 1 ! clk $end
$var reg 1 " resetn $end
$var reg 8 # flags [7:0] $end
$var reg 128 $ plaintext [15:0] $end
$var reg 1 % addr $end
$var wire 1 & done $end
$var wire 128 ' encData [15:0] $end
$var integer 32 ( index $end
$scope module DUT $end
$var integer 32 ) i $end
$var reg 4 * round [3:0] $end
$var wire 1 + clk $end
$var wire 1 , resetn $end
$var wire 8 - flags [7:0] $end
$var wire 128 . plaintext [15:0] $end
$var wire 1 / addr $end
$var reg 8 0 regCTRL [7:0] $end
$var reg 128 1 encryptedData [15:0] $end
$var reg 1 2 done $end
$var wire 128 ' encData [15:0] $end
$var wire 8 3 dataOut1_demux [7:0] $end
$var wire 128 4 dataOut2_demux [15:0] $end
$var wire 1 5 fifo_empty $end
$var wire 8 6 dataOut_fifo [7:0] $end
$var wire 8 7 dataOut_ROM [7:0] $end
$var wire 1 8 OK_ROM $end
$var wire 1 9 req_ROM $end
$var wire 32 : dataOut_reg4_1 [3:0] $end
$var wire 1 ; reg41_full $end
$var wire 32 < dataOut_shifter [3:0] $end
$var wire 2 = row [1:0] $end
$var wire 1 > OK_shifter $end
$var wire 128 ? dataOut_reg16_1 [15:0] $end
$var wire 1 @ reg161_full $end
$var wire 1 A OK_mC $end
$var wire 128 B dataOut_mixColumns [15:0] $end
$var wire 1 C req_mixColumns $end
$var wire 128 D dataOut_reg16_2 [15:0] $end
$var wire 1 E reg162_full $end
$var wire 1 F OK_addRK $end
$var wire 1 G OK_inKey $end
$var wire 128 H dataIn_addRK [15:0] $end
$var wire 128 I dataOut_addRK [15:0] $end
$var wire 8 J dataOut_reg163 [7:0] $end
$var wire 1 K reg163_empty $end
$var wire 128 L key [127:0] $end
$var wire 1 M OK_romKey $end
$scope module demux $end
$var wire 1 / addr $end
$var wire 128 . inp [127:0] $end
$var wire 8 3 outp0 [7:0] $end
$var wire 128 4 outp1 [15:0] $end
$var reg 128 N auxData [15:0] $end
$var reg 8 O auxFlags [7:0] $end
$var integer 32 P i $end
$upscope $end
$scope module fifo $end
$var wire 1 + clk $end
$var wire 1 , resetn $end
$var wire 1 8 rd_ROM $end
$var wire 1 K reg16_empty $end
$var wire 8 J inp [7:0] $end
$var reg 1 Q reg_rdROM $end
$var reg 8 R reg_inp [7:0] $end
$var reg 8 S outp [7:0] $end
$var reg 1 T empty $end
$upscope $end
$scope module rom_Sbox $end
$var wire 1 + clk $end
$var wire 1 , resetn $end
$var wire 1 ; reg_full $end
$var wire 1 5 fifo_empty $end
$var wire 8 6 addr [7:0] $end
$var reg 8 U data [7:0] $end
$var reg 1 V done $end
$var reg 1 W wr_req $end
$var integer 32 X index $end
$upscope $end
$scope module reg4_1 $end
$var integer 32 Y index $end
$var wire 1 + clk $end
$var wire 1 , resetn $end
$var wire 1 > rd_en $end
$var wire 1 9 wr_en $end
$var wire 8 7 i [7:0] $end
$var reg 32 Z aux [3:0] $end
$var reg 2 [ counter [1:0] $end
$var reg 1 \ reg_full $end
$var reg 32 ] o [3:0] $end
$upscope $end
$scope module shifter $end
$var wire 1 + clk $end
$var wire 1 , resetn $end
$var wire 1 @ wr_en $end
$var wire 1 ; reg41_full $end
$var wire 32 : inp [3:0] $end
$var reg 1 ^ reg_wrEn $end
$var reg 1 _ reg_reg41Full $end
$var reg 32 ` aux [3:0] $end
$var reg 32 a outp [3:0] $end
$var reg 1 b done $end
$var reg 2 c row [1:0] $end
$var integer 32 d index $end
$upscope $end
$scope module reg16_1 $end
$var integer 32 e index $end
$var wire 1 + clk $end
$var wire 1 , resetn $end
$var wire 1 A rd_en $end
$var wire 1 > wr_en $end
$var wire 32 < i [3:0] $end
$var reg 128 f aux [15:0] $end
$var reg 2 g counter [1:0] $end
$var reg 1 h reg_full $end
$var reg 128 i o [15:0] $end
$upscope $end
$scope module mixColumns $end
$var wire 1 + clk $end
$var wire 1 E enable $end
$var wire 1 , reset $end
$var wire 128 ? state [15:0] $end
$var reg 128 j state_out [15:0] $end
$var reg 1 k done $end
$var wire 128 l state_out_comb [15:0] $end
$var integer 32 m index $end
$scope function MultiplyByTwo $end
$var reg 8 n MultiplyByTwo [7:0] $end
$var reg 8 o x [7:0] $end
$upscope $end
$scope function MultiplyByThree $end
$var reg 8 p MultiplyByThree [7:0] $end
$var reg 8 q x [7:0] $end
$upscope $end
$upscope $end
$scope module reg16_2 $end
$var integer 32 r index $end
$var wire 1 + clk $end
$var wire 1 , resetn $end
$var wire 1 A wr_en $end
$var wire 128 B i [15:0] $end
$var reg 1 s reg_full $end
$var reg 128 t o [15:0] $end
$upscope $end
$scope module mux $end
$var wire 1 u addr $end
$var wire 128 4 inp0 [15:0] $end
$var wire 128 D inp1 [15:0] $end
$var wire 128 H outp [15:0] $end
$upscope $end
$scope module addRK $end
$var wire 1 + clk $end
$var wire 1 , resetn $end
$var wire 1 K reg_empty $end
$var wire 1 M rd_comp $end
$var wire 1 v startBit $end
$var wire 128 L k [127:0] $end
$var wire 128 H p [15:0] $end
$var reg 1 w reg163_empty $end
$var reg 1 x rd_romKey $end
$var reg 128 y regKey [127:0] $end
$var reg 128 z reg_p [15:0] $end
$var reg 128 { o [15:0] $end
$var reg 1 | ok $end
$var reg 1 } ok_inkey $end
$var integer 32 ~ i $end
$upscope $end
$scope module rom_key $end
$var wire 1 + clk $end
$var wire 1 , resetn $end
$var wire 1 !! startBit $end
$var wire 1 G wr_en $end
$var wire 4 "! selectKey [3:0] $end
$var reg 128 #! data [127:0] $end
$var reg 1 $! done $end
$var reg 1 %! reg_startBit $end
$upscope $end
$scope module reg16_3 $end
$var integer 32 &! index $end
$var wire 1 + clk $end
$var wire 1 , resetn $end
$var wire 1 F wr_en $end
$var wire 1 5 req_fifo $end
$var wire 128 I i [15:0] $end
$var reg 128 '! aux [15:0] $end
$var reg 4 (! n_read [3:0] $end
$var reg 1 )! wr_enReg $end
$var reg 1 *! reg_empty $end
$var reg 8 +! o [7:0] $end
$upscope $end
$upscope $end
$scope task enableResetn $end
$upscope $end
$scope task test_AES_encryption $end
$upscope $end
$upscope $end
$enddefinitions $end
#0
$dumpvars
0!
x!!
x"
bx "!
bx #
bx #!
bx $
x$!
x%
x%!
x&
bx &!
bx '
bx '!
bx (
bx (!
bx )
x)!
bx *
x*!
0+
bx +!
x,
bx -
bx .
x/
bx 0
bx 1
x2
bx 3
bx 4
x5
bx 6
bx 7
x8
x9
bx :
x;
bx <
bz =
x>
bx ?
x@
0A
b0 B
zC
bx D
xE
xF
xG
bx H
bx I
bx J
xK
bx L
xM
bx N
bx O
bx P
xQ
bx R
bx S
xT
bx U
xV
xW
bx X
bx Y
bx Z
b0 [
x\
bx ]
x^
x_
bx `
bx a
xb
bx c
bx d
bx e
bx f
bx g
xh
bx i
b0 j
0k
bx l
bx m
bx0 n
bx o
bx p
bx q
bx r
xs
bx t
xu
xv
xw
xx
bx y
bx z
bx {
x|
x}
bx ~
$end
#10000
1!
0$!
1+
bx 0
x2
08
09
1>
0E
0M
0V
0W
1b
0s
#11000
0"
0$!
b10000 &!
b0 '!
b0 (!
bx *
1*!
0,
bx0x 0
b0 :
0;
b0 ?
0@
0F
1G
1K
b100 Y
b0 Z
0\
b0 ]
b10000 e
b0 f
b0 g
0h
b0 i
b0 l
b0 n
b0 o
b0 p
b0 q
1w
0|
1}
#20000
0!
0+
#30000
1!
0!!
b0 "!
0$!
0&
b10000 &!
b0 '
b10000 )
b0 *
1*!
1+
b0 0
b0 1
02
15
18
1A
b0 D
b0 H
b0 R
1T
1V
0W
b100 Y
0\
b0 ]
1b
b0 c
b10000 e
0h
b0 i
1k
b10000 m
b10000 r
0s
b0 t
0u
0v
0|
1}
#31000
1"
b1 $
0%
1,
b1 .
0/
b1 3
b1 O
#40000
0!
0+
#50000
1!
1!!
b1 "!
b10000001000000011000001000000010100000110000001110000100000001001000010100000101100001100000011010000111000001111 #!
b100000001000000110000001100000111000001110000111100001111000111110001111100111111001111110111111101111111 $
1$!
1%
1%!
b1 *
1+
b100000001000000110000001100000111000001110000111100001111000111110001111100111111001111110111111101111111 .
1/
b1 0
02
b100000001000000110000001100000111000001110000111100001111000111110001111100111111001111110111111101111111 4
19
0A
1E
1F
b100000001000000110000001100000111000001110000111100001111000111110001111100111111001111110111111101111111 H
b10000001000000011000001000000010100000110000001110000100000001001000010100000101100001100000011010000111000001111 L
1M
b100000001000000110000001100000111000001110000111100001111000111110001111100111111001111110111111101111111 N
b10000 P
1Q
bx U
1V
1W
0^
0_
b0 `
1b
b100 e
b0xxxxxxxxxxxxxxxxxxxxxxxxxxxxxxxx f
b1 g
0k
b10000 r
1s
b0 t
1u
1v
0w
0x
b0 z
bx {
1|
1}
b10000 ~
#60000
0!
0+
#70000
1!
b10000001000000011000001000000010100000110000001110000100000001001000000010000001000000011000001000000010100000110 #!
1$!
b10000 &!
bx '!
0*!
1+
b1 0
02
1A
0E
b10000001100000010000001110000011000000001000000000000011100000110000101010001010000110011001100100111000101110000 I
0K
b10000001000000011000001000000010100000110000001110000100000001001000000010000001000000011000001000000010100000110 L
bx U
1V
1W
b0xxxxxxxx Z
b1 [
1b
b100 e
b0xxxxxxxxxxxxxxxxxxxxxxxxxxxxxxxxxxxxxxxxxxxxxxxxxxxxxxxxxxxxxxxx f
b10 g
1k
b10000 m
0s
0w
0x
b10000001000000011000001000000010100000110000001110000100000001001000010100000101100001100000011010000111000001111 y
b100000001000000110000001100000111000001110000111100001111000111110001111100111111001111110111111101111111 z
b10000001100000010000001110000011000000001000000000000011100000110000101010001010000110011001100100111000101110000 {
1|
1}
b10000 ~
#80000
0!
0+
#90000
1!
b10 "!
1$!
b1 (!
b10 *
1+
bx +!
b1 0
02
05
0A
1E
0F
0G
bx R
0T
bx U
1V
1W
b0xxxxxxxxxxxxxxxx Z
b10 [
1b
b100 e
b0xxxxxxxxxxxxxxxxxxxxxxxxxxxxxxxxxxxxxxxxxxxxxxxxxxxxxxxxxxxxxxxxxxxxxxxxxxxxxxxxxxxxxxxxxxxxxxxx f
b11 g
0k
b10000 r
1s
b0 t
1x
b10000001000000011000001000000010100000110000001110000100000001001000000010000001000000011000001000000010100000110 y
0|
0}
#100000
0!
0+
#110000
1!
0$!
1+
b1 0
02
15
1@
1A
0E
0M
bx S
1T
bx U
1V
1W
b0xxxxxxxxxxxxxxxxxxxxxxxx Z
b11 [
1b
b100 e
bx f
b0 g
1h
1k
b10000 m
0s
0|
0}
#120000
0!
0+
#130000
1!
0$!
b10 (!
1+
bx +!
b1 0
02
05
1;
bx ?
0@
0A
1E
0T
bx U
1V
1W
bx Z
b0 [
1\
1^
1b
b10000 e
0h
bx i
0k
bx l
bx0 n
bx o
bx p
bx q
b10000 r
1s
b0 t
0x
0|
0}
#140000
0!
0+
#150000
1!
0$!
1+
b1 0
02
15
08
09
bx :
0;
b0 <
0>
1A
bx B
0E
bx S
1T
0V
0W
b100 Y
0\
bx ]
0^
1_
b0 a
0b
b1 c
b100 e
b1 g
bx j
1k
b10000 m
0s
0|
0}
#160000
0!
0+
#170000
1!
0$!
b11 (!
1+
bx +!
b1 0
02
05
18
19
1>
0A
bx D
1E
0Q
0T
bx U
1V
1W
0_
bx `
1b
0k
b10000 r
1s
bx t
0|
0}
#180000
0!
0+
#190000
1!
0$!
1+
b1 0
02
15
1A
0E
1Q
bx S
1T
bx U
1V
1W
b1 [
1b
b100 e
bx00000000000000000000000000000000xxxxxxxxxxxxxxxxxxxxxxxxxxxxxxxx f
b10 g
1k
b10000 m
0s
0|
0}
#200000
0!
0+
#210000
1!
0$!
b100 (!
1+
bx +!
b1 0
02
05
0A
1E
0T
bx U
1V
1W
b10 [
1b
b100 e
bx0000000000000000000000000000000000000000000000000000000000000000xxxxxxxxxxxxxxxxxxxxxxxxxxxxxxxx f
b11 g
0k
b10000 r
1s
bx t
0|
0}
#220000
0!
0+
#230000
1!
0$!
1+
b1 0
02
15
1@
1A
0E
bx S
1T
bx U
1V
1W
b11 [
1b
b100 e
b0xxxxxxxxxxxxxxxxxxxxxxxxxxxxxxxx f
b0 g
1h
1k
b10000 m
0s
0|
0}
#240000
0!
0+
#250000
1!
0$!
b101 (!
1+
bx +!
b1 0
02
05
1;
b0xxxxxxxxxxxxxxxxxxxxxxxxxxxxxxxx ?
0@
0A
1E
0T
bx U
1V
1W
b0 [
1\
1^
1b
b10000 e
0h
b0xxxxxxxxxxxxxxxxxxxxxxxxxxxxxxxx i
0k
b0xxxxxxxxxxxxxxxxxxxxxxxxxxxxxxxx l
b0 n
b0 o
b0 p
b0 q
b10000 r
1s
bx t
0|
0}
#260000
0!
0+
#270000
1!
0$!
1+
b1 0
02
15
08
09
0;
bx <
0>
1A
b0xxxxxxxxxxxxxxxxxxxxxxxxxxxxxxxx B
0E
bx S
1T
0V
0W
b100 Y
0\
bx ]
0^
1_
bx a
0b
b10 c
b100 e
b0 f
b1 g
b0xxxxxxxxxxxxxxxxxxxxxxxxxxxxxxxx j
1k
b10000 m
0s
0|
0}
#280000
0!
0+
#290000
1!
0$!
b110 (!
1+
bx +!
b1 0
02
05
18
19
1>
0A
b0xxxxxxxxxxxxxxxxxxxxxxxxxxxxxxxx D
1E
0Q
0T
bx U
1V
1W
0_
1b
0k
b10000 r
1s
b0xxxxxxxxxxxxxxxxxxxxxxxxxxxxxxxx t
0|
0}
#300000
0!
0+
#310000
1!
0$!
1+
b1 0
02
15
1A
0E
1Q
bx S
1T
bx U
1V
1W
b1 [
1b
b100 e
b0xxxxxxxxxxxxxxxxxxxxxxxxxxxxxxxx00000000000000000000000000000000 f
b10 g
1k
b10000 m
0s
0|
0}
#320000
0!
0+
#330000
1!
0$!
b111 (!
1+
bx +!
b1 0
02
05
0A
1E
0T
bx U
1V
1W
b10 [
1b
b100 e
b0xxxxxxxxxxxxxxxxxxxxxxxxxxxxxxxxxxxxxxxxxxxxxxxxxxxxxxxxxxxxxxxx00000000000000000000000000000000 f
b11 g
0k
b10000 r
1s
b0xxxxxxxxxxxxxxxxxxxxxxxxxxxxxxxx t
0|
0}
#340000
0!
0+
#350000
1!
0$!
1+
b1 0
02
15
1@
1A
0E
bx S
1T
bx U
1V
1W
b11 [
1b
b100 e
bx00000000000000000000000000000000 f
b0 g
1h
1k
b10000 m
0s
0|
0}
#360000
0!
0+
#370000
1!
0$!
b1000 (!
1+
bx +!
b1 0
02
05
1;
bx00000000000000000000000000000000 ?
0@
0A
1E
0T
bx U
1V
1W
b0 [
1\
1^
1b
b10000 e
0h
bx00000000000000000000000000000000 i
0k
bx00000000000000000000000000000000 l
bx0 n
bx o
bx p
bx q
b10000 r
1s
b0xxxxxxxxxxxxxxxxxxxxxxxxxxxxxxxx t
0|
0}
#380000
0!
0+
#390000
1!
0$!
1+
b1 0
02
15
08
09
0;
0>
1A
bx00000000000000000000000000000000 B
0E
bx S
1T
0V
0W
b100 Y
0\
bx ]
0^
1_
bx a
0b
b11 c
b100 e
bx f
b1 g
bx00000000000000000000000000000000 j
1k
b10000 m
0s
0|
0}
#400000
0!
0+
#410000
1!
0$!
b1001 (!
1+
bx +!
b1 0
02
05
18
19
1>
0A
bx00000000000000000000000000000000 D
1E
0Q
0T
bx U
1V
1W
0_
1b
0k
b10000 r
1s
bx00000000000000000000000000000000 t
0|
0}
#420000
0!
0+
#430000
1!
0$!
1+
b1 0
02
15
1A
0E
1Q
bx S
1T
bx U
1V
1W
b1 [
1b
b100 e
b10 g
1k
b10000 m
0s
0|
0}
#440000
0!
0+
#450000
1!
0$!
b1010 (!
1+
bx +!
b1 0
02
05
0A
1E
0T
bx U
1V
1W
b10 [
1b
b100 e
b11 g
0k
b10000 r
1s
bx00000000000000000000000000000000 t
0|
0}
#460000
0!
0+
#470000
1!
0$!
1+
b1 0
02
15
1@
1A
0E
bx S
1T
bx U
1V
1W
b11 [
1b
b100 e
b0 g
1h
1k
b10000 m
0s
0|
0}
#480000
0!
0+
#490000
1!
0$!
b1011 (!
1+
bx +!
b1 0
02
05
1;
bx ?
0@
0A
1E
0T
bx U
1V
1W
b0 [
1\
1^
1b
b10000 e
0h
bx i
0k
bx l
b10000 r
1s
bx00000000000000000000000000000000 t
0|
0}
#500000
0!
0+
#510000
1!
0$!
1+
b1 0
02
15
08
09
0;
0>
1A
bx B
0E
bx S
1T
0V
0W
b100 Y
0\
bx ]
0^
1_
bx a
0b
b0 c
b100 e
b1 g
bx j
1k
b10000 m
0s
0|
0}
#520000
0!
0+
#530000
1!
0$!
b1100 (!
1+
bx +!
b1 0
02
05
18
19
1>
0A
bx D
1E
0Q
0T
bx U
1V
1W
0_
1b
0k
b10000 r
1s
bx t
0|
0}
#540000
0!
0+
#550000
1!
0$!
1+
b1 0
02
15
1A
0E
1Q
bx S
1T
bx U
1V
1W
b1 [
1b
b100 e
b10 g
1k
b10000 m
0s
0|
0}
#560000
0!
0+
#570000
1!
0$!
b1101 (!
1+
bx +!
b1 0
02
05
0A
1E
0T
bx U
1V
1W
b10 [
1b
b100 e
b11 g
0k
b10000 r
1s
bx t
0|
0}
#580000
0!
0+
#590000
1!
0$!
1+
b1 0
02
15
1@
1A
0E
bx S
1T
bx U
1V
1W
b11 [
1b
b100 e
b0 g
1h
1k
b10000 m
0s
0|
0}
#600000
0!
0+
#610000
1!
0$!
b1110 (!
1+
bx +!
b1 0
02
05
1;
0@
0A
1E
0T
bx U
1V
1W
b0 [
1\
1^
1b
b10000 e
0h
bx i
0k
b10000 r
1s
bx t
0|
0}
#620000
0!
0+
#630000
1!
0$!
1+
b1 0
02
15
08
09
0;
0>
1A
0E
bx S
1T
0V
0W
b100 Y
0\
bx ]
0^
1_
bx a
0b
b1 c
b100 e
b1 g
1k
b10000 m
0s
0|
0}
#640000
0!
0+
#650000
1!
0$!
b1111 (!
1+
bx +!
b1 0
02
05
18
19
1>
0A
1E
0Q
0T
bx U
1V
1W
0_
1b
0k
b10000 r
1s
bx t
0|
0}
#660000
0!
0+
#670000
1!
0$!
1+
b1 0
02
15
1A
0E
1Q
bx S
1T
bx U
1V
1W
b1 [
1b
b100 e
b10 g
1k
b10000 m
0s
0|
0}
#680000
0!
0+
#690000
1!
0$!
b0 (!
1*!
1+
bx +!
b1 0
02
05
0A
1E
1K
0T
bx U
1V
1W
b10 [
1b
b100 e
b11 g
0k
b10000 r
1s
bx t
0|
0}
#700000
0!
0+
#710000
1!
b11 "!
0$!
b11 *
1+
b1 0
02
15
1@
1A
0E
1F
1G
b10000001100000010000001110000011000000001000000000000011100000110000111100001110100111100001110110111101001111001 I
bx S
1T
bx U
1V
1W
b11 [
1b
b100 e
b0 g
1h
1k
b10000 m
0s
0w
b10000001100000010000001110000011000000001000000000000011100000110000111100001110100111100001110110111101001111001 {
1|
1}
b10000 ~
#720000
0!
0+
#730000
1!
b10000001000000011000001000000010100000110000001110000100000001001000010100000101100001100000011010000111000001111 #!
1$!
b10000 &!
b10000001100000010000001110000011000000001000000000000011100000110000111100001110100111100001110110111101001111001 '!
0*!
1+
b1 0
02
1;
0@
0A
1E
0K
b10000001000000011000001000000010100000110000001110000100000001001000010100000101100001100000011010000111000001111 L
1M
bx U
1V
1W
b0 [
1\
1^
1b
b10000 e
0h
bx i
0k
b10000 r
1s
bx t
0w
b10000001100000010000001110000011000000001000000000000011100000110000111100001110100111100001110110111101001111001 {
1|
1}
b10000 ~
#740000
0!
0+
#750000
1!
b100 "!
1$!
b1 (!
b100 *
1+
b1111001 +!
b1 0
02
05
08
09
0;
0>
1A
0E
0F
0G
b1111001 J
0T
0V
0W
b100 Y
0\
bx ]
0^
1_
bx a
0b
b10 c
b100 e
b1 g
1k
b10000 m
0s
1x
b10000001000000011000001000000010100000110000001110000100000001001000010100000101100001100000011010000111000001111 y
0|
0}
#760000
0!
0+
#770000
1!
0$!
1+
b1 0
02
18
19
1>
0A
1E
0M
0Q
bx U
1V
1W
0_
1b
0k
b10000 r
1s
bx t
0|
0}
#780000
0!
0+
#790000
1!
0$!
1+
b1 0
02
15
1A
0E
1Q
bx S
1T
bx U
1V
1W
b1 [
1b
b100 e
b10 g
1k
b10000 m
0s
0x
0|
0}
#800000
0!
0+
#810000
1!
0$!
b10 (!
1+
b1111010 +!
b1 0
02
05
0A
1E
b1111010 J
b1111001 R
0T
bx U
1V
1W
b10 [
1b
b100 e
b11 g
0k
b10000 r
1s
bx t
0|
0}
#820000
0!
0+
#830000
1!
0$!
1+
b1 0
02
15
b1111001 6
1@
1A
0E
b1111001 S
1T
bx U
1V
1W
b11 [
1b
b100 e
b0 g
1h
1k
b10000 m
0s
0|
0}
#840000
0!
0+
#850000
1!
0$!
b11 (!
1+
b111011 +!
b1 0
02
05
b10110110 7
1;
0@
0A
1E
b111011 J
b1111010 R
0T
b10110110 U
1V
1W
b0 [
1\
1^
1b
b10000 e
0h
bx i
0k
b10000 r
1s
bx t
0|
0}
#860000
0!
0+
#870000
1!
0$!
1+
b1 0
02
15
b1111010 6
08
09
0;
0>
1A
0E
b1111010 S
1T
0V
0W
b100 Y
0\
bx ]
0^
1_
bx a
0b
b11 c
b100 e
b1 g
1k
b10000 m
0s
0|
0}
#880000
0!
0+
#890000
1!
0$!
b100 (!
1+
b111100 +!
b1 0
02
05
b11011010 7
18
19
1>
0A
1E
b111100 J
0Q
b111011 R
0T
b11011010 U
1V
1W
0_
1b
0k
b10000 r
1s
bx t
0|
0}
#900000
0!
0+
#910000
1!
0$!
1+
b1 0
02
15
b111011 6
1A
0E
1Q
b111011 S
1T
b11011010 U
1V
1W
bx11011010 Z
b1 [
1b
b100 e
b10 g
1k
b10000 m
0s
0|
0}
#920000
0!
0+
#930000
1!
0$!
b101 (!
1+
b11101 +!
b1 0
02
05
b11100010 7
0A
1E
b11101 J
b111100 R
0T
b11100010 U
1V
1W
bx1101101011011010 Z
b10 [
1b
b100 e
b11 g
0k
b10000 r
1s
bx t
0|
0}
#940000
0!
0+
#950000
1!
0$!
1+
b1 0
02
15
b111100 6
1@
1A
0E
b111100 S
1T
b11100010 U
1V
1W
bx111000101101101011011010 Z
b11 [
1b
b100 e
b0 g
1h
1k
b10000 m
0s
0|
0}
#960000
0!
0+
#970000
1!
0$!
b110 (!
1+
b11110 +!
b1 0
02
05
b11101011 7
1;
0@
0A
1E
b11110 J
b11101 R
0T
b11101011 U
1V
1W
b11100010111000101101101011011010 Z
b0 [
1\
1^
1b
b10000 e
0h
bx i
0k
b10000 r
1s
bx t
0|
0}
#980000
0!
0+
#990000
1!
0$!
1+
b1 0
02
15
b11101 6
08
09
b11100010111000101101101011011010 :
0;
0>
1A
0E
b11101 S
1T
0V
0W
b100 Y
0\
b11100010111000101101101011011010 ]
0^
1_
bx a
0b
b0 c
b100 e
b1 g
1k
b10000 m
0s
0|
0}
#1000000
0!
0+
#1010000
1!
0$!
b111 (!
1+
b110 +!
b1 0
02
05
b10100100 7
18
19
1>
0A
1E
b110 J
0Q
b11110 R
0T
b10100100 U
1V
1W
0_
b11100010111000101101101011011010 `
1b
0k
b10000 r
1s
bx t
0|
0}
#1020000
0!
0+
#1030000
1!
0$!
1+
b1 0
02
15
b11110 6
1A
0E
1Q
b11110 S
1T
b10100100 U
1V
1W
b11100010111000101101101010100100 Z
b1 [
1b
b100 e
b10 g
1k
b10000 m
0s
0|
0}
#1040000
0!
0+
#1050000
1!
0$!
b1000 (!
1+
b111 +!
b1 0
02
05
b1110010 7
0A
1E
b111 J
b110 R
0T
b1110010 U
1V
1W
b11100010111000101010010010100100 Z
b10 [
1b
b100 e
b11 g
0k
b10000 r
1s
bx t
0|
0}
#1060000
0!
0+
#1070000
1!
0$!
1+
b1 0
02
15
b110 6
1@
1A
0E
b110 S
1T
b1110010 U
1V
1W
b11100010011100101010010010100100 Z
b11 [
1b
b100 e
b0 g
1h
1k
b10000 m
0s
0|
0}
#1080000
0!
0+
#1090000
1!
0$!
b1001 (!
1+
b0 +!
b1 0
02
05
b1101111 7
1;
0@
0A
1E
b0 J
b111 R
0T
b1101111 U
1V
1W
b1110010011100101010010010100100 Z
b0 [
1\
1^
1b
b10000 e
0h
bx i
0k
b10000 r
1s
bx t
0|
0}
#1100000
0!
0+
#1110000
1!
0$!
1+
b1 0
02
15
b111 6
08
09
b1110010011100101010010010100100 :
0;
b11100010111000101101101011011010 <
0>
1A
0E
b111 S
1T
0V
0W
b100 Y
0\
b1110010011100101010010010100100 ]
0^
1_
b11100010111000101101101011011010 a
0b
b1 c
b100 e
b1 g
1k
b10000 m
0s
0|
0}
#1120000
0!
0+
#1130000
1!
0$!
b1010 (!
1+
b1 +!
b1 0
02
05
b11000101 7
18
19
1>
0A
1E
b1 J
0Q
b0 R
0T
b11000101 U
1V
1W
0_
b1110010011100101010010010100100 `
1b
0k
b10000 r
1s
bx t
0|
0}
#1140000
0!
0+
#1150000
1!
0$!
1+
b1 0
02
15
b0 6
1A
0E
1Q
b0 S
1T
b11000101 U
1V
1W
b1110010011100101010010011000101 Z
b1 [
1b
b100 e
bx11100010111000101101101011011010xxxxxxxxxxxxxxxxxxxxxxxxxxxxxxxx f
b10 g
1k
b10000 m
0s
0|
0}
#1160000
0!
0+
#1170000
1!
0$!
b1011 (!
1+
b110 +!
b1 0
02
05
b1100011 7
0A
1E
b110 J
b1 R
0T
b1100011 U
1V
1W
b1110010011100101100010111000101 Z
b10 [
1b
b100 e
bx1110001011100010110110101101101011100010111000101101101011011010xxxxxxxxxxxxxxxxxxxxxxxxxxxxxxxx f
b11 g
0k
b10000 r
1s
bx t
0|
0}
#1180000
0!
0+
#1190000
1!
0$!
1+
b1 0
02
15
b1 6
1@
1A
0E
b1 S
1T
b1100011 U
1V
1W
b1110010011000111100010111000101 Z
b11 [
1b
b100 e
b111000101110001011011010110110101110001011100010110110101101101011100010111000101101101011011010xxxxxxxxxxxxxxxxxxxxxxxxxxxxxxxx f
b0 g
1h
1k
b10000 m
0s
0|
0}
#1200000
0!
0+
#1210000
1!
0$!
b1100 (!
1+
b111 +!
b1 0
02
05
b1111100 7
1;
b111000101110001011011010110110101110001011100010110110101101101011100010111000101101101011011010xxxxxxxxxxxxxxxxxxxxxxxxxxxxxxxx ?
0@
0A
1E
b111 J
b110 R
0T
b1111100 U
1V
1W
b1100011011000111100010111000101 Z
b0 [
1\
1^
1b
b10000 e
0h
b111000101110001011011010110110101110001011100010110110101101101011100010111000101101101011011010xxxxxxxxxxxxxxxxxxxxxxxxxxxxxxxx i
0k
b111000101001001011011010101010101110001010010010110110101010101011100010100100101101101010101010xxxxxxxxxxxxxxxxxxxxxxxxxxxxxxxx l
b11011111 n
b11100010 o
b111101 p
b11100010 q
b10000 r
1s
bx t
0|
0}
#1220000
0!
0+
#1230000
1!
0$!
1+
b1 0
02
15
b110 6
08
09
b1100011011000111100010111000101 :
0;
b10100100011100100111001010100100 <
0>
1A
b111000101001001011011010101010101110001010010010110110101010101011100010100100101101101010101010xxxxxxxxxxxxxxxxxxxxxxxxxxxxxxxx B
0E
b110 S
1T
0V
0W
b100 Y
0\
b1100011011000111100010111000101 ]
0^
1_
b10100100011100100111001010100100 a
0b
b10 c
b100 e
b11100010111000101101101011011010111000101110001011011010110110101110001011100010110110101101101011100010111000101101101011011010 f
b1 g
b111000101001001011011010101010101110001010010010110110101010101011100010100100101101101010101010xxxxxxxxxxxxxxxxxxxxxxxxxxxxxxxx j
1k
b10000 m
0s
0|
0}
#1240000
0!
0+
#1250000
1!
0$!
b1101 (!
1+
b10 +!
b1 0
02
05
b1101111 7
18
19
1>
0A
b111000101001001011011010101010101110001010010010110110101010101011100010100100101101101010101010xxxxxxxxxxxxxxxxxxxxxxxxxxxxxxxx D
1E
b10 J
0Q
b111 R
0T
b1101111 U
1V
1W
0_
b1100011011000111100010111000101 `
1b
0k
b10000 r
1s
b111000101001001011011010101010101110001010010010110110101010101011100010100100101101101010101010xxxxxxxxxxxxxxxxxxxxxxxxxxxxxxxx t
0|
0}
#1260000
0!
0+
#1270000
1!
0$!
1+
b1 0
02
15
b111 6
1A
0E
1Q
b111 S
1T
b1101111 U
1V
1W
b1100011011000111100010101101111 Z
b1 [
1b
b100 e
b11100010111000101101101011011010111000101110001011011010110110101010010001110010011100101010010011100010111000101101101011011010 f
b10 g
1k
b10000 m
0s
0|
0}
#1280000
0!
0+
#1290000
1!
0$!
b1110 (!
1+
b11 +!
b1 0
02
05
b11000101 7
0A
1E
b11 J
b10 R
0T
b11000101 U
1V
1W
b1100011011000110110111101101111 Z
b10 [
1b
b100 e
b11100010111000101101101011011010101001000111001001110010101001001010010001110010011100101010010011100010111000101101101011011010 f
b11 g
0k
b10000 r
1s
b111000101001001011011010101010101110001010010010110110101010101011100010100100101101101010101010xxxxxxxxxxxxxxxxxxxxxxxxxxxxxxxx t
0|
0}
#1300000
0!
0+
#1310000
1!
0$!
1+
b1 0
02
15
b10 6
1@
1A
0E
b10 S
1T
b11000101 U
1V
1W
b1100011110001010110111101101111 Z
b11 [
1b
b100 e
b10100100011100100111001010100100101001000111001001110010101001001010010001110010011100101010010011100010111000101101101011011010 f
b0 g
1h
1k
b10000 m
0s
0|
0}
#1320000
0!
0+
