Vivado_projects/AES256_decTEST/AES256_decTEST.sim/sim_1/behav/xsim/wv_AES256_dec.vcd
$date
   Thu Dec 23 14:43:10 2021
$end
$version
  2020.2
$end
$timescale
  1ps
$end
$scope module tb_AES256_dec $end
$var reg 1 ! clk $end
$var reg 1 " resetn $end
$var reg 1 # ctrl_dataIn_dec $end
$var reg 128 $ dec_key [127:0] $end
$var reg 128 % dec_dataIn [127:0] $end
$var wire 1 & ctrl_dataOut_dec $end
$var reg 4 ' dec_keyAddr [3:0] $end
$var wire 128 ( dec_dataOut [127:0] $end
$var integer 32 ) index $end
$var integer 32 * i $end
$scope module DUT $end
$var wire 1 + clk $end
$var wire 1 , resetn $end
$var wire 1 - ctrl_dataIn_dec $end
$var wire 128 . dec_dataIn [127:0] $end
$var wire 128 / dec_key [127:0] $end
$var reg 1 0 ctrl_dataOut_dec $end
$var reg 4 ' dec_keyAddr [3:0] $end
$var reg 128 1 dec_dataOut [127:0] $end
$var reg 128 2 auxData [15:0] $end
$var integer 32 3 i $end
$var integer 32 4 index $end
$var reg 4 5 aes_st [3:0] $end
$var reg 4 6 aes_st_next [3:0] $end
$var reg 4 7 round [3:0] $end
$var wire 128 8 dataOut_reg416 [15:0] $end
$var wire 1 9 reg416_empty $end
$var wire 1 : reg416_full $end
$var wire 8 ; dataOut1_demux [7:0] $end
$var wire 128 < dataOut2_demux [15:0] $end
$var wire 8 = dataOut_ROM [7:0] $end
$var reg 5 > rom_cnt [4:0] $end
$var reg 1 ? req_rom $end
$var reg 1 @ shf_reg $end
$var wire 128 A dataIn_shifter [15:0] $end
$var wire 128 B dataOut_shifter [15:0] $end
$var reg 1 C wr_shf $end
$var reg 1 D wr_shf_delay $end
$var reg 1 E outp_en_shf $end
$var reg 1 F outp_en_shf_delay $end
$var wire 128 G dataOut_mixColumns [15:0] $end
$var reg 1 H wr_mC $end
$var reg 1 I wr_mC_delay $end
$var wire 128 J dataOut_reg162 [15:0] $end
$var reg 2 K reg162_cnt [1:0] $end
$var reg 1 L wr_reg162 $end
$var reg 1 M wr_reg162_delay $end
$var wire 128 N dataOut_reg161 [15:0] $end
$var reg 1 O wr_reg161 $end
$var wire 128 P dataIn_addRK [15:0] $end
$var reg 128 Q dataOut_addRK [15:0] $end
$var reg 1 R wr_addRK $end
$var wire 8 S dataOut_reg163 [7:0] $end
$var reg 1 T wr_reg163 $end
$var wire 128 U key [127:0] $end
$var reg 1 V mux1_chgInp $end
$var reg 1 W mux2_chgInp $end
$var reg 1 X end_st_reg $end
$scope module mux $end
$var wire 1 Y addr $end
$var wire 128 Z inp0 [15:0] $end
$var wire 128 J inp1 [15:0] $end
$var reg 128 [ aux [15:0] $end
$var reg 128 \ outp [15:0] $end
$upscope $end
$scope module shifter $end
$var wire 1 + clk $end
$var wire 1 , resetn $end
$var wire 128 A inp_shf [15:0] $end
$var wire 1 ] outp_en $end
$var reg 128 ^ aux [15:0] $end
$var reg 128 _ outp_shf [15:0] $end
$var integer 32 ` index $end
$upscope $end
$scope module reg16_3 $end
$var integer 32 a index $end
$var wire 1 + clk $end
$var wire 1 , resetn $end
$var wire 1 b wr_en $end
$var wire 1 c req_rom $end
$var wire 128 B inp_reg163 [15:0] $end
$var reg 128 d aux [15:0] $end
$var reg 4 e n_read [3:0] $end
$var reg 4 f n_read_delay [3:0] $end
$var reg 8 g outp_reg163 [7:0] $end
$upscope $end
$scope module rom_Sbox $end
$var wire 1 + clk $end
$var wire 1 , resetn $end
$var wire 8 S addr_romSbox [7:0] $end
$var reg 8 h aux [7:0] $end
$var reg 8 i outp_romSbox [7:0] $end
$upscope $end
$scope module reg16_1 $end
$var integer 32 j index $end
$var wire 1 + clk $end
$var wire 1 , resetn $end
$var wire 1 k wr_en $end
$var wire 8 = i [7:0] $end
$var reg 128 l aux [15:0] $end
$var reg 4 m counter [3:0] $end
$var reg 128 n o [15:0] $end
$upscope $end
$scope module mux2 $end
$var wire 1 o addr $end
$var wire 128 p inp0 [15:0] $end
$var wire 128 N inp1 [15:0] $end
$var reg 128 q aux [15:0] $end
$var reg 128 r outp [15:0] $end
$upscope $end
$scope module addRK $end
$var wire 1 + clk $end
$var wire 1 , resetn $end
$var wire 128 U inp_key_addRK [127:0] $end
$var wire 128 P inp_addRK [15:0] $end
$var reg 128 Q outp_addRK [15:0] $end
$var integer 32 s index $end
$var integer 32 t row $end
$upscope $end
$scope module mixColumns $end
$var wire 1 + clk $end
$var wire 1 , resetn $end
$var wire 128 u inp_mC [15:0] $end
$var wire 1 v wr_en $end
$var reg 128 w lookup [15:0] $end
$var reg 128 x temp [15:0] $end
$var reg 128 y auxIn [15:0] $end
$var reg 128 z outp_mC [15:0] $end
$var integer 32 { index $end
$var integer 32 | i $end
$var integer 32 } j $end
$scope function invMixColumns $end
$var reg 128 ~ invMixColumns [15:0] $end
$var reg 128 !! inp_mC [15:0] $end
$upscope $end
$scope function xtime $end
$var reg 8 "! xtime [7:0] $end
$var reg 8 #! num [7:0] $end
$upscope $end
$upscope $end
$scope module reg16_2 $end
$var integer 32 $! index $end
$var wire 1 + clk $end
$var wire 1 , resetn $end
$var wire 1 %! wr_en $end
$var wire 4 &! round [3:0] $end
$var wire 128 G inp_reg162_mC [15:0] $end
$var wire 128 '! inp_reg162_shf [15:0] $end
$var reg 128 (! aux [15:0] $end
$var reg 128 )! outp_reg162 [15:0] $end
$upscope $end
$upscope $end
$scope task enableResetn $end
$upscope $end
$scope task test_AES_decryption $end
$upscope $end
$upscope $end
$enddefinitions $end
#0
$dumpvars
0!
bx !!
x"
b0 "!
x#
bx #!
bx $
bx $!
bx %
x%!
x&
bx &!
bx '
bx '!
bx (
bx (!
bx )
bx )!
b0 *
0+
x,
x-
bx .
bx /
x0
bx 1
bx 2
bx 3
bx 4
bx 5
bx 6
bx 7
bz 8
z9
z:
bz ;
bz <
bx =
bx >
x?
x@
bx A
bx B
xC
xD
xE
xF
bx G
xH
xI
bx J
bx K
xL
xM
bx N
xO
bx P
bx Q
xR
bx S
xT
bx U
xV
xW
xX
xY
bx Z
bx [
bx \
x]
bx ^
bx _
bx `
bx a
xb
xc
bx d
bx e
bx f
bx g
bx h
bx i
bx j
xk
bx l
bx m
bx n
xo
bx p
bx q
bx r
bx s
bx t
bx u
xv
bx w
bx x
bx y
bx z
bx {
bx |
bx }
bx ~
$end
#10000
1!
0%!
0&
1+
00
b0 >
0?
0E
0H
0L
0T
0X
0]
0b
0c
b10000 s
bx t
0v
#11000
0"
b101110010011111011011101010100001001000001010001011011000011101011111001110000100000110001101110111010101110110001001011100101 $
b0 &!
b1110 '
b0 '!
bx0000000000000000 (
b0 (!
b0 )!
0,
b101110010011111011011101010100001001000001010001011011000011101011111001110000100000110001101110111010101110110001001011100101 /
bx0000000000000000 1
b10000 3
b0 5
b0 6
b0 7
b0 A
b0 B
b0 G
b0 J
b0 N
0O
b0 Q
b0 S
b101110010011111011011101010100001001000001010001011011000011101011111001110000100000110001101110111010101110110001001011100101 U
0V
0W
0Y
b0 Z
b0 \
b0 _
b0 d
b0 e
b0 f
b0 g
b1010010 h
0k
b0 l
b0 m
b0 n
0o
bx r
b10000 s
b0 t
b0 u
b0 y
b0 z
b10000 {
#20000
0!
0+
#30000
1!
1+
b10000 3
b10000 s
b10000 {
#31000
1"
1,
#40000
0!
0+
#50000
1!
1#
bx '!
1+
1-
b100 4
b110 6
bx A
bx B
bx Q
bx Z
bx \
bx _
b10000 s
b1 t
bx u
#60000
0!
0+
#70000
1!
b1111010010110000100110110011001111111101011110010010011111010101101011010110011010101100011110011000100101011010011101001100011 %
1+
b1111010010110000100110110011001111111101011110010010011111010101101011010110011010101100011110011000100101011010011101001100011 .
b1111010010110000100110110011001111111101011110010010011111010101101011010110011010101100011110011000100101011010011101001100011 2
b100 4
b110 5
b1 6
b1111010010110000100110110011001111111101011110010010011111010101101011010110011010101100011110011000100101011010011101001100011 P
b1111010010110000100110110011001111111101011110010010011111010101101011010110011010101100011110011000100101011010011101001100011 p
b1111010010110000100110110011001111111101011110010010011111010101101011010110011010101100011110011000100101011010011101001100011 r
b10000 s
b10 t
#80000
0!
0+
#90000
1!
b1010100000101111111101011001101110110101010100011001000111001000110100011000011110101010010011101111110000101100010100010000110 '!
1+
b100 4
b1 5
b10 6
b1010100000101111111101011001101110110101010100011001000111001000110100011000011110101010010011101111110000101100010100010000110 A
b11001101010101000001011111111010110010001110010011011010101010001100001111010101001001110110100001111110000101100010100010000110 B
1E
b1010100000101111111101011001101110110101010100011001000111001000110100011000011110101010010011101111110000101100010100010000110 Q
b1010100000101111111101011001101110110101010100011001000111001000110100011000011110101010010011101111110000101100010100010000110 Z
b1010100000101111111101011001101110110101010100011001000111001000110100011000011110101010010011101111110000101100010100010000110 \
1]
b11001101010101000001011111111010110010001110010011011010101010001100001111010101001001110110100001111110000101100010100010000110 _
b10000 s
b11 t
b1010100000101111111101011001101110110101010100011001000111001000110100011000011110101010010011101111110000101100010100010000110 u
#100000
0!
0+
#110000
1!
b10111001101010011011000001010110011000101110010011001010001001000001110111000111010000100001001100011001010110100111111101101000 $
b1 &!
b1101 '
1+
b10111001101010011011000001010110011000101110010011001010001001000001110111000111010000100001001100011001010110100111111101101000 /
b100 4
b10 5
b11 6
b1 7
1T
b10111001101010011011000001010110011000101110010011001010001001000001110111000111010000100001001100011001010110100111111101101000 U
1b
b10000 s
b100 t
#120000
0!
0+
#130000
1!
b11000011111100011111110111001111100111000101100001011001110011101100101101110100000101000010111111011101111101110100010100001011 '!
1+
b100 4
b11 5
b1010010 =
0?
b0 A
b0 B
0E
0O
b11000011111100011111110111001111100111000101100001011001110011101100101101110100000101000010111111011101111101110100010100001011 Q
b10000110 S
0T
1V
1Y
b11000011111100011111110111001111100111000101100001011001110011101100101101110100000101000010111111011101111101110100010100001011 Z
b0 \
0]
b0 _
0b
b11001101010101000001011111111010110010001110010011011010101010001100001111010101001001110110100001111110000101100010100010000110 d
b10000110 g
b11011100 h
b1010010 i
b10000 s
b101 t
b11000011111100011111110111001111100111000101100001011001110011101100101101110100000101000010111111011101111101110100010100001011 u
#140000
0!
0+
#150000
1!
1+
b100 4
b1 >
1?
1c
b10000 s
b110 t
#160000
0!
0+
#170000
1!
1+
b100 4
b11011100 =
b10 >
1O
b101000 S
b1 e
b101000 g
b11101110 h
b11011100 i
1k
b10000 s
b111 t
#180000
0!
0+
#190000
1!
1+
b100 4
b11101110 =
b11 >
b11011100 N
b10110 S
b10 e
b1 f
b10110 g
b11111111 h
b11101110 i
b11011100 l
b1 m
b11011100 n
b1111010010110000100110110011001111111101011110010010011111010101101011010110011010101100011110011000100101011010011101001100011 r
b10000 s
b1000 t
#200000
0!
0+
#210000
1!
1+
b100 4
b11111111 =
b100 >
b1110111011011100 N
b1111110 S
b11 e
b10 f
b1111110 g
b10001010 h
b11111111 i
b1110111011011100 l
b10 m
b1110111011011100 n
b1111010010110000100110110011001111111101011110010010011111010101101011010110011010101100011110011000100101011010011101001100011 r
b10000 s
b1001 t
#220000
0!
0+
#230000
1!
1+
b100 4
b10001010 =
b101 >
b111111111110111011011100 N
b1101000 S
b100 e
b11 f
b1101000 g
b11110111 h
b10001010 i
b111111111110111011011100 l
b11 m
b111111111110111011011100 n
b1111010010110000100110110011001111111101011110010010011111010101101011010110011010101100011110011000100101011010011101001100011 r
b10000 s
b1010 t
#240000
0!
0+
#250000
1!
1+
b100 4
b11110111 =
b110 >
b10001010111111111110111011011100 N
b100111 S
b101 e
b100 f
b100111 g
b111101 h
b11110111 i
b10001010111111111110111011011100 l
b100 m
b10001010111111111110111011011100 n
b1111010010110000100110110011001111111101011110010010011111010101101011010110011010101100011110011000100101011010011101001100011 r
b10000 s
b1011 t
#260000
0!
0+
#270000
1!
1+
b100 4
b111101 =
b111 >
b1111011110001010111111111110111011011100 N
b11010101 S
b110 e
b101 f
b11010101 g
b10110101 h
b111101 i
b1111011110001010111111111110111011011100 l
b101 m
b1111011110001010111111111110111011011100 n
b1111010010110000100110110011001111111101011110010010011111010101101011010110011010101100011110011000100101011010011101001100011 r
b10000 s
b1100 t
#280000
0!
0+
#290000
1!
1+
b100 4
b10110101 =
b1000 >
b1111011111011110001010111111111110111011011100 N
b11000011 S
b111 e
b110 f
b11000011 g
b110011 h
b10110101 i
b1111011111011110001010111111111110111011011100 l
b110 m
b1111011111011110001010111111111110111011011100 n
b1111010010110000100110110011001111111101011110010010011111010101101011010110011010101100011110011000100101011010011101001100011 r
b10000 s
b1101 t
#300000
0!
0+
#310000
1!
1+
b100 4
b110011 =
b1001 >
b10110101001111011111011110001010111111111110111011011100 N
b10101000 S
b1000 e
b111 f
b10101000 g
b1101111 h
b110011 i
b10110101001111011111011110001010111111111110111011011100 l
b111 m
b10110101001111011111011110001010111111111110111011011100 n
b1111010010110000100110110011001111111101011110010010011111010101101011010110011010101100011110011000100101011010011101001100011 r
b10000 s
b1110 t
#320000
0!
0+
#330000
1!
1+
b100 4
b1101111 =
b1010 >
b11001110110101001111011111011110001010111111111110111011011100 N
b11011010 S
b1001 e
b1000 f
b11011010 g
b1111010 h
b1101111 i
b11001110110101001111011111011110001010111111111110111011011100 l
b1000 m
b11001110110101001111011111011110001010111111111110111011011100 n
b1111010010110000100110110011001111111101011110010010011111010101101011010110011010101100011110011000100101011010011101001100011 r
b10000 s
b1111 t
#340000
0!
0+
#350000
1!
1+
b100 4
b1111010 =
b1011 >
b11011110011001110110101001111011111011110001010111111111110111011011100 N
b11100100 S
b1010 e
b1001 f
b11100100 g
b10101110 h
b1111010 i
b11011110011001110110101001111011111011110001010111111111110111011011100 l
b1001 m
b11011110011001110110101001111011111011110001010111111111110111011011100 n
b1111010010110000100110110011001111111101011110010010011111010101101011010110011010101100011110011000100101011010011101001100011 r
b10000 s
b10000 t
#360000
0!
0+
#370000
1!
1+
b100 4
b10101110 =
b1100 >
b1111010011011110011001110110101001111011111011110001010111111111110111011011100 N
b11001000 S
b1011 e
b1010 f
b11001000 g
b10110001 h
b10101110 i
b1111010011011110011001110110101001111011111011110001010111111111110111011011100 l
b1010 m
b1111010011011110011001110110101001111011111011110001010111111111110111011011100 n
b1111010010110000100110110011001111111101011110010010011111010101101011010110011010101100011110011000100101011010011101001100011 r
b10000 s
b10001 t
#380000
0!
0+
#390000
1!
1+
b100 4
b10110001 =
b1101 >
b1010111001111010011011110011001110110101001111011111011110001010111111111110111011011100 N
b11111010 S
b1100 e
b1011 f
b11111010 g
b10100 h
b10110001 i
b1010111001111010011011110011001110110101001111011111011110001010111111111110111011011100 l
b1011 m
b1010111001111010011011110011001110110101001111011111011110001010111111111110111011011100 n
b1111010010110000100110110011001111111101011110010010011111010101101011010110011010101100011110011000100101011010011101001100011 r
b10000 s
b10010 t
#400000
0!
0+
#410000
1!
1+
b100 4
b10100 =
b1110 >
b101100011010111001111010011011110011001110110101001111011111011110001010111111111110111011011100 N
b10111 S
b1101 e
b1100 f
b10111 g
b10000111 h
b10100 i
b101100011010111001111010011011110011001110110101001111011111011110001010111111111110111011011100 l
b1100 m
b101100011010111001111010011011110011001110110101001111011111011110001010111111111110111011011100 n
b1111010010110000100110110011001111111101011110010010011111010101101011010110011010101100011110011000100101011010011101001100011 r
b10000 s
b10011 t
#420000
0!
0+
#430000
1!
1+
b100 4
b100 6
b10000111 =
b1111 >
b10100101100011010111001111010011011110011001110110101001111011111011110001010111111111110111011011100 N
b1010100 S
b1110 e
b1101 f
b1010100 g
b11111101 h
b10000111 i
b10100101100011010111001111010011011110011001110110101001111011111011110001010111111111110111011011100 l
b1101 m
b10100101100011010111001111010011011110011001110110101001111011111011110001010111111111110111011011100 n
b1111010010110000100110110011001111111101011110010010011111010101101011010110011010101100011110011000100101011010011101001100011 r
b10000 s
b10100 t
#440000
0!
0+
#450000
1!
1+
b100 4
b100 5
b101 6
b11111101 =
b10000 >
b1000011100010100101100011010111001111010011011110011001110110101001111011111011110001010111111111110111011011100 N
b11001101 S
b1111 e
b1110 f
b11001101 g
b10000000 h
b11111101 i
b1000011100010100101100011010111001111010011011110011001110110101001111011111011110001010111111111110111011011100 l
b1110 m
b1000011100010100101100011010111001111010011011110011001110110101001111011111011110001010111111111110111011011100 n
b1111010010110000100110110011001111111101011110010010011111010101101011010110011010101100011110011000100101011010011101001100011 r
b10000 s
b10101 t
#460000
0!
0+
#470000
1!
1+
b100 4
b101 5
b110 6
b10000000 =
b0 >
0?
b111111011000011100010100101100011010111001111010011011110011001110110101001111011111011110001010111111111110111011011100 N
b10000110 S
0c
b0 e
b1111 f
b10000110 g
b11011100 h
b10000000 i
b111111011000011100010100101100011010111001111010011011110011001110110101001111011111011110001010111111111110111011011100 l
b1111 m
b111111011000011100010100101100011010111001111010011011110011001110110101001111011111011110001010111111111110111011011100 n
b1111010010110000100110110011001111111101011110010010011111010101101011010110011010101100011110011000100101011010011101001100011 r
b10000 s
b10110 t
#480000
0!
0+
#490000
1!
1+
b100 4
b110 5
b111 6
b10000000111111011000011100010100101100011010111001111010011011110011001110110101001111011111011110001010111111111110111011011100 N
0O
0k
b10000000111111011000011100010100101100011010111001111010011011110011001110110101001111011111011110001010111111111110111011011100 l
b0 m
b10000000111111011000011100010100101100011010111001111010011011110011001110110101001111011111011110001010111111111110111011011100 n
b1111010010110000100110110011001111111101011110010010011111010101101011010110011010101100011110011000100101011010011101001100011 r
b10000 s
b10111 t
#500000
0!
0+
#510000
1!
1+
b100 4
b111 5
b1000 6
b10000000111111011000011100010100101100011010111001111010011011110011001110110101001111011111011110001010111111111110111011011100 P
1W
1o
b10000000111111011000011100010100101100011010111001111010011011110011001110110101001111011111011110001010111111111110111011011100 r
b10000 s
b11000 t
#520000
0!
0+
#530000
1!
b111001010101000011011101000010110100110100101010110000010010110010111001110010011111111110010010010011101001011001000110110100 '!
1+
b100 4
b1000 5
b1100 6
1H
b111001010101000011011101000010110100110100101010110000010010110010111001110010011111111110010010010011101001011001000110110100 Q
b111001010101000011011101000010110100110100101010110000010010110010111001110010011111111110010010010011101001011001000110110100 Z
b0 \
b10000 s
b11001 t
b111001010101000011011101000010110100110100101010110000010010110010111001110010011111111110010010010011101001011001000110110100 u
1v
#540000
0!
0+
#550000
1!
b111001010101000011011101000010110100110100101010110000010010110010111001110010011111111110010010010011101001011001000110110100 !!
b11010011 "!
b11100100 #!
1%!
1+
b100 4
b1100 5
b1 6
b101111000011100001000100101000001100000011100010010111111111010101101100000001100111110000001001011110000001100111101000110001 G
0H
1L
b10000 s
b11010 t
0v
b11010011111001000111001000111001100101100100101110101000010101001010001111011100011011100011011100100110000100111000010001000010 w
b101111000011100001000100101000001100000011100010010111111111010101101100000001100111110000001001011110000001100111101000110001 x
b101111000011100001000100101000001100000011100010010111111111010101101100000001100111110000001001011110000001100111101000110001 y
b101111000011100001000100101000001100000011100010010111111111010101101100000001100111110000001001011110000001100111101000110001 z
b100 |
b100 }
b101111000011100001000100101000001100000011100010010111111111010101101100000001100111110000001001011110000001100111101000110001 ~
#560000
0!
0+
#570000
1!
b1010010110111110110001011010100110100110010011011000000101010000010011001011100100011111111000001011111011011100000101000010 $
0%!
b10 &!
b1100 '
b101111000011100001000100101000001100000011100010010111111111010101101100000001100111110000001001011110000001100111101000110001 (!
b101111000011100001000100101000001100000011100010010111111111010101101100000001100111110000001001011110000001100111101000110001 )!
1+
b1010010110111110110001011010100110100110010011011000000101010000010011001011100100011111111000001011111011011100000101000010 /
b100 4
b1 5
b10 6
b10 7
b101111000011100001000100101000001100000011100010010111111111010101101100000001100111110000001001011110000001100111101000110001 A
b101000001011110000111000010001100101111111110100110000001110000000000110011111000000100101101101011110000001100111101000110001 B
b101111000011100001000100101000001100000011100010010111111111010101101100000001100111110000001001011110000001100111101000110001 J
0L
b1010010110111110110001011010100110100110010011011000000101010000010011001011100100011111111000001011111011011100000101000010 U
b101111000011100001000100101000001100000011100010010111111111010101101100000001100111110000001001011110000001100111101000110001 \
b101000001011110000111000010001100101111111110100110000001110000000000110011111000000100101101101011110000001100111101000110001 _
b10000 s
b11011 t
#580000
0!
0+
#590000
1!
b10001010101001100110101101001110001010111100101010100010011110100011011101111110101011000000100110000001000100100010111110011110 '!
1+
b100 4
b10 5
b11 6
1E
b10001010101001100110101101001110001010111100101010100010011110100011011101111110101011000000100110000001000100100010111110011110 Q
1T
b10001010101001100110101101001110001010111100101010100010011110100011011101111110101011000000100110000001000100100010111110011110 Z
b101111000011100001000100101000001100000011100010010111111111010101101100000001100111110000001001011110000001100111101000110001 \
1]
1b
b10000 s
b11100 t
b10001010101001100110101101001110001010111100101010100010011110100011011101111110101011000000100110000001000100100010111110011110 u
#600000
0!
0+
#610000
1!
1+
b100 4
b11 5
b11011100 =
0?
0E
0O
b110001 S
0T
0]
0b
b101000001011110000111000010001100101111111110100110000001110000000000110011111000000100101101101011110000001100111101000110001 d
b110001 g
b101110 h
b11011100 i
b10000 s
b11101 t
#620000
0!
0+
#630000
1!
1+
b100 4
b1 >
1?
1c
b10000 s
b11110 t
#640000
0!
0+
#650000
1!
1+
b100 4
b101110 =
b10 >
1O
b1111010 S
b1 e
b0 f
b1111010 g
b10111101 h
b101110 i
1k
b10000 s
b11111 t
#660000
0!
0+
#670000
1!
1+
b100 4
b10111101 =
b11 >
b10000000111111011000011100010100101100011010111001111010011011110011001110110101001111011111011110001010111111111110111000101110 N
b10000000111111011000011100010100101100011010111001111010011011110011001110110101001111011111011110001010111111111110111000101110 P
b110 S
b10 e
b1 f
b110 g
b10100101 h
b10111101 i
b10000000111111011000011100010100101100011010111001111010011011110011001110110101001111011111011110001010111111111110111000101110 l
b1 m
b10000000111111011000011100010100101100011010111001111010011011110011001110110101001111011111011110001010111111111110111000101110 n
b10000000111111011000011100010100101100011010111001111010011011110011001110110101001111011111011110001010111111111110111000101110 r
b10000 s
b100000 t
#680000
0!
0+
#690000
1!
b10001010101001100110101101001110001010111100101010100010011110100011011101111110101011000000100110000001000100100010111101101100 '!
1+
b100 4
b10100101 =
b100 >
b10000000111111011000011100010100101100011010111001111010011011110011001110110101001111011111011110001010111111111011110100101110 N
b10000000111111011000011100010100101100011010111001111010011011110011001110110101001111011111011110001010111111111011110100101110 P
b10001010101001100110101101001110001010111100101010100010011110100011011101111110101011000000100110000001000100100010111101101100 Q
b1011110 S
b10001010101001100110101101001110001010111100101010100010011110100011011101111110101011000000100110000001000100100010111101101100 Z
b101111000011100001000100101000001100000011100010010111111111010101101100000001100111110000001001011110000001100111101000110001 \
b11 e
b10 f
b1011110 g
b10011101 h
b10100101 i
b10000000111111011000011100010100101100011010111001111010011011110011001110110101001111011111011110001010111111111011110100101110 l
b10 m
b10000000111111011000011100010100101100011010111001111010011011110011001110110101001111011111011110001010111111111011110100101110 n
b10000000111111011000011100010100101100011010111001111010011011110011001110110101001111011111011110001010111111111011110100101110 r
b10000 s
b100001 t
b10001010101001100110101101001110001010111100101010100010011110100011011101111110101011000000100110000001000100100010111101101100 u
#700000
0!
0+
#710000
1!
b10001010101001100110101101001110001010111100101010100010011110100011011101111110101011000000100110000001000100100111110001101100 '!
1+
b100 4
b10011101 =
b101 >
b10000000111111011000011100010100101100011010111001111010011011110011001110110101001111011111011110001010101001011011110100101110 N
b10000000111111011000011100010100101100011010111001111010011011110011001110110101001111011111011110001010101001011011110100101110 P
b10001010101001100110101101001110001010111100101010100010011110100011011101111110101011000000100110000001000100100111110001101100 Q
b1011011 S
b10001010101001100110101101001110001010111100101010100010011110100011011101111110101011000000100110000001000100100111110001101100 Z
b101111000011100001000100101000001100000011100010010111111111010101101100000001100111110000001001011110000001100111101000110001 \
b100 e
b11 f
b1011011 g
b1010111 h
b10011101 i
b10000000111111011000011100010100101100011010111001111010011011110011001110110101001111011111011110001010101001011011110100101110 l
b11 m
b10000000111111011000011100010100101100011010111001111010011011110011001110110101001111011111011110001010101001011011110100101110 n
b10000000111111011000011100010100101100011010111001111010011011110011001110110101001111011111011110001010101001011011110100101110 r
b10000 s
b100010 t
b10001010101001100110101101001110001010111100101010100010011110100011011101111110101011000000100110000001000100100111110001101100 u
#720000
0!
0+
#730000
1!
b10001010101001100110101101001110001010111100101010100010011110100011011101111110101011000000100110000001010010000111110001101100 '!
1+
b100 4
b1010111 =
b110 >
b10000000111111011000011100010100101100011010111001111010011011110011001110110101001111011111011110011101101001011011110100101110 N
b10000000111111011000011100010100101100011010111001111010011011110011001110110101001111011111011110011101101001011011110100101110 P
b10001010101001100110101101001110001010111100101010100010011110100011011101111110101011000000100110000001010010000111110001101100 Q
b10 S
b10001010101001100110101101001110001010111100101010100010011110100011011101111110101011000000100110000001010010000111110001101100 Z
b101111000011100001000100101000001100000011100010010111111111010101101100000001100111110000001001011110000001100111101000110001 \
b101 e
b100 f
b10 g
b1101010 h
b1010111 i
b10000000111111011000011100010100101100011010111001111010011011110011001110110101001111011111011110011101101001011011110100101110 l
b100 m
b10000000111111011000011100010100101100011010111001111010011011110011001110110101001111011111011110011101101001011011110100101110 n
b10000000111111011000011100010100101100011010111001111010011011110011001110110101001111011111011110011101101001011011110100101110 r
b10000 s
b100011 t
b10001010101001100110101101001110001010111100101010100010011110100011011101111110101011000000100110000001010010000111110001101100 u
#740000
0!
0+
#750000
1!
b10001010101001100110101101001110001010111100101010100010011110100011011101111110101011000000100110010110010010000111110001101100 '!
1+
b100 4
b1101010 =
b111 >
b10000000111111011000011100010100101100011010111001111010011011110011001110110101001111010101011110011101101001011011110100101110 N
b10000000111111011000011100010100101100011010111001111010011011110011001110110101001111010101011110011101101001011011110100101110 P
b10001010101001100110101101001110001010111100101010100010011110100011011101111110101011000000100110010110010010000111110001101100 Q
b10011111 S
b10001010101001100110101101001110001010111100101010100010011110100011011101111110101011000000100110010110010010000111110001101100 Z
b101111000011100001000100101000001100000011100010010111111111010101101100000001100111110000001001011110000001100111101000110001 \
b110 e
b101 f
b10011111 g
b1101110 h
b1101010 i
b10000000111111011000011100010100101100011010111001111010011011110011001110110101001111010101011110011101101001011011110100101110 l
b101 m
b10000000111111011000011100010100101100011010111001111010011011110011001110110101001111010101011110011101101001011011110100101110 n
b10000000111111011000011100010100101100011010111001111010011011110011001110110101001111010101011110011101101001011011110100101110 r
b10000 s
b100100 t
b10001010101001100110101101001110001010111100101010100010011110100011011101111110101011000000100110010110010010000111110001101100 u
#760000
0!
0+
#770000
1!
b10001010101001100110101101001110001010111100101010100010011110100011011101111110101011001010100110010110010010000111110001101100 '!
1+
b100 4
b1101110 =
b1000 >
b10000000111111011000011100010100101100011010111001111010011011110011001110110101011010100101011110011101101001011011110100101110 N
b10000000111111011000011100010100101100011010111001111010011011110011001110110101011010100101011110011101101001011011110100101110 P
b10001010101001100110101101001110001010111100101010100010011110100011011101111110101011001010100110010110010010000111110001101100 Q
b1 S
b10001010101001100110101101001110001010111100101010100010011110100011011101111110101011001010100110010110010010000111110001101100 Z
b101111000011100001000100101000001100000011100010010111111111010101101100000001100111110000001001011110000001100111101000110001 \
b111 e
b110 f
b1 g
b1001 h
b1101110 i
b10000000111111011000011100010100101100011010111001111010011011110011001110110101011010100101011110011101101001011011110100101110 l
b110 m
b10000000111111011000011100010100101100011010111001111010011011110011001110110101011010100101011110011101101001011011110100101110 n
b10000000111111011000011100010100101100011010111001111010011011110011001110110101011010100101011110011101101001011011110100101110 r
b10000 s
b100101 t
b10001010101001100110101101001110001010111100101010100010011110100011011101111110101011001010100110010110010010000111110001101100 u
#780000
0!
0+
#790000
1!
b10001010101001100110101101001110001010111100101010100010011110100011011101111110111110111010100110010110010010000111110001101100 '!
1+
b100 4
b1001 =
b1001 >
b10000000111111011000011100010100101100011010111001111010011011110011001101101110011010100101011110011101101001011011110100101110 N
b10000000111111011000011100010100101100011010111001111010011011110011001101101110011010100101011110011101101001011011110100101110 P
b10001010101001100110101101001110001010111100101010100010011110100011011101111110111110111010100110010110010010000111110001101100 Q
b111000 S
b10001010101001100110101101001110001010111100101010100010011110100011011101111110111110111010100110010110010010000111110001101100 Z
b101111000011100001000100101000001100000011100010010111111111010101101100000001100111110000001001011110000001100111101000110001 \
b1000 e
b111 f
b111000 g
b1110110 h
b1001 i
b10000000111111011000011100010100101100011010111001111010011011110011001101101110011010100101011110011101101001011011110100101110 l
b111 m
b10000000111111011000011100010100101100011010111001111010011011110011001101101110011010100101011110011101101001011011110100101110 n
b10000000111111011000011100010100101100011010111001111010011011110011001101101110011010100101011110011101101001011011110100101110 r
b10000 s
b100110 t
b10001010101001100110101101001110001010111100101010100010011110100011011101111110111110111010100110010110010010000111110001101100 u
#800000
0!
0+
#810000
1!
b10001010101001100110101101001110001010111100101010100010011110100011011110100101111110111010100110010110010010000111110001101100 '!
1+
b100 4
b1110110 =
b1010 >
b10000000111111011000011100010100101100011010111001111010011011110000100101101110011010100101011110011101101001011011110100101110 N
b10000000111111011000011100010100101100011010111001111010011011110000100101101110011010100101011110011101101001011011110100101110 P
b10001010101001100110101101001110001010111100101010100010011110100011011110100101111110111010100110010110010010000111110001101100 Q
b110000 S
b10001010101001100110101101001110001010111100101010100010011110100011011110100101111110111010100110010110010010000111110001101100 Z
b101111000011100001000100101000001100000011100010010111111111010101101100000001100111110000001001011110000001100111101000110001 \
b1001 e
b1000 f
b110000 g
b1000 h
b1110110 i
b10000000111111011000011100010100101100011010111001111010011011110000100101101110011010100101011110011101101001011011110100101110 l
b1000 m
b10000000111111011000011100010100101100011010111001111010011011110000100101101110011010100101011110011101101001011011110100101110 n
b10000000111111011000011100010100101100011010111001111010011011110000100101101110011010100101011110011101101001011011110100101110 r
b10000 s
b100111 t
b10001010101001100110101101001110001010111100101010100010011110100011011110100101111110111010100110010110010010000111110001101100 u
#820000
0!
0+
