Vivado_projects/AES256_decrypt/AES256_decrypt.sim/sim_1/behav/xsim/wv_AES256_dec.vcd
$date
   Mon Dec  6 15:42:52 2021
$end
$version
  2020.2
$end
$timescale
  1ps
$end
$scope module tb_AES256_dec $end
$var reg 1 ! clk $end
$var reg 1 " resetn $end
$var reg 1 # ctrl_dataIn $end
$var reg 128 $ inpAES [127:0] $end
$var wire 1 % ctrl_dataOut $end
$var wire 128 & outAES [127:0] $end
$var integer 32 ' index $end
$var integer 32 ( i $end
$scope module DUT $end
$var wire 1 ) clk $end
$var wire 1 * resetn $end
$var wire 128 + inpAES [127:0] $end
$var wire 1 , ctrl_dataIn $end
$var reg 1 - ctrl_dataOut $end
$var reg 128 . outAES [127:0] $end
$var reg 128 / auxData [15:0] $end
$var integer 32 0 i $end
$var integer 32 1 index $end
$var reg 4 2 aes_st [3:0] $end
$var reg 4 3 aes_st_next [3:0] $end
$var reg 4 4 round [3:0] $end
$var wire 128 5 dataOut_reg416 [15:0] $end
$var wire 1 6 reg416_empty $end
$var wire 1 7 reg416_full $end
$var wire 8 8 dataOut1_demux [7:0] $end
$var wire 128 9 dataOut2_demux [15:0] $end
$var wire 8 : dataOut_ROM [7:0] $end
$var reg 5 ; rom_cnt [4:0] $end
$var reg 1 < req_rom $end
$var reg 1 = shf_reg $end
$var wire 128 > dataIn_shifter [15:0] $end
$var wire 128 ? dataOut_shifter [15:0] $end
$var reg 1 @ wr_shf $end
$var reg 1 A wr_shf_delay $end
$var reg 1 B outp_en_shf $end
$var reg 1 C outp_en_shf_delay $end
$var wire 128 D dataOut_mixColumns [15:0] $end
$var reg 1 E wr_mC $end
$var reg 1 F wr_mC_delay $end
$var wire 128 G dataOut_reg162 [15:0] $end
$var reg 2 H reg162_cnt [1:0] $end
$var reg 1 I wr_reg162 $end
$var reg 1 J wr_reg162_delay $end
$var wire 128 K dataOut_reg161 [15:0] $end
$var reg 1 L wr_reg161 $end
$var wire 128 M dataIn_addRK [15:0] $end
$var reg 128 N dataOut_addRK [15:0] $end
$var reg 1 O wr_addRK $end
$var wire 8 P dataOut_reg163 [7:0] $end
$var reg 1 Q wr_reg163 $end
$var wire 128 R key [127:0] $end
$var reg 1 S mux1_chgInp $end
$var reg 1 T mux2_chgInp $end
$var reg 1 U end_st_reg $end
$scope module mux $end
$var wire 1 V addr $end
$var wire 128 W inp0 [15:0] $end
$var wire 128 G inp1 [15:0] $end
$var reg 128 X aux [15:0] $end
$var reg 128 Y outp [15:0] $end
$upscope $end
$scope module shifter $end
$var wire 1 ) clk $end
$var wire 1 * resetn $end
$var wire 128 > inp_shf [15:0] $end
$var wire 1 Z outp_en $end
$var reg 128 [ aux [15:0] $end
$var reg 128 \ outp_shf [15:0] $end
$var integer 32 ] index $end
$upscope $end
$scope module reg16_3 $end
$var integer 32 ^ index $end
$var wire 1 ) clk $end
$var wire 1 * resetn $end
$var wire 1 _ wr_en $end
$var wire 1 ` req_rom $end
$var wire 128 ? inp_reg163 [15:0] $end
$var reg 128 a aux [15:0] $end
$var reg 4 b n_read [3:0] $end
$var reg 4 c n_read_delay [3:0] $end
$var reg 8 d outp_reg163 [7:0] $end
$upscope $end
$scope module rom_Sbox $end
$var wire 1 ) clk $end
$var wire 1 * resetn $end
$var wire 8 P addr_romSbox [7:0] $end
$var reg 8 e aux [7:0] $end
$var reg 8 f outp_romSbox [7:0] $end
$var integer 32 g index $end
$upscope $end
$scope module reg16_1 $end
$var integer 32 h index $end
$var wire 1 ) clk $end
$var wire 1 * resetn $end
$var wire 1 i wr_en $end
$var wire 8 : i [7:0] $end
$var reg 128 j aux [15:0] $end
$var reg 4 k counter [3:0] $end
$var reg 128 l o [15:0] $end
$upscope $end
$scope module mux2 $end
$var wire 1 m addr $end
$var wire 128 n inp0 [15:0] $end
$var wire 128 K inp1 [15:0] $end
$var reg 128 o aux [15:0] $end
$var reg 128 p outp [15:0] $end
$upscope $end
$scope module addRK $end
$var wire 1 ) clk $end
$var wire 1 * resetn $end
$var wire 128 R inp_key_addRK [127:0] $end
$var wire 128 M inp_addRK [15:0] $end
$var reg 128 N outp_addRK [15:0] $end
$var integer 32 q index $end
$var integer 32 r row $end
$upscope $end
$scope module rom_key $end
$var wire 1 ) clk $end
$var wire 1 * resetn $end
$var wire 4 s addr_romKey [3:0] $end
$var reg 128 t outp_romKey [127:0] $end
$upscope $end
$scope module mixColumns $end
$var wire 1 ) clk $end
$var wire 1 * resetn $end
$var wire 128 u inp_mC [15:0] $end
$var wire 1 v wr_en $end
$var reg 128 w lookup [15:0] $end
$var reg 128 x temp [15:0] $end
$var reg 128 y auxIn [15:0] $end
$var reg 128 z outp_mC [15:0] $end
$var integer 32 { index $end
$var integer 32 | rowNum $end
$var integer 32 } i $end
$var integer 32 ~ j $end
$scope function invMixColumns $end
$var reg 128 !! invMixColumns [15:0] $end
$var reg 128 "! inp_mC [15:0] $end
$upscope $end
$scope function xtime $end
$var reg 8 #! xtime [7:0] $end
$var reg 8 $! num [7:0] $end
$upscope $end
$upscope $end
$scope module reg16_2 $end
$var integer 32 %! index $end
$var wire 1 ) clk $end
$var wire 1 * resetn $end
$var wire 1 &! wr_en $end
$var wire 4 '! round [3:0] $end
$var wire 128 D inp_reg162_mC [15:0] $end
$var wire 128 (! inp_reg162_shf [15:0] $end
$var reg 128 )! aux [15:0] $end
$var reg 128 *! outp_reg162 [15:0] $end
$upscope $end
$upscope $end
$scope task enableResetn $end
$upscope $end
$scope task test_AES_encryption $end
$upscope $end
$upscope $end
$enddefinitions $end
#0
$dumpvars
0!
bx !!
x"
bx "!
x#
b0 #!
bx $
bx $!
x%
bx %!
bx &
x&!
bx '
bx '!
b0 (
bx (!
0)
bx )!
x*
bx *!
bx +
x,
x-
bx .
bx /
bx 0
bx 1
bx 2
bx 3
bx 4
bz 5
z6
z7
bz 8
bz 9
bx :
bx ;
x<
x=
bx >
bx ?
x@
xA
xB
xC
bx D
xE
xF
bx G
bx H
xI
xJ
bx K
xL
bx M
bx N
xO
bx P
xQ
bx R
xS
xT
xU
xV
bx W
bx X
bx Y
xZ
bx [
bx \
bx ]
bx ^
x_
x`
bx a
bx b
bx c
bx d
bx e
bx f
bx g
bx h
xi
bx j
bx k
bx l
xm
bx n
bx o
bx p
bx q
bx r
bx s
bx t
bx u
xv
bx w
bx x
bx y
bx z
bx {
bx |
bx }
bx ~
$end
#10000
1!
0%
0&!
1)
0-
b0 ;
0<
0B
0E
0I
0Q
0U
0Z
0_
0`
b10000 q
bx r
0v
#11000
0"
b10000 %!
bx0000000000000000 &
b0 '!
b0 (!
b0 )!
0*
b0 *!
bx0000000000000000 .
b10000 0
b0 2
b0 3
b0 4
b0 >
b0 ?
b0 D
b0 G
b0 K
0L
b0 N
b0 P
b101110010011111011011101010100001001000001010001011011000011101011111001110000100000110001101110111010101110110001001011100101 R
0S
0T
0V
b0 W
b0 Y
b0 \
b10000 ^
b0 a
b0 b
b0 c
b0 d
b1010010 e
b10000 h
0i
b0 j
b0 k
b0 l
0m
bx p
b10000 q
b0 r
b0 s
b101110010011111011011101010100001001000001010001011011000011101011111001110000100000110001101110111010101110110001001011100101 t
b0 u
b0 y
b0 z
b10000 {
#20000
0!
0)
#30000
1!
b10000 %!
1)
b10000 0
b10000 ^
b10000 h
b10000 q
b10000 {
#31000
1"
1*
#40000
0!
0)
#50000
1!
1#
bx (!
1)
1,
b100 1
b110 3
bx >
bx ?
bx N
bx W
bx Y
bx \
b10000 q
b1 r
bx u
#60000
0!
0)
#70000
1!
b1111010010110000100110110011001111111101011110010010011111010101101011010110011010101100011110011000100101011010011101001100011 $
1)
b1111010010110000100110110011001111111101011110010010011111010101101011010110011010101100011110011000100101011010011101001100011 +
b1111010010110000100110110011001111111101011110010010011111010101101011010110011010101100011110011000100101011010011101001100011 /
b100 1
b110 2
b1 3
b1111010010110000100110110011001111111101011110010010011111010101101011010110011010101100011110011000100101011010011101001100011 M
b1111010010110000100110110011001111111101011110010010011111010101101011010110011010101100011110011000100101011010011101001100011 n
b1111010010110000100110110011001111111101011110010010011111010101101011010110011010101100011110011000100101011010011101001100011 p
b10000 q
b10 r
#80000
0!
0)
#90000
1!
b1010100000101111111101011001101110110101010100011001000111001000110100011000011110101010010011101111110000101100010100010000110 (!
1)
b100 1
b1 2
b10 3
b1010100000101111111101011001101110110101010100011001000111001000110100011000011110101010010011101111110000101100010100010000110 >
b11001101010101000001011111111010110010001110010011011010101010001100001111010101001001110110100001111110000101100010100010000110 ?
1B
b1010100000101111111101011001101110110101010100011001000111001000110100011000011110101010010011101111110000101100010100010000110 N
b1010100000101111111101011001101110110101010100011001000111001000110100011000011110101010010011101111110000101100010100010000110 W
b1010100000101111111101011001101110110101010100011001000111001000110100011000011110101010010011101111110000101100010100010000110 Y
1Z
b11001101010101000001011111111010110010001110010011011010101010001100001111010101001001110110100001111110000101100010100010000110 \
b10000 q
b11 r
b1010100000101111111101011001101110110101010100011001000111001000110100011000011110101010010011101111110000101100010100010000110 u
#100000
0!
0)
#110000
1!
b1 '!
1)
b100 1
b10 2
b11 3
b1 4
1Q
b10111001101010011011000001010110011000101110010011001010001001000001110111000111010000100001001100011001010110100111111101101000 R
1_
b10000 q
b100 r
b1 s
b10111001101010011011000001010110011000101110010011001010001001000001110111000111010000100001001100011001010110100111111101101000 t
#120000
0!
0)
#130000
1!
b11000011111100011111110111001111100111000101100001011001110011101100101101110100000101000010111111011101111101110100010100001011 (!
1)
b100 1
b11 2
b1010010 :
0<
b0 >
b0 ?
0B
0L
b11000011111100011111110111001111100111000101100001011001110011101100101101110100000101000010111111011101111101110100010100001011 N
b10000110 P
0Q
1S
1V
b11000011111100011111110111001111100111000101100001011001110011101100101101110100000101000010111111011101111101110100010100001011 W
b0 Y
0Z
b0 \
0_
b11001101010101000001011111111010110010001110010011011010101010001100001111010101001001110110100001111110000101100010100010000110 a
b10000110 d
b11011100 e
b1010010 f
b10000 q
b101 r
b11000011111100011111110111001111100111000101100001011001110011101100101101110100000101000010111111011101111101110100010100001011 u
#140000
0!
0)
#150000
1!
1)
b100 1
b1 ;
1<
1`
b10000 q
b110 r
#160000
0!
0)
#170000
1!
1)
b100 1
b11011100 :
b10 ;
1L
b101000 P
b1 b
b101000 d
b11101110 e
b11011100 f
1i
b10000 q
b111 r
#180000
0!
0)
#190000
1!
1)
b100 1
b11101110 :
b11 ;
b11011100 K
b10110 P
b10 b
b1 c
b10110 d
b11111111 e
b11101110 f
b11011100 j
b1 k
b11011100 l
b1111010010110000100110110011001111111101011110010010011111010101101011010110011010101100011110011000100101011010011101001100011 p
b10000 q
b1000 r
#200000
0!
0)
#210000
1!
1)
b100 1
b11111111 :
b100 ;
b1110111011011100 K
b1111110 P
b11 b
b10 c
b1111110 d
b10001010 e
b11111111 f
b1110111011011100 j
b10 k
b1110111011011100 l
b1111010010110000100110110011001111111101011110010010011111010101101011010110011010101100011110011000100101011010011101001100011 p
b10000 q
b1001 r
#220000
0!
0)
#230000
1!
1)
b100 1
b10001010 :
b101 ;
b111111111110111011011100 K
b1101000 P
b100 b
b11 c
b1101000 d
b11110111 e
b10001010 f
b111111111110111011011100 j
b11 k
b111111111110111011011100 l
b1111010010110000100110110011001111111101011110010010011111010101101011010110011010101100011110011000100101011010011101001100011 p
b10000 q
b1010 r
#240000
0!
0)
#250000
1!
1)
b100 1
b11110111 :
b110 ;
b10001010111111111110111011011100 K
b100111 P
b101 b
b100 c
b100111 d
b111101 e
b11110111 f
b10001010111111111110111011011100 j
b100 k
b10001010111111111110111011011100 l
b1111010010110000100110110011001111111101011110010010011111010101101011010110011010101100011110011000100101011010011101001100011 p
b10000 q
b1011 r
#260000
0!
0)
#270000
1!
1)
b100 1
b111101 :
b111 ;
b1111011110001010111111111110111011011100 K
b11010101 P
b110 b
b101 c
b11010101 d
b10110101 e
b111101 f
b1111011110001010111111111110111011011100 j
b101 k
b1111011110001010111111111110111011011100 l
b1111010010110000100110110011001111111101011110010010011111010101101011010110011010101100011110011000100101011010011101001100011 p
b10000 q
b1100 r
#280000
0!
0)
#290000
1!
1)
b100 1
b10110101 :
b1000 ;
b1111011111011110001010111111111110111011011100 K
b11000011 P
b111 b
b110 c
b11000011 d
b110011 e
b10110101 f
b1111011111011110001010111111111110111011011100 j
b110 k
b1111011111011110001010111111111110111011011100 l
b1111010010110000100110110011001111111101011110010010011111010101101011010110011010101100011110011000100101011010011101001100011 p
b10000 q
b1101 r
#300000
0!
0)
#310000
1!
1)
b100 1
b110011 :
b1001 ;
b10110101001111011111011110001010111111111110111011011100 K
b10101000 P
b1000 b
b111 c
b10101000 d
b1101111 e
b110011 f
b10110101001111011111011110001010111111111110111011011100 j
b111 k
b10110101001111011111011110001010111111111110111011011100 l
b1111010010110000100110110011001111111101011110010010011111010101101011010110011010101100011110011000100101011010011101001100011 p
b10000 q
b1110 r
#320000
0!
0)
#330000
1!
1)
b100 1
b1101111 :
b1010 ;
b11001110110101001111011111011110001010111111111110111011011100 K
b11011010 P
b1001 b
b1000 c
b11011010 d
b1111010 e
b1101111 f
b11001110110101001111011111011110001010111111111110111011011100 j
b1000 k
b11001110110101001111011111011110001010111111111110111011011100 l
b1111010010110000100110110011001111111101011110010010011111010101101011010110011010101100011110011000100101011010011101001100011 p
b10000 q
b1111 r
#340000
0!
0)
#350000
1!
1)
b100 1
b1111010 :
b1011 ;
b11011110011001110110101001111011111011110001010111111111110111011011100 K
b11100100 P
b1010 b
b1001 c
b11100100 d
b10101110 e
b1111010 f
b11011110011001110110101001111011111011110001010111111111110111011011100 j
b1001 k
b11011110011001110110101001111011111011110001010111111111110111011011100 l
b1111010010110000100110110011001111111101011110010010011111010101101011010110011010101100011110011000100101011010011101001100011 p
b10000 q
b10000 r
#360000
0!
0)
#370000
1!
1)
b100 1
b10101110 :
b1100 ;
b1111010011011110011001110110101001111011111011110001010111111111110111011011100 K
b11001000 P
b1011 b
b1010 c
b11001000 d
b10110001 e
b10101110 f
b1111010011011110011001110110101001111011111011110001010111111111110111011011100 j
b1010 k
b1111010011011110011001110110101001111011111011110001010111111111110111011011100 l
b1111010010110000100110110011001111111101011110010010011111010101101011010110011010101100011110011000100101011010011101001100011 p
b10000 q
b10001 r
#380000
0!
0)
#390000
1!
1)
b100 1
b10110001 :
b1101 ;
b1010111001111010011011110011001110110101001111011111011110001010111111111110111011011100 K
b11111010 P
b1100 b
b1011 c
b11111010 d
b10100 e
b10110001 f
b1010111001111010011011110011001110110101001111011111011110001010111111111110111011011100 j
b1011 k
b1010111001111010011011110011001110110101001111011111011110001010111111111110111011011100 l
b1111010010110000100110110011001111111101011110010010011111010101101011010110011010101100011110011000100101011010011101001100011 p
b10000 q
b10010 r
#400000
0!
0)
#410000
1!
1)
b100 1
b10100 :
b1110 ;
b101100011010111001111010011011110011001110110101001111011111011110001010111111111110111011011100 K
b10111 P
b1101 b
b1100 c
b10111 d
b10000111 e
b10100 f
b101100011010111001111010011011110011001110110101001111011111011110001010111111111110111011011100 j
b1100 k
b101100011010111001111010011011110011001110110101001111011111011110001010111111111110111011011100 l
b1111010010110000100110110011001111111101011110010010011111010101101011010110011010101100011110011000100101011010011101001100011 p
b10000 q
b10011 r
#420000
0!
0)
#430000
1!
1)
b100 1
b100 3
b10000111 :
b1111 ;
b10100101100011010111001111010011011110011001110110101001111011111011110001010111111111110111011011100 K
b1010100 P
b1110 b
b1101 c
b1010100 d
b11111101 e
b10000111 f
b10100101100011010111001111010011011110011001110110101001111011111011110001010111111111110111011011100 j
b1101 k
b10100101100011010111001111010011011110011001110110101001111011111011110001010111111111110111011011100 l
b1111010010110000100110110011001111111101011110010010011111010101101011010110011010101100011110011000100101011010011101001100011 p
b10000 q
b10100 r
#440000
0!
0)
#450000
1!
1)
b100 1
b100 2
b101 3
b11111101 :
b10000 ;
b1000011100010100101100011010111001111010011011110011001110110101001111011111011110001010111111111110111011011100 K
b11001101 P
b1111 b
b1110 c
b11001101 d
b10000000 e
b11111101 f
b1000011100010100101100011010111001111010011011110011001110110101001111011111011110001010111111111110111011011100 j
b1110 k
b1000011100010100101100011010111001111010011011110011001110110101001111011111011110001010111111111110111011011100 l
b1111010010110000100110110011001111111101011110010010011111010101101011010110011010101100011110011000100101011010011101001100011 p
b10000 q
b10101 r
#460000
0!
0)
#470000
1!
1)
b100 1
b101 2
b110 3
b10000000 :
b0 ;
0<
b111111011000011100010100101100011010111001111010011011110011001110110101001111011111011110001010111111111110111011011100 K
b10000110 P
0`
b0 b
b1111 c
b10000110 d
b11011100 e
b10000000 f
b111111011000011100010100101100011010111001111010011011110011001110110101001111011111011110001010111111111110111011011100 j
b1111 k
b111111011000011100010100101100011010111001111010011011110011001110110101001111011111011110001010111111111110111011011100 l
b1111010010110000100110110011001111111101011110010010011111010101101011010110011010101100011110011000100101011010011101001100011 p
b10000 q
b10110 r
#480000
0!
0)
#490000
1!
1)
b100 1
b110 2
b111 3
b10000000111111011000011100010100101100011010111001111010011011110011001110110101001111011111011110001010111111111110111011011100 K
0L
0i
b10000000111111011000011100010100101100011010111001111010011011110011001110110101001111011111011110001010111111111110111011011100 j
b0 k
b10000000111111011000011100010100101100011010111001111010011011110011001110110101001111011111011110001010111111111110111011011100 l
b1111010010110000100110110011001111111101011110010010011111010101101011010110011010101100011110011000100101011010011101001100011 p
b10000 q
b10111 r
#500000
0!
0)
#510000
1!
1)
b100 1
b111 2
b1000 3
b10000000111111011000011100010100101100011010111001111010011011110011001110110101001111011111011110001010111111111110111011011100 M
1T
1m
b10000000111111011000011100010100101100011010111001111010011011110011001110110101001111011111011110001010111111111110111011011100 p
b10000 q
b11000 r
#520000
0!
0)
#530000
1!
b111001010101000011011101000010110100110100101010110000010010110010111001110010011111111110010010010011101001011001000110110100 (!
1)
b100 1
b1000 2
b1100 3
1E
b111001010101000011011101000010110100110100101010110000010010110010111001110010011111111110010010010011101001011001000110110100 N
b111001010101000011011101000010110100110100101010110000010010110010111001110010011111111110010010010011101001011001000110110100 W
b0 Y
b10000 q
b11001 r
b111001010101000011011101000010110100110100101010110000010010110010111001110010011111111110010010010011101001011001000110110100 u
1v
#540000
0!
0)
#550000
1!
b101111000011100001000100101000001100000011100010010111111111010101101100000001100111110000001001011110000001100111101000110001 !!
b111001010101000011011101000010110100110100101010110000010010110010111001110010011111111110010010010011101001011001000110110100 "!
b11010011 #!
b11100100 $!
1&!
1)
b100 1
b1100 2
b1 3
b101111000011100001000100101000001100000011100010010111111111010101101100000001100111110000001001011110000001100111101000110001 D
0E
1I
b10000 q
b11010 r
0v
b11010011111001000111001000111001100101100100101110101000010101001010001111011100011011100011011100100110000100111000010001000010 w
b101111000011100001000100101000001100000011100010010111111111010101101100000001100111110000001001011110000001100111101000110001 x
b101111000011100001000100101000001100000011100010010111111111010101101100000001100111110000001001011110000001100111101000110001 y
b101111000011100001000100101000001100000011100010010111111111010101101100000001100111110000001001011110000001100111101000110001 z
b100 }
b100 ~
#560000
0!
0)
#570000
1!
0&!
b10 '!
1)
b101111000011100001000100101000001100000011100010010111111111010101101100000001100111110000001001011110000001100111101000110001 )!
b101111000011100001000100101000001100000011100010010111111111010101101100000001100111110000001001011110000001100111101000110001 *!
b100 1
b1 2
b10 3
b10 4
b101111000011100001000100101000001100000011100010010111111111010101101100000001100111110000001001011110000001100111101000110001 >
b101000001011110000111000010001100101111111110100110000001110000000000110011111000000100101101101011110000001100111101000110001 ?
b101111000011100001000100101000001100000011100010010111111111010101101100000001100111110000001001011110000001100111101000110001 G
0I
b1010010110111110110001011010100110100110010011011000000101010000010011001011100100011111111000001011111011011100000101000010 R
b101111000011100001000100101000001100000011100010010111111111010101101100000001100111110000001001011110000001100111101000110001 Y
b101000001011110000111000010001100101111111110100110000001110000000000110011111000000100101101101011110000001100111101000110001 \
b10000 q
b11011 r
b10 s
b1010010110111110110001011010100110100110010011011000000101010000010011001011100100011111111000001011111011011100000101000010 t
#580000
0!
0)
#590000
1!
b10001010101001100110101101001110001010111100101010100010011110100011011101111110101011000000100110000001000100100010111110011110 (!
1)
b100 1
b10 2
b11 3
1B
b10001010101001100110101101001110001010111100101010100010011110100011011101111110101011000000100110000001000100100010111110011110 N
1Q
b10001010101001100110101101001110001010111100101010100010011110100011011101111110101011000000100110000001000100100010111110011110 W
b101111000011100001000100101000001100000011100010010111111111010101101100000001100111110000001001011110000001100111101000110001 Y
1Z
1_
b10000 q
b11100 r
b10001010101001100110101101001110001010111100101010100010011110100011011101111110101011000000100110000001000100100010111110011110 u
#600000
0!
0)
#610000
1!
1)
b100 1
b11 2
b11011100 :
0<
0B
0L
b110001 P
0Q
0Z
0_
b101000001011110000111000010001100101111111110100110000001110000000000110011111000000100101101101011110000001100111101000110001 a
b110001 d
b101110 e
b11011100 f
b10000 q
b11101 r
#620000
0!
0)
#630000
1!
1)
b100 1
b1 ;
1<
1`
b10000 q
b11110 r
#640000
0!
0)
#650000
1!
1)
b100 1
b101110 :
b10 ;
1L
b1111010 P
b1 b
b0 c
b1111010 d
b10111101 e
b101110 f
1i
b10000 q
b11111 r
#660000
0!
0)
#670000
1!
1)
b100 1
b10111101 :
b11 ;
b10000000111111011000011100010100101100011010111001111010011011110011001110110101001111011111011110001010111111111110111000101110 K
b10000000111111011000011100010100101100011010111001111010011011110011001110110101001111011111011110001010111111111110111000101110 M
b110 P
b10 b
b1 c
b110 d
b10100101 e
b10111101 f
b10000000111111011000011100010100101100011010111001111010011011110011001110110101001111011111011110001010111111111110111000101110 j
b1 k
b10000000111111011000011100010100101100011010111001111010011011110011001110110101001111011111011110001010111111111110111000101110 l
b10000000111111011000011100010100101100011010111001111010011011110011001110110101001111011111011110001010111111111110111000101110 p
b10000 q
b100000 r
#680000
0!
0)
#690000
1!
b10001010101001100110101101001110001010111100101010100010011110100011011101111110101011000000100110000001000100100010111101101100 (!
1)
b100 1
b10100101 :
b100 ;
b10000000111111011000011100010100101100011010111001111010011011110011001110110101001111011111011110001010111111111011110100101110 K
b10000000111111011000011100010100101100011010111001111010011011110011001110110101001111011111011110001010111111111011110100101110 M
b10001010101001100110101101001110001010111100101010100010011110100011011101111110101011000000100110000001000100100010111101101100 N
b1011110 P
b10001010101001100110101101001110001010111100101010100010011110100011011101111110101011000000100110000001000100100010111101101100 W
b101111000011100001000100101000001100000011100010010111111111010101101100000001100111110000001001011110000001100111101000110001 Y
b11 b
b10 c
b1011110 d
b10011101 e
b10100101 f
b10000000111111011000011100010100101100011010111001111010011011110011001110110101001111011111011110001010111111111011110100101110 j
b10 k
b10000000111111011000011100010100101100011010111001111010011011110011001110110101001111011111011110001010111111111011110100101110 l
b10000000111111011000011100010100101100011010111001111010011011110011001110110101001111011111011110001010111111111011110100101110 p
b10000 q
b100001 r
b10001010101001100110101101001110001010111100101010100010011110100011011101111110101011000000100110000001000100100010111101101100 u
#700000
0!
0)
#710000
1!
b10001010101001100110101101001110001010111100101010100010011110100011011101111110101011000000100110000001000100100111110001101100 (!
1)
b100 1
b10011101 :
b101 ;
b10000000111111011000011100010100101100011010111001111010011011110011001110110101001111011111011110001010101001011011110100101110 K
b10000000111111011000011100010100101100011010111001111010011011110011001110110101001111011111011110001010101001011011110100101110 M
b10001010101001100110101101001110001010111100101010100010011110100011011101111110101011000000100110000001000100100111110001101100 N
b1011011 P
b10001010101001100110101101001110001010111100101010100010011110100011011101111110101011000000100110000001000100100111110001101100 W
b101111000011100001000100101000001100000011100010010111111111010101101100000001100111110000001001011110000001100111101000110001 Y
b100 b
b11 c
b1011011 d
b1010111 e
b10011101 f
b10000000111111011000011100010100101100011010111001111010011011110011001110110101001111011111011110001010101001011011110100101110 j
b11 k
b10000000111111011000011100010100101100011010111001111010011011110011001110110101001111011111011110001010101001011011110100101110 l
b10000000111111011000011100010100101100011010111001111010011011110011001110110101001111011111011110001010101001011011110100101110 p
b10000 q
b100010 r
b10001010101001100110101101001110001010111100101010100010011110100011011101111110101011000000100110000001000100100111110001101100 u
#720000
0!
0)
#730000
1!
b10001010101001100110101101001110001010111100101010100010011110100011011101111110101011000000100110000001010010000111110001101100 (!
1)
b100 1
b1010111 :
b110 ;
b10000000111111011000011100010100101100011010111001111010011011110011001110110101001111011111011110011101101001011011110100101110 K
b10000000111111011000011100010100101100011010111001111010011011110011001110110101001111011111011110011101101001011011110100101110 M
b10001010101001100110101101001110001010111100101010100010011110100011011101111110101011000000100110000001010010000111110001101100 N
b10 P
b10001010101001100110101101001110001010111100101010100010011110100011011101111110101011000000100110000001010010000111110001101100 W
b101111000011100001000100101000001100000011100010010111111111010101101100000001100111110000001001011110000001100111101000110001 Y
b101 b
b100 c
b10 d
b1101010 e
b1010111 f
b10000000111111011000011100010100101100011010111001111010011011110011001110110101001111011111011110011101101001011011110100101110 j
b100 k
b10000000111111011000011100010100101100011010111001111010011011110011001110110101001111011111011110011101101001011011110100101110 l
b10000000111111011000011100010100101100011010111001111010011011110011001110110101001111011111011110011101101001011011110100101110 p
b10000 q
b100011 r
b10001010101001100110101101001110001010111100101010100010011110100011011101111110101011000000100110000001010010000111110001101100 u
#740000
0!
0)
#750000
1!
b10001010101001100110101101001110001010111100101010100010011110100011011101111110101011000000100110010110010010000111110001101100 (!
1)
b100 1
b1101010 :
b111 ;
b10000000111111011000011100010100101100011010111001111010011011110011001110110101001111010101011110011101101001011011110100101110 K
b10000000111111011000011100010100101100011010111001111010011011110011001110110101001111010101011110011101101001011011110100101110 M
b10001010101001100110101101001110001010111100101010100010011110100011011101111110101011000000100110010110010010000111110001101100 N
b10011111 P
b10001010101001100110101101001110001010111100101010100010011110100011011101111110101011000000100110010110010010000111110001101100 W
b101111000011100001000100101000001100000011100010010111111111010101101100000001100111110000001001011110000001100111101000110001 Y
b110 b
b101 c
b10011111 d
b1101110 e
b1101010 f
b10000000111111011000011100010100101100011010111001111010011011110011001110110101001111010101011110011101101001011011110100101110 j
b101 k
b10000000111111011000011100010100101100011010111001111010011011110011001110110101001111010101011110011101101001011011110100101110 l
b10000000111111011000011100010100101100011010111001111010011011110011001110110101001111010101011110011101101001011011110100101110 p
b10000 q
b100100 r
b10001010101001100110101101001110001010111100101010100010011110100011011101111110101011000000100110010110010010000111110001101100 u
#760000
0!
0)
#770000
1!
b10001010101001100110101101001110001010111100101010100010011110100011011101111110101011001010100110010110010010000111110001101100 (!
1)
b100 1
b1101110 :
b1000 ;
b10000000111111011000011100010100101100011010111001111010011011110011001110110101011010100101011110011101101001011011110100101110 K
b10000000111111011000011100010100101100011010111001111010011011110011001110110101011010100101011110011101101001011011110100101110 M
b10001010101001100110101101001110001010111100101010100010011110100011011101111110101011001010100110010110010010000111110001101100 N
b1 P
b10001010101001100110101101001110001010111100101010100010011110100011011101111110101011001010100110010110010010000111110001101100 W
b101111000011100001000100101000001100000011100010010111111111010101101100000001100111110000001001011110000001100111101000110001 Y
b111 b
b110 c
b1 d
b1001 e
b1101110 f
b10000000111111011000011100010100101100011010111001111010011011110011001110110101011010100101011110011101101001011011110100101110 j
b110 k
b10000000111111011000011100010100101100011010111001111010011011110011001110110101011010100101011110011101101001011011110100101110 l
b10000000111111011000011100010100101100011010111001111010011011110011001110110101011010100101011110011101101001011011110100101110 p
b10000 q
b100101 r
b10001010101001100110101101001110001010111100101010100010011110100011011101111110101011001010100110010110010010000111110001101100 u
#780000
0!
0)
#790000
1!
b10001010101001100110101101001110001010111100101010100010011110100011011101111110111110111010100110010110010010000111110001101100 (!
1)
b100 1
b1001 :
b1001 ;
b10000000111111011000011100010100101100011010111001111010011011110011001101101110011010100101011110011101101001011011110100101110 K
b10000000111111011000011100010100101100011010111001111010011011110011001101101110011010100101011110011101101001011011110100101110 M
b10001010101001100110101101001110001010111100101010100010011110100011011101111110111110111010100110010110010010000111110001101100 N
b111000 P
b10001010101001100110101101001110001010111100101010100010011110100011011101111110111110111010100110010110010010000111110001101100 W
b101111000011100001000100101000001100000011100010010111111111010101101100000001100111110000001001011110000001100111101000110001 Y
b1000 b
b111 c
b111000 d
b1110110 e
b1001 f
b10000000111111011000011100010100101100011010111001111010011011110011001101101110011010100101011110011101101001011011110100101110 j
b111 k
b10000000111111011000011100010100101100011010111001111010011011110011001101101110011010100101011110011101101001011011110100101110 l
b10000000111111011000011100010100101100011010111001111010011011110011001101101110011010100101011110011101101001011011110100101110 p
b10000 q
b100110 r
b10001010101001100110101101001110001010111100101010100010011110100011011101111110111110111010100110010110010010000111110001101100 u
#800000
0!
0)
#810000
1!
b10001010101001100110101101001110001010111100101010100010011110100011011110100101111110111010100110010110010010000111110001101100 (!
1)
b100 1
b1110110 :
b1010 ;
b10000000111111011000011100010100101100011010111001111010011011110000100101101110011010100101011110011101101001011011110100101110 K
b10000000111111011000011100010100101100011010111001111010011011110000100101101110011010100101011110011101101001011011110100101110 M
b10001010101001100110101101001110001010111100101010100010011110100011011110100101111110111010100110010110010010000111110001101100 N
b110000 P
b10001010101001100110101101001110001010111100101010100010011110100011011110100101111110111010100110010110010010000111110001101100 W
b101111000011100001000100101000001100000011100010010111111111010101101100000001100111110000001001011110000001100111101000110001 Y
b1001 b
b1000 c
b110000 d
b1000 e
b1110110 f
b10000000111111011000011100010100101100011010111001111010011011110000100101101110011010100101011110011101101001011011110100101110 j
b1000 k
b10000000111111011000011100010100101100011010111001111010011011110000100101101110011010100101011110011101101001011011110100101110 l
b10000000111111011000011100010100101100011010111001111010011011110000100101101110011010100101011110011101101001011011110100101110 p
b10000 q
b100111 r
b10001010101001100110101101001110001010111100101010100010011110100011011110100101111110111010100110010110010010000111110001101100 u
#820000
0!
0)
