Vivado_projects/AES256_keygen/AES256_keygen.sim/sim_1/behav/xsim/wv_mod_keygen.vcd
$date
   Fri Dec 10 22:14:21 2021
$end
$version
  2020.2
$end
$timescale
  1ps
$end
$scope module tb_mod_keygen $end
$var reg 1 ! clk $end
$var reg 1 " resetn $end
$var reg 1 # ctrl_dataIn_kg $end
$var reg 128 $ dataIn [127:0] $end
$var reg 128 % dataOut [127:0] $end
$var reg 1 & ctrl_dataOut_kg $end
$var reg 4 ' keycnt [3:0] $end
$var reg 128 ( prevKey [127:0] $end
$var integer 32 ) i $end
$var integer 32 * j $end
$var integer 32 + index $end
$scope module DUT $end
$var wire 1 , clk $end
$var wire 1 - resetn $end
$var wire 128 . kg_dataIn [127:0] $end
$var wire 1 / ctrl_dataIn_kg $end
$var reg 128 % kg_dataOut [127:0] $end
$var reg 1 & ctrl_dataOut_kg $end
$var reg 4 0 kg_st [3:0] $end
$var reg 4 1 kg_st_next [3:0] $end
$var reg 8 2 round [7:0] $end
$var reg 3 3 word_cnt [2:0] $end
$var reg 128 4 key_aux [127:0] $end
$var reg 3 5 cond_getWord [2:0] $end
$var reg 2 6 subWord_cnt [1:0] $end
$var reg 32 7 temp [3:0] $end
$var reg 32 8 temp2 [3:0] $end
$var reg 1920 9 wordlist [239:0] $end
$var reg 56 : Rcon [6:0] $end
$var integer 32 ; index $end
$var integer 32 < i $end
$var integer 32 = iAux $end
$var integer 32 > iOut $end
$var reg 2 ? key_num [1:0] $end
$var reg 2 @ key_num_delay [1:0] $end
$var reg 32 A dataIn_rotWord [3:0] $end
$var wire 32 B dataOut_rotWord [3:0] $end
$var reg 1 C wr_rotWord $end
$var reg 8 D dataIn_subWord [7:0] $end
$var wire 8 E dataOut_subWord [7:0] $end
$var reg 1 F end_st_reg $end
$scope module rotWord $end
$var wire 1 , clk $end
$var wire 1 - resetn $end
$var wire 1 G wr_rotWord $end
$var wire 32 H inp_rotWord [3:0] $end
$var reg 32 I outp_rotWord [3:0] $end
$upscope $end
$scope module subWord $end
$var wire 1 , clk $end
$var wire 1 - resetn $end
$var wire 8 J addr_subWord [7:0] $end
$var reg 8 K outp_subWord [7:0] $end
$var integer 32 L index $end
$upscope $end
$upscope $end
$scope task enableResetn $end
$upscope $end
$scope task test_AES_keygen $end
$upscope $end
$upscope $end
$enddefinitions $end
#0
$dumpvars
0!
x"
x#
bx $
bx %
x&
bx '
bx (
b0 )
b0 *
bx +
0,
x-
bx .
x/
bx 0
bx 1
bx 2
bx 3
bx 4
bx 5
bx 6
bx 7
bx 8
bx 9
bx :
bx ;
bx <
bx =
bx >
bx ?
bx @
bx A
bx B
xC
bx D
bx E
xF
xG
bx H
bx I
bx J
bx K
bx L
$end
#10000
1!
0&
1,
b0 6
b0 >
0C
0F
0G
bx J
#11000
0"
0#
b0 '
b0 +
0-
0/
b0 0
b0 1
b1000 2
b0 7
b0 8
b0 9
b1000000001000000001000000001000000001000000001000000001 :
b0 ?
b0 @
b0 B
b1100011 E
b0 I
b0 J
b1100011 K
#20000
0!
0,
#30000
1!
0#
1,
#31000
1"
1-
#40000
0!
0,
#50000
1!
1#
1,
1/
b0xxxxxxxxxxxxxxxxxxxxxxxxxxxxxxxxxxxxxxxxxxxxxxxxxxxxxxxxxxxxxxxxxxxxxxxxxxxxxxxxxxxxxxxxxxxxxxxxxxxxxxxxxxxxxxxxxxxxxxxxxxxxxxxx 9
b10000 <
b1 ?
#51000
b1111000011100000110100001100000010110000101000001001000010000000011100000110000001010000010000000011000000100000000100000000 $
b1 +
b1111000011100000110100001100000010110000101000001001000010000000011100000110000001010000010000000011000000100000000100000000 .
#60000
0!
0,
#70000
1!
1,
b1111000011100000110100001100000010110000101000001001000010000000011100000110000001010000010000000011000000100000000100000000 9
b10000 <
b10 ?
b1 @
#71000
b1111000011100000110100001100000010110000101000001001000010000000011100000110000001010000010000000011000000100000000100000000 (
b10 +
#80000
0!
0,
#90000
1!
1,
b1 1
b111100001110000011010000110000001011000010100000100100001000000001110000011000000101000001000000001100000010000000010000000000001111000011100000110100001100000010110000101000001001000010000000011100000110000001010000010000000011000000100000000100000000 9
b10000 <
b11 ?
b10 @
#100000
0!
0,
#110000
1!
b11 +
1,
b1 0
b10 1
b0 5
#120000
0!
0,
#130000
1!
b100 +
1,
b10 0
b100 1
b1111000011100000110100001100 7
b100 <
b11111110 E
b1100 J
b11111110 K
#140000
0!
0,
#150000
1!
b101 +
1,
b100 0
b11 1
b1111000011100000110100001100 A
1C
1G
b1111000011100000110100001100 H
#160000
0!
0,
#170000
1!
b110 +
1,
b11 0
b101 1
b1100000011110000111000001101 B
0C
0G
b1100000011110000111000001101 I
#180000
0!
0,
#190000
1!
b111 +
1,
b101 0
b1100000011110000111000001101 7
b11010111 E
b1101 J
b11010111 K
#200000
0!
0,
#210000
1!
b1000 +
1,
b1 6
b1100000011110000111011010111 7
b10101011 E
b1110 J
b10101011 K
#220000
0!
0,
#230000
1!
b1001 +
1,
b10 6
b1100000011111010101111010111 7
b1110110 E
b1111 J
b1110110 K
#240000
0!
0,
#250000
1!
b1010 +
1,
b110 1
b11 6
b1100011101101010101111010111 7
b11111110 E
b1100 J
b11111110 K
#260000
0!
0,
#270000
1!
b1011 +
1,
b110 0
b1110 1
b0 6
b11111110011101101010101111010111 7
b1110 E
b11010111 J
b1110 K
#280000
0!
0,
#290000
1!
b1100 +
1,
b1110 0
b1 1
b0 3
b0 4
b11111110011101101010101111010110 7
b111111010111010010101010110101100000111100001110000011010000110000001011000010100000100100001000000001110000011000000101000001000000001100000010000000010000000000001111000011100000110100001100000010110000101000001001000010000000011100000110000001010000010000000011000000100000000100000000 9
b100 <
b11110110 E
b11010110 J
b11110110 K
#300000
0!
0,
#310000
1!
b1101 +
1,
b1 0
b1110 1
b1001 2
b1 5
#320000
0!
0,
#330000
1!
b1110 +
1,
b1110 0
b1 1
b1 3
b11111101011101001010101011010110 4
b11111101011101001010101011010110 7
b11111010011100101010111111010010111111010111010010101010110101100000111100001110000011010000110000001011000010100000100100001000000001110000011000000101000001000000001100000010000000010000000000001111000011100000110100001100000010110000101000001001000010000000011100000110000001010000010000000011000000100000000100000000 9
b100 <
b11010110 J
#340000
0!
0,
#350000
1!
b1111 +
1,
b1 0
b1110 1
b1010 2
b10 5
#360000
0!
0,
#370000
1!
b10000 +
1,
b1110 0
b1 1
b10 3
b1111110101110100101010101101011011111010011100101010111111010010 4
b11111010011100101010111111010010 7
b1111000101111000101001101101101011111010011100101010111111010010111111010111010010101010110101100000111100001110000011010000110000001011000010100000100100001000000001110000011000000101000001000000001100000010000000010000000000001111000011100000110100001100000010110000101000001001000010000000011100000110000001010000010000000011000000100000000100000000 9
b100 <
b10110101 E
b11010010 J
b10110101 K
#380000
0!
0,
#390000
1!
1,
b1 0
b1110 1
b1011 2
b11 5
#400000
0!
0,
#410000
1!
1,
b1110 0
b1 1
b11 3
b111111010111010010101010110101101111101001110010101011111101001011110001011110001010011011011010 4
b11110001011110001010011011011010 7
b111111100111011010101011110101101111000101111000101001101101101011111010011100101010111111010010111111010111010010101010110101100000111100001110000011010000110000001011000010100000100100001000000001110000011000000101000001000000001100000010000000010000000000001111000011100000110100001100000010110000101000001001000010000000011100000110000001010000010000000011000000100000000100000000 9
b100 <
b1010111 E
b11011010 J
b1010111 K
#420000
0!
0,
#430000
1!
1,
b1 0
b101 1
b1100 2
b100 5
#440000
0!
0,
#450000
1!
1,
b101 0
b11111110011101101010101111010110 7
b100 <
b11110110 E
b11010110 J
b11110110 K
#460000
0!
0,
#470000
1!
1,
b1 6
b11111110011101101010101111110110 7
b1100010 E
b10101011 J
b1100010 K
#480000
0!
0,
#490000
1!
1,
b10 6
b11111110011101100110001011110110 7
b111000 E
b1110110 J
b111000 K
#500000
0!
0,
#510000
1!
1,
b1110 1
b11 6
b11111110001110000110001011110110 7
b10111011 E
b11111110 J
b10111011 K
#520000
0!
0,
#530000
1!
1,
b1110 0
b1 1
b100 3
b11111101011101001010101011010110111110100111001010101111110100101111000101111000101001101101101010111011001110000110001011110110 4
b0 6
b10111011001110000110001011110110 7
b10111000001110100110001111110110111111100111011010101011110101101111000101111000101001101101101011111010011100101010111111010010111111010111010010101010110101100000111100001110000011010000110000001011000010100000100100001000000001110000011000000101000001000000001100000010000000010000000000001111000011100000110100001100000010110000101000001001000010000000011100000110000001010000010000000011000000100000000100000000 9
b100 <
b1000010 E
b11110110 J
b1000010 K
#540000
0!
0,
#550000
1!
1,
b1 0
b1110 1
b1101 2
b101 5
#560000
0!
0,
#570000
1!
1,
b1110 0
b1 1
b0 3
b0 4
b10111000001110100110001111110110 7
b1011111100111100011001101111001010111000001110100110001111110110111111100111011010101011110101101111000101111000101001101101101011111010011100101010111111010010111111010111010010101010110101100000111100001110000011010000110000001011000010100000100100001000000001110000011000000101000001000000001100000010000000010000000000001111000011100000110100001100000010110000101000001001000010000000011100000110000001010000010000000011000000100000000100000000 9
b100 <
b11110110 J
#580000
0!
0,
#590000
1!
1,
b1 0
b1110 1
b1110 2
b110 5
#600000
0!
0,
#610000
1!
1,
b1110 0
b1 1
b1 3
b10111111001111000110011011110010 4
b10111111001111000110011011110010 7
b101101000011011001101111111110101011111100111100011001101111001010111000001110100110001111110110111111100111011010101011110101101111000101111000101001101101101011111010011100101010111111010010111111010111010010101010110101100000111100001110000011010000110000001011000010100000100100001000000001110000011000000101000001000000001100000010000000010000000000001111000011100000110100001100000010110000101000001001000010000000011100000110000001010000010000000011000000100000000100000000 9
b100 <
b10001001 E
b11110010 J
b10001001 K
#620000
0!
0,
#630000
1!
1,
b1 0
b1110 1
b1111 2
b111 5
#640000
0!
0,
#650000
1!
1,
b1110 0
b1 1
b10 3
b1011111100111100011001101111001010110100001101100110111111111010 4
b10110100001101100110111111111010 7
b10111011001110000110001011110110101101000011011001101111111110101011111100111100011001101111001010111000001110100110001111110110111111100111011010101011110101101111000101111000101001101101101011111010011100101010111111010010111111010111010010101010110101100000111100001110000011010000110000001011000010100000100100001000000001110000011000000101000001000000001100000010000000010000000000001111000011100000110100001100000010110000101000001001000010000000011100000110000001010000010000000011000000100000000100000000 9
b100 <
b101101 E
b11111010 J
b101101 K
#660000
0!
0,
#670000
1!
1,
b1 0
b10 1
b10000 2
b0 5
#680000
0!
0,
#690000
1!
1,
b10 0
b100 1
b10111011001110000110001011110110 7
b100 <
b1000010 E
b11110110 J
b1000010 K
#700000
0!
0,
#710000
1!
1,
b100 0
b11 1
b10111011001110000110001011110110 A
1C
1G
b10111011001110000110001011110110 H
#720000
0!
0,
#730000
1!
1,
b11 0
b101 1
b11110110101110110011100001100010 B
0C
0G
b11110110101110110011100001100010 I
#740000
0!
0,
#750000
1!
1,
b101 0
b11110110101110110011100001100010 7
b10101010 E
b1100010 J
b10101010 K
#760000
0!
0,
#770000
1!
1,
b1 6
b11110110101110110011100010101010 7
b111 E
b111000 J
b111 K
#780000
0!
0,
#790000
1!
1,
b10 6
b11110110101110110000011110101010 7
b11101010 E
b10111011 J
b11101010 K
#800000
0!
0,
#810000
1!
1,
b110 1
b11 6
b11110110111010100000011110101010 7
b1000010 E
b11110110 J
b1000010 K
#820000
0!
0,
#830000
1!
1,
b110 0
b1110 1
b0 6
b1000010111010100000011110101010 7
b10101100 E
b10101010 J
b10101100 K
#840000
0!
0,
#850000
1!
1,
b1110 0
b1 1
b11 3
b101111110011110001100110111100101011010000110110011011111111101001000010111010100000011110101000 4
b1000010111010100000011110101000 7
b1011111110011110101011010111111010111011001110000110001011110110101101000011011001101111111110101011111100111100011001101111001010111000001110100110001111110110111111100111011010101011110101101111000101111000101001101101101011111010011100101010111111010010111111010111010010101010110101100000111100001110000011010000110000001011000010100000100100001000000001110000011000000101000001000000001100000010000000010000000000001111000011100000110100001100000010110000101000001001000010000000011100000110000001010000010000000011000000100000000100000000 9
b100 <
b11000010 E
b10101000 J
b11000010 K
#860000
0!
0,
#870000
1!
1,
b1 0
b1110 1
b10001 2
b1 5
#880000
0!
0,
#890000
1!
1,
b1110 0
b1 1
b100 3
b10111111001111000110011011110010101101000011011001101111111110100100001011101010000001111010100010111111100111101010110101111110 4
b10111111100111101010110101111110 7
b10001011110110000000010101011001011111110011110101011010111111010111011001110000110001011110110101101000011011001101111111110101011111100111100011001101111001010111000001110100110001111110110111111100111011010101011110101101111000101111000101001101101101011111010011100101010111111010010111111010111010010101010110101100000111100001110000011010000110000001011000010100000100100001000000001110000011000000101000001000000001100000010000000010000000000001111000011100000110100001100000010110000101000001001000010000000011100000110000001010000010000000011000000100000000100000000 9
b100 <
b11110011 E
b1111110 J
b11110011 K
#900000
0!
0,
#910000
1!
1,
b1 0
b1110 1
b10010 2
b10 5
#920000
0!
0,
#930000
1!
1,
b1110 0
b1 1
b0 3
b0 4
b1000101111011000000001010101100 7
b10110100100101001010010001110110010001011110110000000010101011001011111110011110101011010111111010111011001110000110001011110110101101000011011001101111111110101011111100111100011001101111001010111000001110100110001111110110111111100111011010101011110101101111000101111000101001101101101011111010011100101010111111010010111111010111010010101010110101100000111100001110000011010000110000001011000010100000100100001000000001110000011000000101000001000000001100000010000000010000000000001111000011100000110100001100000010110000101000001001000010000000011100000110000001010000010000000011000000100000000100000000 9
b100 <
b10010001 E
b10101100 J
b10010001 K
#940000
0!
0,
#950000
1!
1,
b1 0
b1110 1
b10011 2
b11 5
#960000
0!
0,
#970000
1!
1,
b1110 0
b1 1
b1 3
b10110100100101001010010001110110 4
b10110100100101001010010001110110 7
b100101011100010000011111010000010110100100101001010010001110110010001011110110000000010101011001011111110011110101011010111111010111011001110000110001011110110101101000011011001101111111110101011111100111100011001101111001010111000001110100110001111110110111111100111011010101011110101101111000101111000101001101101101011111010011100101010111111010010111111010111010010101010110101100000111100001110000011010000110000001011000010100000100100001000000001110000011000000101000001000000001100000010000000010000000000001111000011100000110100001100000010110000101000001001000010000000011100000110000001010000010000000011000000100000000100000000 9
b100 <
b111000 E
b1110110 J
b111000 K
#980000
0!
0,
#990000
1!
1,
b1 0
b101 1
b10100 2
b100 5
#1000000
0!
0,
#1010000
1!
1,
b101 0
b1001010111000100000111110100000 7
b100 <
b11100000 E
b10100000 J
b11100000 K
#1020000
0!
0,
#1030000
1!
1,
b1 6
b1001010111000100000111111100000 7
b1110110 E
b1111 J
b1110110 K
#1040000
0!
0,
#1050000
1!
1,
b10 6
b1001010111000100111011011100000 7
b10011000 E
b11100010 J
b10011000 K
#1060000
0!
0,
#1070000
1!
1,
b1110 1
b11 6
b1001010100110000111011011100000 7
b11010110 E
b1001010 J
b11010110 K
#1080000
0!
0,
#1090000
1!
1,
b1110 0
b1 1
b10 3
b1011010010010100101001000111011011010110100110000111011011100000 4
b0 6
b11010110100110000111011011100000 7
b11011101010001000010101000101100100101011100010000011111010000010110100100101001010010001110110010001011110110000000010101011001011111110011110101011010111111010111011001110000110001011110110101101000011011001101111111110101011111100111100011001101111001010111000001110100110001111110110111111100111011010101011110101101111000101111000101001101101101011111010011100101010111111010010111111010111010010101010110101100000111100001110000011010000110000001011000010100000100100001000000001110000011000000101000001000000001100000010000000010000000000001111000011100000110100001100000010110000101000001001000010000000011100000110000001010000010000000011000000100000000100000000 9
b100 <
b11100001 E
b11100000 J
b11100001 K
#1100000
0!
0,
#1110000
1!
1,
b1 0
b1110 1
b10101 2
b101 5
#1120000
0!
0,
#1130000
1!
1,
b1110 0
b1 1
b11 3
b101101001001010010100100011101101101011010011000011101101110000001101110101000100001010100010110 4
b1101110101000100001010100010110 7
b11010001100111100111001111100100011011101010001000010101000101100100101011100010000011111010000010110100100101001010010001110110010001011110110000000010101011001011111110011110101011010111111010111011001110000110001011110110101101000011011001101111111110101011111100111100011001101111001010111000001110100110001111110110111111100111011010101011110101101111000101111000101001101101101011111010011100101010111111010010111111010111010010101010110101100000111100001110000011010000110000001011000010100000100100001000000001110000011000000101000001000000001100000010000000010000000000001111000011100000110100001100000010110000101000001001000010000000011100000110000001010000010000000011000000100000000100000000 9
b100 <
b1000111 E
b10110 J
b1000111 K
#1140000
0!
0,
#1150000
1!
1,
b1 0
b1110 1
b10110 2
b110 5
#1160000
0!
0,
#1170000
1!
1,
b1110 0
b1 1
b100 3
b10110100100101001010010001110110110101101001100001110110111000000110111010100010000101010001011011010001100111100111001111100100 4
b11010001100111100111001111100100 7
b110010110101000000111000001111011010001100111100111001111100100011011101010001000010101000101100100101011100010000011111010000010110100100101001010010001110110010001011110110000000010101011001011111110011110101011010111111010111011001110000110001011110110101101000011011001101111111110101011111100111100011001101111001010111000001110100110001111110110111111100111011010101011110101101111000101111000101001101101101011111010011100101010111111010010111111010111010010101010110101100000111100001110000011010000110000001011000010100000100100001000000001110000011000000101000001000000001100000010000000010000000000001111000011100000110100001100000010110000101000001001000010000000011100000110000001010000010000000011000000100000000100000000 9
b100 <
b1101001 E
b11100100 J
b1101001 K
#1180000
0!
0,
#1190000
1!
1,
b1 0
b1110 1
b10111 2
b111 5
#1200000
0!
0,
#1210000
1!
1,
b1110 0
b1 1
b0 3
b0 4
b1100101101010000001110000011110 7
b110111101001000001111110111010000110010110101000000111000001111011010001100111100111001111100100011011101010001000010101000101100100101011100010000011111010000010110100100101001010010001110110010001011110110000000010101011001011111110011110101011010111111010111011001110000110001011110110101101000011011001101111111110101011111100111100011001101111001010111000001110100110001111110110111111100111011010101011110101101111000101111000101001101101101011111010011100101010111111010010111111010111010010101010110101100000111100001110000011010000110000001011000010100000100100001000000001110000011000000101000001000000001100000010000000010000000000001111000011100000110100001100000010110000101000001001000010000000011100000110000001010000010000000011000000100000000100000000 9
b100 <
b1110010 E
b11110 J
b1110010 K
#1220000
0!
0,
#1230000
1!
1,
b1 0
b10 1
b11000 2
b0 5
#1240000
0!
0,
#1250000
1!
1,
b10 0
b100 1
b11011110100100000111111011101000 7
b100 <
b10011011 E
b11101000 J
b10011011 K
#1260000
0!
0,
#1270000
1!
1,
b100 0
b11 1
b11011110100100000111111011101000 A
1C
1G
b11011110100100000111111011101000 H
#1280000
0!
0,
#1290000
1!
1,
b11 0
b101 1
b11101000110111101001000001111110 B
0C
0G
b11101000110111101001000001111110 I
#1300000
0!
0,
#1310000
1!
1,
b101 0
b11101000110111101001000001111110 7
b11110011 E
b1111110 J
b11110011 K
#1320000
0!
0,
#1330000
1!
1,
b1 6
b11101000110111101001000011110011 7
b1100000 E
b10010000 J
b1100000 K
#1340000
0!
0,
#1350000
1!
1,
b10 6
b11101000110111100110000011110011 7
b11101 E
b11011110 J
b11101 K
#1360000
0!
0,
#1370000
1!
1,
b110 1
b11 6
b11101000000111010110000011110011 7
b10011011 E
b11101000 J
b10011011 K
#1380000
0!
0,
#1390000
1!
1,
b110 0
b1110 1
b0 6
b10011011000111010110000011110011 7
b1101 E
b11110011 J
b1101 K
#1400000
0!
0,
#1410000
1!
1,
b1110 0
b1 1
b1 3
b10011011000111010110000011110111 4
b10011011000111010110000011110111 7
b100100100000111100110110001001110111101001000001111110111010000110010110101000000111000001111011010001100111100111001111100100011011101010001000010101000101100100101011100010000011111010000010110100100101001010010001110110010001011110110000000010101011001011111110011110101011010111111010111011001110000110001011110110101101000011011001101111111110101011111100111100011001101111001010111000001110100110001111110110111111100111011010101011110101101111000101111000101001101101101011111010011100101010111111010010111111010111010010101010110101100000111100001110000011010000110000001011000010100000100100001000000001110000011000000101000001000000001100000010000000010000000000001111000011100000110100001100000010110000101000001001000010000000011100000110000001010000010000000011000000100000000100000000 9
b100 <
b1101000 E
b11110111 J
b1101000 K
#1420000
0!
0,
#1430000
1!
1,
b1 0
b1110 1
b11001 2
b1 5
#1440000
0!
0,
#1450000
1!
1,
b1110 0
b1 1
b10 3
b1001101100011101011000001111011100100100100000111100110110001001 4
b100100100000111100110110001001 7
b110000101101111110011110010010100100100100000111100110110001001110111101001000001111110111010000110010110101000000111000001111011010001100111100111001111100100011011101010001000010101000101100100101011100010000011111010000010110100100101001010010001110110010001011110110000000010101011001011111110011110101011010111111010111011001110000110001011110110101101000011011001101111111110101011111100111100011001101111001010111000001110100110001111110110111111100111011010101011110101101111000101111000101001101101101011111010011100101010111111010010111111010111010010101010110101100000111100001110000011010000110000001011000010100000100100001000000001110000011000000101000001000000001100000010000000010000000000001111000011100000110100001100000010110000101000001001000010000000011100000110000001010000010000000011000000100000000100000000 9
b100 <
b10100111 E
b10001001 J
b10100111 K
#1460000
0!
0,
#1470000
1!
1,
b1 0
b1110 1
b11010 2
b10 5
#1480000
0!
0,
#1490000
1!
1,
b1110 0
b1 1
b11 3
b100110110001110101100000111101110010010010000011110011011000100101100001011011111100111100100101 4
b1100001011011111100111100100101 7
b110101011111101101101011010100110110000101101111110011110010010100100100100000111100110110001001110111101001000001111110111010000110010110101000000111000001111011010001100111100111001111100100011011101010001000010101000101100100101011100010000011111010000010110100100101001010010001110110010001011110110000000010101011001011111110011110101011010111111010111011001110000110001011110110101101000011011001101111111110101011111100111100011001101111001010111000001110100110001111110110111111100111011010101011110101101111000101111000101001101101101011111010011100101010111111010010111111010111010010101010110101100000111100001110000011010000110000001011000010100000100100001000000001110000011000000101000001000000001100000010000000010000000000001111000011100000110100001100000010110000101000001001000010000000011100000110000001010000010000000011000000100000000100000000 9
b100 <
b111111 E
b100101 J
b111111 K
#1500000
0!
0,
#1510000
1!
1,
b1 0
b1110 1
b11011 2
b11 5
#1520000
0!
0,
#1530000
1!
1,
b1110 0
b1 1
b100 3
b10011011000111010110000011110111001001001000001111001101100010010110000101101111110011110010010111010101111110110110101101010011 4
b11010101111110110110101101010011 7
b10011111000110010110010011110011110101011111101101101011010100110110000101101111110011110010010100100100100000111100110110001001110111101001000001111110111010000110010110101000000111000001111011010001100111100111001111100100011011101010001000010101000101100100101011100010000011111010000010110100100101001010010001110110010001011110110000000010101011001011111110011110101011010111111010111011001110000110001011110110101101000011011001101111111110101011111100111100011001101111001010111000001110100110001111110110111111100111011010101011110101101111000101111000101001101101101011111010011100101010111111010010111111010111010010101010110101100000111100001110000011010000110000001011000010100000100100001000000001110000011000000101000001000000001100000010000000010000000000001111000011100000110100001100000010110000101000001001000010000000011100000110000001010000010000000011000000100000000100000000 9
b100 <
b11101101 E
b1010011 J
b11101101 K
#1540000
0!
0,
#1550000
1!
1,
b1 0
b101 1
b11100 2
b100 5
#1560000
0!
0,
#1570000
1!
1,
b101 0
b10011111000110010110010011110011 7
b100 <
b1101 E
b11110011 J
b1101 K
#1580000
0!
0,
#1590000
1!
1,
b1 6
b10011111000110010110010000001101 7
b1000011 E
b1100100 J
b1000011 K
#1600000
0!
0,
#1610000
1!
1,
b10 6
b10011111000110010100001100001101 7
b11010100 E
b11001 J
b11010100 K
#1620000
0!
0,
#1630000
1!
1,
b1110 1
b11 6
b10011111110101000100001100001101 7
b11011011 E
b10011111 J
b11011011 K
#1640000
0!
0,
#1650000
1!
1,
b1110 0
b1 1
b0 3
b0 4
b0 6
b11011011110101000100001100001101 7
b1011010101110110010101100001101110011111000110010110010011110011110101011111101101101011010100110110000101101111110011110010010100100100100000111100110110001001110111101001000001111110111010000110010110101000000111000001111011010001100111100111001111100100011011101010001000010101000101100100101011100010000011111010000010110100100101001010010001110110010001011110110000000010101011001011111110011110101011010111111010111011001110000110001011110110101101000011011001101111111110101011111100111100011001101111001010111000001110100110001111110110111111100111011010101011110101101111000101111000101001101101101011111010011100101010111111010010111111010111010010101010110101100000111100001110000011010000110000001011000010100000100100001000000001110000011000000101000001000000001100000010000000010000000000001111000011100000110100001100000010110000101000001001000010000000011100000110000001010000010000000011000000100000000100000000 9
b100 <
b11010111 E
b1101 J
b11010111 K
#1660000
0!
0,
#1670000
1!
1,
b1 0
b1110 1
b11101 2
b101 5
#1680000
0!
0,
#1690000
1!
1,
b1110 0
b1 1
b1 3
b10110101011101100101011000011011 4
b10110101011101100101011000011011 7
b11001001110100000100101111111111011010101110110010101100001101110011111000110010110010011110011110101011111101101101011010100110110000101101111110011110010010100100100100000111100110110001001110111101001000001111110111010000110010110101000000111000001111011010001100111100111001111100100011011101010001000010101000101100100101011100010000011111010000010110100100101001010010001110110010001011110110000000010101011001011111110011110101011010111111010111011001110000110001011110110101101000011011001101111111110101011111100111100011001101111001010111000001110100110001111110110111111100111011010101011110101101111000101111000101001101101101011111010011100101010111111010010111111010111010010101010110101100000111100001110000011010000110000001011000010100000100100001000000001110000011000000101000001000000001100000010000000010000000000001111000011100000110100001100000010110000101000001001000010000000011100000110000001010000010000000011000000100000000100000000 9
b100 <
b10101111 E
b11011 J
b10101111 K
#1700000
0!
0,
#1710000
1!
1,
b1 0
b1110 1
b11110 2
b110 5
#1720000
0!
0,
#1730000
1!
1,
b1110 0
b1 1
b10 3
b1011010101110110010101100001101101100100111010000010010111111111 4
b1100100111010000010010111111111 7
b1010000000011100111100001011001001110100000100101111111111011010101110110010101100001101110011111000110010110010011110011110101011111101101101011010100110110000101101111110011110010010100100100100000111100110110001001110111101001000001111110111010000110010110101000000111000001111011010001100111100111001111100100011011101010001000010101000101100100101011100010000011111010000010110100100101001010010001110110010001011110110000000010101011001011111110011110101011010111111010111011001110000110001011110110101101000011011001101111111110101011111100111100011001101111001010111000001110100110001111110110111111100111011010101011110101101111000101111000101001101101101011111010011100101010111111010010111111010111010010101010110101100000111100001110000011010000110000001011000010100000100100001000000001110000011000000101000001000000001100000010000000010000000000001111000011100000110100001100000010110000101000001001000010000000011100000110000001010000010000000011000000100000000100000000 9
b100 <
b10110 E
b11111111 J
b10110 K
#1740000
0!
0,
#1750000
1!
1,
b1 0
b1110 1
b11111 2
b111 5
#1760000
0!
0,
#1770000
1!
1,
b1110 0
b1 1
b11 3
b101101010111011001010110000110110110010011101000001001011111111100000001010000000011100111100001 4
b1010000000011100111100001 7
b1101111111010000010001110000100100000001010000000011100111100001011001001110100000100101111111111011010101110110010101100001101110011111000110010110010011110011110101011111101101101011010100110110000101101111110011110010010100100100100000111100110110001001110111101001000001111110111010000110010110101000000111000001111011010001100111100111001111100100011011101010001000010101000101100100101011100010000011111010000010110100100101001010010001110110010001011110110000000010101011001011111110011110101011010111111010111011001110000110001011110110101101000011011001101111111110101011111100111100011001101111001010111000001110100110001111110110111111100111011010101011110101101111000101111000101001101101101011111010011100101010111111010010111111010111010010101010110101100000111100001110000011010000110000001011000010100000100100001000000001110000011000000101000001000000001100000010000000010000000000001111000011100000110100001100000010110000101000001001000010000000011100000110000001010000010000000011000000100000000100000000 9
b100 <
b11111000 E
b11100001 J
b11111000 K
#1780000
0!
0,
#1790000
1!
1,
b1 0
b10 1
b100000 2
b0 5
#1800000
0!
0,
#1810000
1!
1,
b10 0
b100 1
b11011111110100000100011100001001 7
b100 <
b1 E
b1001 J
b1 K
#1820000
0!
0,
#1830000
1!
1,
b100 0
b11 1
b11011111110100000100011100001001 A
1C
1G
b11011111110100000100011100001001 H
#1840000
0!
0,
#1850000
1!
1,
b11 0
b101 1
b1001110111111101000001000111 B
0C
0G
b1001110111111101000001000111 I
#1860000
0!
0,
#1870000
1!
1,
b101 0
b1001110111111101000001000111 7
b10100000 E
b1000111 J
b10100000 K
#1880000
0!
0,
#1890000
1!
1,
b1 6
b1001110111111101000010100000 7
b1110000 E
b11010000 J
b1110000 K
#1900000
0!
0,
#1910000
1!
1,
b10 6
b1001110111110111000010100000 7
b10011110 E
b11011111 J
b10011110 K
#1920000
0!
0,
#1930000
1!
1,
b110 1
b11 6
b1001100111100111000010100000 7
b1 E
b1001 J
b1 K
#1940000
0!
0,
#1950000
1!
1,
b110 0
b1110 1
b0 6
b1100111100111000010100000 7
b11100000 E
b10100000 J
b11100000 K
#1960000
0!
0,
#1970000
1!
1,
b1110 0
b1 1
b100 3
b10110101011101100101011000011011011001001110100000100101111111110000000101000000001110011110000100000001100111100111000010101000 4
b1100111100111000010101000 7
b1001010001110110111101001000011101111111010000010001110000100100000001010000000011100111100001011001001110100000100101111111111011010101110110010101100001101110011111000110010110010011110011110101011111101101101011010100110110000101101111110011110010010100100100100000111100110110001001110111101001000001111110111010000110010110101000000111000001111011010001100111100111001111100100011011101010001000010101000101100100101011100010000011111010000010110100100101001010010001110110010001011110110000000010101011001011111110011110101011010111111010111011001110000110001011110110101101000011011001101111111110101011111100111100011001101111001010111000001110100110001111110110111111100111011010101011110101101111000101111000101001101101101011111010011100101010111111010010111111010111010010101010110101100000111100001110000011010000110000001011000010100000100100001000000001110000011000000101000001000000001100000010000000010000000000001111000011100000110100001100000010110000101000001001000010000000011100000110000001010000010000000011000000100000000100000000 9
b100 <
b11000010 E
b10101000 J
b11000010 K
#1980000
0!
0,
#1990000
1!
1,
b1 0
b1110 1
b100001 2
b1 5
#2000000
0!
0,
#2010000
1!
1,
b1110 0
b1 1
b0 3
b0 4
b100101000111011011110100100001 7
b1000100011100100111001000000100001001010001110110111101001000011101111111010000010001110000100100000001010000000011100111100001011001001110100000100101111111111011010101110110010101100001101110011111000110010110010011110011110101011111101101101011010100110110000101101111110011110010010100100100100000111100110110001001110111101001000001111110111010000110010110101000000111000001111011010001100111100111001111100100011011101010001000010101000101100100101011100010000011111010000010110100100101001010010001110110010001011110110000000010101011001011111110011110101011010111111010111011001110000110001011110110101101000011011001101111111110101011111100111100011001101111001010111000001110100110001111110110111111100111011010101011110101101111000101111000101001101101101011111010011100101010111111010010111111010111010010101010110101100000111100001110000011010000110000001011000010100000100100001000000001110000011000000101000001000000001100000010000000010000000000001111000011100000110100001100000010110000101000001001000010000000011100000110000001010000010000000011000000100000000100000000 9
b100 <
b11111101 E
b100001 J
b11111101 K
#2020000
0!
0,
#2030000
1!
1,
b1 0
b1110 1
b100010 2
b10 5
#2040000
0!
0,
