Vivado_projects/AES256_encrypter/AES256_encrypter.sim/sim_1/behav/xsim/wv_AES256_enc.vcd
$date
   Sat Dec 11 00:02:25 2021
$end
$version
  2020.2
$end
$timescale
  1ps
$end
$scope module tb_AES256_enc $end
$var reg 1 ! clk $end
$var reg 1 " resetn $end
$var reg 1 # ctrl_dataIn_enc $end
$var reg 128 $ enc_dataIn [127:0] $end
$var reg 128 % enc_key [127:0] $end
$var wire 1 & ctrl_dataOut_enc $end
$var wire 128 ' enc_dataOut [127:0] $end
$var integer 32 ( index $end
$var integer 32 ) i $end
$scope module DUT $end
$var wire 1 * clk $end
$var wire 1 + resetn $end
$var wire 1 , ctrl_dataIn_enc $end
$var wire 128 - enc_dataIn [127:0] $end
$var wire 128 . enc_key [127:0] $end
$var reg 1 / ctrl_dataOut_enc $end
$var reg 128 0 enc_dataOut [127:0] $end
$var reg 128 1 auxData [15:0] $end
$var integer 32 2 i $end
$var integer 32 3 index $end
$var reg 4 4 aes_st [3:0] $end
$var reg 4 5 aes_st_next [3:0] $end
$var reg 4 6 round [3:0] $end
$var reg 1 7 end_st_reg $end
$var wire 128 8 dataOut_reg416 [15:0] $end
$var wire 1 9 reg416_empty $end
$var wire 1 : reg416_full $end
$var reg 1 ; mux_chgInp $end
$var wire 8 < dataOut_ROM [7:0] $end
$var reg 5 = rom_cnt [4:0] $end
$var reg 1 > req_rom $end
$var reg 1 ? shf_reg $end
$var wire 128 @ dataOut_shifter [15:0] $end
$var reg 1 A wr_shf $end
$var reg 1 B wr_shf_delay $end
$var reg 1 C outp_en_shf $end
$var reg 1 D outp_en_shf_delay $end
$var wire 128 E dataOut_mixColumns [15:0] $end
$var reg 1 F wr_mC $end
$var reg 1 G wr_mC_delay $end
$var wire 128 H dataOut_reg16_2 [15:0] $end
$var wire 128 I dataOut_demux_1 [15:0] $end
$var reg 2 J reg162_cnt [1:0] $end
$var reg 1 K wr_reg162 $end
$var reg 1 L wr_reg162_delay $end
$var wire 128 M dataIn_addRK [15:0] $end
$var reg 128 N dataOut_addRK [15:0] $end
$var wire 8 O dataOut_reg163 [7:0] $end
$var reg 1 P wr_reg163 $end
$var wire 128 Q key [127:0] $end
$scope module mux $end
$var wire 1 R addr $end
$var wire 128 S inp0 [15:0] $end
$var wire 128 H inp1 [15:0] $end
$var reg 128 T aux [15:0] $end
$var reg 128 U outp [15:0] $end
$upscope $end
$scope module addRK $end
$var wire 1 * clk $end
$var wire 1 + resetn $end
$var wire 128 Q inp_key_addRK [127:0] $end
$var wire 128 M inp_addRK [15:0] $end
$var reg 128 N outp_addRK [15:0] $end
$var integer 32 V index $end
$var integer 32 W row $end
$upscope $end
$scope module rom_key $end
$var wire 1 * clk $end
$var wire 1 + resetn $end
$var wire 4 X addr_romKey [3:0] $end
$var reg 128 Y outp_romKey [127:0] $end
$upscope $end
$scope module reg16_3 $end
$var integer 32 Z index $end
$var wire 1 * clk $end
$var wire 1 + resetn $end
$var wire 1 [ wr_en $end
$var wire 1 \ req_rom $end
$var wire 128 ] inp_reg163 [15:0] $end
$var reg 128 ^ aux [15:0] $end
$var reg 4 _ n_read [3:0] $end
$var reg 4 ` n_read_delay [3:0] $end
$var reg 8 a outp_reg163 [7:0] $end
$upscope $end
$scope module rom_Sbox $end
$var wire 1 * clk $end
$var wire 1 + resetn $end
$var wire 8 O addr_romSbox [7:0] $end
$var reg 8 b outp_romSbox [7:0] $end
$upscope $end
$scope module shifter $end
$var wire 1 * clk $end
$var wire 1 + resetn $end
$var wire 1 c wr_en $end
$var wire 8 < inp_shf [7:0] $end
$var wire 1 d outp_en $end
$var reg 128 e aux [15:0] $end
$var reg 4 f counter [3:0] $end
$var wire 128 @ outp_shf [15:0] $end
$var integer 32 g index $end
$upscope $end
$scope module mixColumns $end
$var wire 1 * clk $end
$var wire 1 + resetn $end
$var wire 128 @ inp_mC [15:0] $end
$var wire 1 h wr_en $end
$var reg 32 i row [3:0] $end
$var reg 128 j temp [15:0] $end
$var reg 128 k auxIn [15:0] $end
$var reg 128 l outp_mC [15:0] $end
$var integer 32 m index $end
$var integer 32 n rowNum $end
$scope function mix_columns $end
$var reg 128 o mix_columns [15:0] $end
$var reg 128 p inp_mC [15:0] $end
$upscope $end
$scope function xtime $end
$var reg 8 q xtime [7:0] $end
$var reg 8 r num [7:0] $end
$upscope $end
$upscope $end
$scope module reg16_2 $end
$var integer 32 s index $end
$var wire 1 * clk $end
$var wire 1 + resetn $end
$var wire 1 t wr_en $end
$var wire 4 u round [3:0] $end
$var wire 128 E inp_reg162_mC [15:0] $end
$var wire 128 @ inp_reg162_shf [15:0] $end
$var reg 128 v aux [15:0] $end
$var reg 128 w outp_reg162 [15:0] $end
$upscope $end
$upscope $end
$scope task enableResetn $end
$upscope $end
$scope task test_AES_encryption $end
$upscope $end
$upscope $end
$enddefinitions $end
#0
$dumpvars
0!
x"
x#
bx $
bx %
x&
bx '
bx (
b0 )
0*
x+
x,
bx -
bx .
x/
bx 0
bx 1
bx 2
bx 3
bx 4
bx 5
bx 6
x7
bz 8
z9
z:
x;
bx <
bx =
x>
x?
bx @
xA
xB
xC
xD
bx E
xF
xG
bx H
bz I
bx J
xK
xL
bx M
bx N
bx O
xP
bx Q
xR
bx S
bx T
bx U
bx V
bx W
bx X
bx Y
bx Z
x[
x\
bx ]
bx ^
bx _
bx `
bx a
bx b
xc
xd
bx e
bx f
bx g
xh
bx i
bx j
bx k
bx l
bx m
bx n
bx o
bx p
b0 q
bx r
bx s
xt
bx u
bx v
bx w
$end
#10000
1!
0&
1*
0/
07
b0 =
0>
0C
0F
0K
0P
b10000 V
bx W
0[
0\
0c
0d
0h
0t
#11000
0"
bx0000000000000000 '
0+
bx0000000000000000 0
b10000 2
b0 4
b0 5
b0 6
0;
b1100011 <
0?
b0 @
0A
b0 E
b0 H
b0 N
b0 O
b1111000011100000110100001100000010110000101000001001000010000000011100000110000001010000010000000011000000100000000100000000 Q
0R
bx U
b0 W
b0 X
b1111000011100000110100001100000010110000101000001001000010000000011100000110000001010000010000000011000000100000000100000000 Y
b0 ]
b0 ^
b0 _
b0 `
b0 a
b1100011 b
b0 e
b0 f
b0 k
b0 l
b0 u
b0 v
b0 w
#20000
0!
0*
#30000
1!
1*
b10000 2
#31000
1"
1+
#40000
0!
0*
#50000
1!
1#
1*
1,
b100 3
b1 5
bx N
b10000 V
b1 W
bx ]
#60000
0!
0*
#70000
1!
b100000000000000000000000000000000110000000000000000000000000000001000000000000000000000000000000001000000000000000000000000 $
1*
b100000000000000000000000000000000110000000000000000000000000000001000000000000000000000000000000001000000000000000000000000 -
b100000000000000000000000000000000110000000000000000000000000000001000000000000000000000000000000001000000000000000000000000 1
b100 3
b1 4
b10 5
b100000000000000000000000000000000110000000000000000000000000000001000000000000000000000000000000001000000000000000000000000 M
b100000000000000000000000000000000110000000000000000000000000000001000000000000000000000000000000001000000000000000000000000 S
b100000000000000000000000000000000110000000000000000000000000000001000000000000000000000000000000001000000000000000000000000 U
b10000 V
b10 W
#80000
0!
0*
#90000
1!
1*
b100 3
b10 4
b11 5
b1011000011100000110100001100000010000000101000001001000010000000010100000110000001010000010000000010000000100000000100000000 N
b10000 V
b11 W
b1011000011100000110100001100000010000000101000001001000010000000010100000110000001010000010000000010000000100000000100000000 ]
#100000
0!
0*
#110000
1!
1*
b100 3
b11 4
1A
1P
b10000 V
b100 W
1[
#120000
0!
0*
#130000
1!
1*
b100 3
b1 =
1>
0P
b10000 V
b101 W
0[
1\
b1011000011100000110100001100000010000000101000001001000010000000010100000110000001010000010000000010000000100000000100000000 ^
b0 a
1c
#140000
0!
0*
#150000
1!
1*
b100 3
b1111100 <
b10 =
1?
b1100011000000000000000000000000000000000000000000000000000000000000000000000000000000000000000000000000 @
b1 O
b10000 V
b110 W
b1 _
b1 a
b1111100 b
b1100011000000000000000000000000000000000000000000000000000000000000000000000000000000000000000000000000000000000000000000000000 e
b1 f
b0 g
#160000
0!
0*
#170000
1!
1*
b100 3
b1110111 <
b11 =
b1100011000000000000000001111100000000000000000000000000000000000000000000000000000000000000000000000000000000000000000000000000 @
b10 O
b10000 V
b111 W
b10 _
b1 `
b10 a
b1110111 b
b1111100011000110000000000000000000000000000000000000000000000000000000000000000000000000000000000000000000000000000000000000000 e
b10 f
b0 g
#180000
0!
0*
#190000
1!
1*
b100 3
b100 =
b1111100011000110000000001110111000000000000000000000000000000000000000000000000000000000000000000000000000000000000000000000000 @
b10000 V
b1000 W
b11 _
b10 `
b10 a
b1110111011111000110001100000000000000000000000000000000000000000000000000000000000000000000000000000000000000000000000000000000 e
b11 f
b0 g
#200000
0!
0*
#210000
1!
1*
b100 3
b11110010 <
b101 =
b1110111011111000110001101110111000000000000000000000000000000000000000000000000000000000000000000000000000000000000000000000000 @
b100 O
b10000 V
b1001 W
b100 _
b11 `
b100 a
b11110010 b
b1110111011101110111110001100011000000000000000000000000000000000000000000000000000000000000000000000000000000000000000000000000 e
b100 f
b0 g
#220000
0!
0*
#230000
1!
1*
b100 3
b1101011 <
b110 =
b1110111011101110111110011110010000000000000000001100011000000000000000000000000000000000000000000000000000000000000000000000000 @
b101 O
b10000 V
b1010 W
b101 _
b100 `
b101 a
b1101011 b
b11110010011101110111011101111100011000110000000000000000000000000000000000000000000000000000000000000000000000000000000000000000 e
b101 f
b0 g
#240000
0!
0*
#250000
1!
1*
b100 3
b1101111 <
b111 =
b11110010011101110111011101101011000000000000000001111100011000110000000000000000000000000000000000000000000000000000000000000000 @
b110 O
b10000 V
b1011 W
b110 _
b101 `
b110 a
b1101111 b
b1101011111100100111011101110111011111000110001100000000000000000000000000000000000000000000000000000000000000000000000000000000 e
b110 f
b0 g
#260000
0!
0*
#270000
1!
1*
b100 3
b1101011 <
b1000 =
b1101011111100100111011101101111011000110000000001110111011111000000000000000000000000000000000000000000000000000000000000000000 @
b101 O
b10000 V
b1100 W
b111 _
b110 `
b101 a
b1101011 b
b1101111011010111111001001110111011101110111110001100011000000000000000000000000000000000000000000000000000000000000000000000000 e
b111 f
b0 g
#280000
0!
0*
#290000
1!
1*
b100 3
b110000 <
b1001 =
b1101111011010111111001001101011011111000110001101110111011101110000000000000000000000000000000000000000000000000000000000000000 @
b1000 O
b10000 V
b1101 W
b1000 _
b111 `
b1000 a
b110000 b
b1101011011011110110101111110010011101110111011101111100011000110000000000000000000000000000000000000000000000000000000000000000 e
b1000 f
b0 g
#300000
0!
0*
#310000
1!
1*
b100 3
b1 <
b1010 =
b1101011011011110110101100110000011101110111110011110010011101110000000001100011000000000000000000000000000000000000000000000000 @
b1001 O
b10000 V
b1110 W
b1001 _
b1000 `
b1001 a
b1 b
b110000011010110110111101101011111100100111011101110111011111000110001100000000000000000000000000000000000000000000000000000000 e
b1001 f
b0 g
#320000
0!
0*
#330000
1!
1*
b100 3
b1100111 <
b1011 =
b110000011010110110111100000001011101110111011101101011111100100000000001111100011000110000000000000000000000000000000000000000 @
b1010 O
b10000 V
b1111 W
b1010 _
b1001 `
b1010 a
b1100111 b
b1001100000110101101101111011010111111001001110111011101110111110001100011000000000000000000000000000000000000000000000000 e
b1010 f
b0 g
#340000
0!
0*
#350000
1!
1*
b100 3
b110000 <
b1100 =
b1001100000110101101100111111100100111011101101111011010110000000001110111011111000110001100000000000000000000000000000000 @
b1000 O
b10000 V
b10000 W
b1011 _
b1010 `
b1000 a
b110000 b
b1100111000000010011000001101011011011110110101111110010011101110111011101111100011000110000000000000000000000000000000000000000 e
b1011 f
b0 g
#360000
0!
0*
#370000
1!
1*
b100 3
b11111110 <
b1101 =
b1100111000000010011000000110000011010111111001001101011011011110110001101110111011101110111110000000000000000000000000000000000 @
b1100 O
b10000 V
b10001 W
b1100 _
b1011 `
b1100 a
b11111110 b
b110000011001110000000100110000011010110110111101101011111100100111011101110111011111000110001100000000000000000000000000000000 e
b1100 f
b0 g
#380000
0!
0*
#390000
1!
1*
b100 3
b11010111 <
b1110 =
b110000011001110000000111111110011011110110101100110000011010110111110011110010011101110111011101100011000000000000000000000000 @
b1101 O
b10000 V
b10010 W
b1101 _
b1100 `
b1101 a
b11010111 b
b11111110001100000110011100000001001100000110101101101111011010111111001001110111011101110111110001100011000000000000000000000000 e
b1101 f
b0 g
#400000
0!
0*
#410000
1!
1*
b100 3
b100 5
b10101011 <
b1111 =
b11111110001100000110011111010111011010110110111100000001001100000111011101101011111100100111011101111100011000110000000000000000 @
b1110 O
b10000 V
b10011 W
b1110 _
b1101 `
b1110 a
b10101011 b
b11010111111111100011000001100111000000010011000001101011011011110110101111110010011101110111011101111100011000110000000000000000 e
b1110 f
b0 g
#420000
0!
0*
#430000
1!
1*
b100 3
b100 4
b101 5
b101011 <
b10000 =
b11010111111111100011000010101011001100000110101101100111000000010111011101101111011010111111001001110111011111000110001100000000 @
b1011 O
b10000 V
b10100 W
b1111 _
b1110 `
b1011 a
b101011 b
b10101011110101111111111000110000011001110000000100110000011010110110111101101011111100100111011101110111011111000110001100000000 e
b1111 f
b0 g
#440000
0!
0*
#450000
1!
1*
b100 3
b101 4
b110 5
b1100011 <
b10001 =
0>
b10101011110101111111111000101011000000010011000000110000011001111111001001101011011011110110101101110111011101110111110001100011 @
0A
b0 O
b10000 V
b10101 W
0\
b0 _
b1111 `
b0 a
b1100011 b
0c
b101011101010111101011111111110001100000110011100000001001100000110101101101111011010111111001001110111011101110111110001100011 e
b0 f
b0 g
#460000
0!
0*
#470000
1!
1*
b100 3
b110 4
b111 5
b0 =
0?
1C
b10000 V
b10110 W
1d
#480000
0!
0*
#490000
1!
1*
b100 3
b111 4
b1100 5
0C
1F
b10000 V
b10111 W
0d
1h
#500000
0!
0*
#510000
1!
1*
b100 3
b1100 4
b1 5
b11001100001100000010100110011101010110011010001010110101011110100011011011111111110101111111001000000011010000111010101000010 E
0F
1K
b10000 V
b11000 W
0h
b10101011110101111111111000101011 i
b11001100001100000010100110011101010110011010001010110101011110100011011011111111110101111111001000000011010000111010101000010 j
b11001100001100000010100110011101010110011010001010110101011110100011011011111111110101111111001000000011010000111010101000010 k
b11001100001100000010100110011101010110011010001010110101011110100011011011111111110101111111001000000011010000111010101000010 l
b100 m
b100 n
b11001100001100000010100110011101010110011010001010110101011110100011011011111111110101111111001000000011010000111010101000010 o
b10101011110101111111111000101011000000010011000000110000011001111111001001101011011011110110101101110111011101110111110001100011 p
b1001101 q
b10101011 r
1t
#520000
0!
0*
#530000
1!
1*
b100 3
b1 4
b10 5
b1 6
b11001100001100000010100110011101010110011010001010110101011110100011011011111111110101111111001000000011010000111010101000010 H
0K
b100000000000000000000000000000000110000000000000000000000000000001000000000000000000000000000000001000000000000000000000000 U
b10000 V
b11001 W
b1 X
0t
b1 u
b11001100001100000010100110011101010110011010001010110101011110100011011011111111110101111111001000000011010000111010101000010 v
b11001100001100000010100110011101010110011010001010110101011110100011011011111111110101111111001000000011010000111010101000010 w
#540000
0!
0*
#550000
1!
1*
b100 3
b10 4
b11 5
1;
b11001100001100000010100110011101010110011010001010110101011110100011011011111111110101111111001000000011010000111010101000010 M
1R
b11001100001100000010100110011101010110011010001010110101011110100011011011111111110101111111001000000011010000111010101000010 U
b10000 V
b11010 W
#560000
0!
0*
#570000
1!
1*
b100 3
b11 4
1A
b10110100010000000100000111111101000000011111001011111101001110100000111011001111111111111101001000011011010100111010001000010 N
1P
b10000 V
b11011 W
1[
b10110100010000000100000111111101000000011111001011111101001110100000111011001111111111111101001000011011010100111010001000010 ]
#580000
0!
0*
#590000
1!
1*
b100 3
b101100 <
b1 =
1>
b1000010 O
0P
b10000 V
b11100 W
0[
1\
b10110100010000000100000111111101000000011111001011111101001110100000111011001111111111111101001000011011010100111010001000010 ^
b1000010 a
b101100 b
1c
#600000
0!
0*
#610000
1!
1*
b100 3
b10010010 <
b10 =
1?
b101011101010111101011100101100011001110000000111111110001100000110101100110000011010110110111111110010011101110111011101111100 @
b1110100 O
b10000 V
b11101 W
b1 _
b0 `
b1110100 a
b10010010 b
b101100001010111010101111010111111111100011000001100111000000010011000001101011011011110110101111110010011101110111011101111100 e
b1 f
b0 g
#620000
0!
0*
#630000
1!
1*
b100 3
b10 <
b11 =
b101100001010111010101110010010001100000110011111010111111111100110111100000001001100000110101101101011111100100111011101110111 @
b1101010 O
b10000 V
b11110 W
b10 _
b1 `
b1101010 a
b10 b
b10010010001011000010101110101011110101111111111000110000011001110000000100110000011010110110111101101011111100100111011101110111 e
b10 f
b0 g
#640000
0!
0*
#650000
1!
1*
b100 3
b11010 <
b100 =
b10010010001011000010101100000010111111100011000010101011110101110110101101100111000000010011000001101111011010111111001001110111 @
b1000011 O
b10000 V
b11111 W
b11 _
b10 `
b1000011 a
b11010 b
b10100100100010110000101011101010111101011111111110001100000110011100000001001100000110101101101111011010111111001001110111 e
b11 f
b0 g
#660000
0!
0*
#670000
1!
1*
b100 3
b101101 <
b101 =
b10100100100010110000011010110101111111111000101011101010110011000000110000011001110000000101101011011011110110101111110010 @
b11111010 O
b10000 V
b100000 W
b100 _
b11 `
b11111010 a
b101101 b
b11010000000101001001000101100001010111010101111010111111111100011000001100111000000010011000001101011011011110110101111110010 e
b100 f
b0 g
#680000
0!
0*
#690000
1!
1*
b100 3
b10110 <
b110 =
b11010000000101001001000101101101010111101011100101100001010110000000111111110001100000110011100110000011010110110111101101011 @
b11111111 O
b10000 V
b100001 W
b101 _
b100 `
b11111111 a
b10110 b
b101101000110100000001010010010001011000010101110101011110101111111111000110000011001110000000100110000011010110110111101101011 e
b101 f
b0 g
#700000
0!
0*
#710000
1!
1*
b100 3
b110101 <
b111 =
b101101000110100000001000010110001010111010101110010010001011000110011111010111111111100011000000000001001100000110101101101111 @
b11011001 O
b10000 V
b100010 W
b110 _
b101 `
b11011001 a
b110101 b
b10110001011010001101000000010100100100010110000101011101010111101011111111110001100000110011100000001001100000110101101101111 e
b110 f
b0 g
#720000
0!
0*
#730000
1!
1*
b100 3
b10000011 <
b1000 =
b10110001011010001101000110101001011000010101100000010100100100011000010101011110101111111111001100111000000010011000001101011 @
b1000001 O
b10000 V
b100011 W
b111 _
b110 `
b1000001 a
b10000011 b
b110101000101100010110100011010000000101001001000101100001010111010101111010111111111100011000001100111000000010011000001101011 e
b111 f
b0 g
#740000
0!
0*
#750000
1!
1*
b100 3
b1011100 <
b1001 =
b110101000101100010110110000011100100100010110000011010000000101111111000101011101010111101011100110000011001110000000100110000 @
b10100111 O
b10000 V
b100100 W
b1000 _
b111 `
b10100111 a
b1011100 b
b10000011001101010001011000101101000110100000001010010010001011000010101110101011110101111111111000110000011001110000000100110000 e
b1000 f
b0 g
#760000
0!
0*
#770000
1!
1*
b100 3
b11001111 <
b1010 =
b10000011001101010001011001011100000000101001001000101101000110101101011100101100001010111010101111111110001100000110011100000001 @
b1011111 O
b10000 V
b100101 W
b1001 _
b1000 `
b1011111 a
b11001111 b
b1011100100000110011010100010110001011010001101000000010100100100010110000101011101010111101011111111110001100000110011100000001 e
b1001 f
b0 g
#780000
0!
0*
#790000
1!
1*
b100 3
b10110010 <
b1011 =
b1011100100000110011010111001111000110100000001000010110001011011010101110010010001011000010101111010111111111100011000001100111 @
b111110 O
b10000 V
b100110 W
b1010 _
b1001 `
b111110 a
b10110010 b
b11001111010111001000001100110101000101100010110100011010000000101001001000101100001010111010101111010111111111100011000001100111 e
b1010 f
b0 g
#800000
0!
0*
#810000
1!
1*
b100 3
b11100000 <
b1100 =
b11001111010111001000001110110010001011010001101000110101000101100010101100000010100100100010110010101011110101111111111000110000 @
b10100000 O
b10000 V
b100111 W
b1011 _
b1010 `
b10100000 a
b11100000 b
b10110010110011110101110010000011001101010001011000101101000110100000001010010010001011000010101110101011110101111111111000110000 e
b1011 f
b0 g
#820000
0!
0*
#830000
1!
1*
b100 3
b1110101 <
b1101 =
b10110010110011110101110011100000000101100010110110000011001101010010110000011010000000101001001000101011101010111101011111111110 @
b111111 O
b10000 V
b101000 W
b1100 _
b1011 `
b111111 a
b1110101 b
b11100000101100101100111101011100100000110011010100010110001011010001101000000010100100100010110000101011101010111101011111111110 e
b1100 f
b0 g
#840000
0!
0*
#850000
1!
1*
b100 3
b110000 <
b1110 =
b11100000101100101100111101110101001101010001011001011100100000111001001000101101000110100000001000101100001010111010101111010111 @
b1000 O
b10000 V
b101001 W
b1101 _
b1100 `
b1000 a
b110000 b
b1110101111000001011001011001111010111001000001100110101000101100010110100011010000000101001001000101100001010111010101111010111 e
b1101 f
b0 g
#860000
0!
0*
#870000
1!
1*
b100 3
b100 5
b11000100 <
b1111 =
b1110101111000001011001000110000100000110011010111001111010111000000001000010110001011010001101010010010001011000010101110101011 @
b10001000 O
b10000 V
b101010 W
b1110 _
b1101 `
b10001000 a
b11000100 b
b110000011101011110000010110010110011110101110010000011001101010001011000101101000110100000001010010010001011000010101110101011 e
b1110 f
b0 g
#880000
0!
0*
#890000
1!
1*
b100 3
b100 4
b101 5
b1000111 <
b10000 =
b110000011101011110000011000100010111001000001110110010110011110001101000110101000101100010110100000010100100100010110000101011 @
b10110 O
b10000 V
b101011 W
b1111 _
b1110 `
b10110 a
b1000111 b
b11000100001100000111010111100000101100101100111101011100100000110011010100010110001011010001101000000010100100100010110000101011 e
b1111 f
b0 g
#900000
0!
0*
#910000
1!
1*
b100 3
b101 4
b110 5
b101100 <
b10001 =
0>
b11000100001100000111010101000111110011110101110011100000101100100010110110000011001101010001011000011010000000101001001000101100 @
0A
b1000010 O
b10000 V
b101100 W
0\
b0 _
b1111 `
b1000010 a
b101100 b
0c
b1000111110001000011000001110101111000001011001011001111010111001000001100110101000101100010110100011010000000101001001000101100 e
b0 f
b0 g
#920000
0!
0*
#930000
1!
1*
b100 3
b110 4
b111 5
b0 =
0?
1C
b10000 V
b101101 W
1d
#940000
0!
0*
#950000
1!
1*
b100 3
b111 4
b1100 5
0C
1F
b10000 V
b101110 W
0d
1h
#960000
0!
0*
#970000
1!
1*
b100 3
b1100 4
b1 5
b11111000001010011100111100101111101001010000001000010110101111101011001001001110011111101110111010000100101000000111111101101 E
0F
1K
b10000 V
b101111 W
0h
b11000100001100000111010101000111 i
b11111000001010011100111100101111101001010000001000010110101111101011001001001110011111101110111010000100101000000111111101101 j
b11111000001010011100111100101111101001010000001000010110101111101011001001001110011111101110111010000100101000000111111101101 k
b11111000001010011100111100101111101001010000001000010110101111101011001001001110011111101110111010000100101000000111111101101 l
b100 m
b100 n
b11111000001010011100111100101111101001010000001000010110101111101011001001001110011111101110111010000100101000000111111101101 o
b11000100001100000111010101000111110011110101110011100000101100100010110110000011001101010001011000011010000000101001001000101100 p
b10010011 q
b11000100 r
1t
#980000
0!
0*
#990000
1!
1*
b100 3
b1 4
b10 5
b10 6
b11111000001010011100111100101111101001010000001000010110101111101011001001001110011111101110111010000100101000000111111101101 H
0K
b11111000001010011100111100101111101001010000001000010110101111101011001001001110011111101110111010000100101000000111111101101 M
b11111110011101101010101111010110111100010111100010100110110110101111101001110010101011111101001011111101011101001010101011010110 Q
b11111000001010011100111100101111101001010000001000010110101111101011001001001110011111101110111010000100101000000111111101101 U
b10000 V
b110000 W
b10 X
b11111110011101101010101111010110111100010111100010100110110110101111101001110010101011111101001011111101011101001010101011010110 Y
0t
b10 u
b11111000001010011100111100101111101001010000001000010110101111101011001001001110011111101110111010000100101000000111111101101 v
b11111000001010011100111100101111101001010000001000010110101111101011001001001110011111101110111010000100101000000111111101101 w
#1000000
0!
0*
#1010000
1!
1*
b100 3
b10 4
b11 5
b11100001011100111001001000110011000001011101100011100100000011010010110000111011011000000000111100101101111000001010010100111011 N
b10000 V
b110001 W
b11100001011100111001001000110011000001011101100011100100000011010010110000111011011000000000111100101101111000001010010100111011 ]
#1020000
0!
0*
#1030000
1!
1*
b100 3
b11 4
1A
1P
b10000 V
b110010 W
1[
#1040000
0!
0*
#1050000
1!
1*
b100 3
b11100010 <
b1 =
1>
b111011 O
0P
b10000 V
b110011 W
0[
1\
b11100001011100111001001000110011000001011101100011100100000011010010110000111011011000000000111100101101111000001010010100111011 ^
b111011 a
b11100010 b
1c
#1060000
0!
0*
#1070000
1!
1*
b100 3
b110 <
b10 =
1?
b1000111110001000011000011100010101100101100111101110101111000000001011001011100100000110011010100101101000110100000001010010010 @
b10100101 O
b10000 V
b110100 W
b1 _
b0 `
b10100101 a
b110 b
b11100010010001111100010000110000011101011110000010110010110011110101110010000011001101010001011000101101000110100000001010010010 e
b1 f
b0 g
#1080000
0!
0*
#1090000
1!
1*
b100 3
b11100001 <
b11 =
b11100010010001111100010000000110111000001011001000110000011101010011010111001111010111001000001100010110001011010001101000000010 @
b11100000 O
b10000 V
b110101 W
b10 _
b1 `
b11100000 a
b11100001 b
b110111000100100011111000100001100000111010111100000101100101100111101011100100000110011010100010110001011010001101000000010 e
b10 f
b0 g
#1100000
0!
0*
#1110000
1!
1*
b100 3
b11011000 <
b100 =
b110111000100100011111100001011101011110000011000100001100001000001110110010110011110101110000110101000101100010110100011010 @
b101101 O
b10000 V
b110110 W
b11 _
b10 `
b101101 a
b11011000 b
b11100001000001101110001001000111110001000011000001110101111000001011001011001111010111001000001100110101000101100010110100011010 e
b11 f
b0 g
#1120000
0!
0*
#1130000
1!
1*
b100 3
b1110110 <
b101 =
b11100001000001101110001011011000001100000111010101000111110001000101110011100000101100101100111110000011001101010001011000101101 @
b1111 O
b10000 V
b110111 W
b100 _
b11 `
b1111 a
b1110110 b
b11011000111000010000011011100010010001111100010000110000011101011110000010110010110011110101110010000011001101010001011000101101 e
b100 f
b0 g
#1140000
0!
0*
#1150000
1!
1*
b100 3
b11010000 <
b110 =
b11011000111000010000011001110110110001000011000011100010010001111100111101110101111000001011001001011100100000110011010100010110 @
b1100000 O
b10000 V
b111000 W
b101 _
b100 `
b1100000 a
b11010000 b
b1110110110110001110000100000110111000100100011111000100001100000111010111100000101100101100111101011100100000110011010100010110 e
b101 f
b0 g
#1160000
0!
0*
#1170000
1!
1*
b100 3
b11100010 <
b111 =
b1110110110110001110000111010000010001111100010000000110111000101011001000110000011101011110000011001111010111001000001100110101 @
b111011 O
b10000 V
b111001 W
b110 _
b101 `
b111011 a
b11100010 b
b11010000011101101101100011100001000001101110001001000111110001000011000001110101111000001011001011001111010111001000001100110101 e
b110 f
b0 g
#1180000
0!
0*
#1190000
1!
1*
b100 3
b1110001 <
b1000 =
b11010000011101101101100011100010111000100100011111100001000001101110000011000100001100000111010110110010110011110101110010000011 @
b101100 O
b10000 V
b111010 W
b111 _
b110 `
b101100 a
b1110001 b
b11100010110100000111011011011000111000010000011011100010010001111100010000110000011101011110000010110010110011110101110010000011 e
b111 f
b0 g
#1200000
0!
0*
#1210000
1!
1*
b100 3
b11010111 <
b1001 =
b11100010110100000111011001110001000001101110001011011000111000010111010101000111110001000011000011100000101100101100111101011100 @
b1101 O
b10000 V
b111011 W
b1000 _
b111 `
b1101 a
b11010111 b
b1110001111000101101000001110110110110001110000100000110111000100100011111000100001100000111010111100000101100101100111101011100 e
b1000 f
b0 g
#1220000
0!
0*
#1230000
1!
1*
b100 3
b1101001 <
b1010 =
b1110001111000101101000011010111111000010000011001110110110110000011000011100010010001111100010001110101111000001011001011001111 @
b11100100 O
b10000 V
b111100 W
b1001 _
b1000 `
b11100100 a
b1101001 b
b11010111011100011110001011010000011101101101100011100001000001101110001001000111110001000011000001110101111000001011001011001111 e
b1001 f
b0 g
#1240000
0!
0*
#1250000
1!
1*
b100 3
b1100001 <
b1011 =
b11010111011100011110001001101001110110001110000111010000011101101100010000000110111000100100011100110000011101011110000010110010 @
b11011000 O
b10000 V
b111101 W
b1010 _
b1001 `
b11011000 a
b1100001 b
b1101001110101110111000111100010110100000111011011011000111000010000011011100010010001111100010000110000011101011110000010110010 e
b1010 f
b0 g
#1260000
0!
0*
#1270000
1!
1*
b100 3
b1101011 <
b1100 =
b1101001110101110111000101100001011101101101100011100010110100000100011111100001000001101110001011000100001100000111010111100000 @
b101 O
b10000 V
b111110 W
b1011 _
b1010 `
b101 a
b1101011 b
b1100001011010011101011101110001111000101101000001110110110110001110000100000110111000100100011111000100001100000111010111100000 e
b1011 f
b0 g
#1280000
0!
0*
#1290000
1!
1*
b100 3
b11000011 <
b1101 =
b1100001011010011101011101101011110100000111011001110001111000101110001011011000111000010000011001000111110001000011000001110101 @
b110011 O
b10000 V
b111111 W
b1100 _
b1011 `
b110011 a
b11000011 b
b1101011011000010110100111010111011100011110001011010000011101101101100011100001000001101110001001000111110001000011000001110101 e
b1100 f
b0 g
#1300000
0!
0*
#1310000
1!
1*
b100 3
b1001111 <
b1110 =
b1101011011000010110100111000011111000101101000011010111011100010000011001110110110110001110000111100010010001111100010000110000 @
b10010010 O
b10000 V
b1000000 W
b1101 _
b1100 `
b10010010 a
b1001111 b
b11000011011010110110000101101001110101110111000111100010110100000111011011011000111000010000011011100010010001111100010000110000 e
b1101 f
b0 g
#1320000
0!
0*
#1330000
1!
1*
b100 3
b100 5
b10001111 <
b1111 =
b11000011011010110110000101001111011100011110001001101001110101111110000111010000011101101101100000000110111000100100011111000100 @
b1110011 O
b10000 V
b1000001 W
b1110 _
b1101 `
b1110011 a
b10001111 b
b1001111110000110110101101100001011010011101011101110001111000101101000001110110110110001110000100000110111000100100011111000100 e
b1110 f
b0 g
#1340000
0!
0*
#1350000
1!
1*
b100 3
b100 4
b101 5
b11111000 <
b10000 =
b1001111110000110110101110001111110101110111000101100001011010011101100011100010110100000111011011100001000001101110001001000111 @
b11100001 O
b10000 V
b1000010 W
b1111 _
b1110 `
b11100001 a
b11111000 b
b10001111010011111100001101101011011000010110100111010111011100011110001011010000011101101101100011100001000001101110001001000111 e
b1111 f
b0 g
#1360000
0!
0*
