Vivado_projects/AES256_encrypter/AES256_encrypter.sim/sim_1/behav/xsim/wv_AES256_enc.vcd
$date
   Mon Dec  6 17:48:26 2021
$end
$version
  2020.2
$end
$timescale
  1ps
$end
$scope module tb_AES256_enc $end
$var reg 1 ! clk $end
$var reg 1 " resetn $end
$var reg 1 # ctrl_dataIn $end
$var reg 128 $ inpAES [127:0] $end
$var wire 1 % ctrl_dataOut $end
$var wire 128 & outAES [127:0] $end
$var integer 32 ' index $end
$var integer 32 ( i $end
$scope module DUT $end
$var wire 1 ) clk $end
$var wire 1 * resetn $end
$var wire 128 + inpAES [127:0] $end
$var wire 1 , ctrl_dataIn $end
$var reg 1 - ctrl_dataOut $end
$var reg 128 . outAES [127:0] $end
$var reg 128 / auxData [15:0] $end
$var integer 32 0 i $end
$var integer 32 1 index $end
$var reg 4 2 aes_st [3:0] $end
$var reg 4 3 aes_st_next [3:0] $end
$var reg 4 4 round [3:0] $end
$var wire 128 5 dataOut_reg416 [15:0] $end
$var wire 1 6 reg416_empty $end
$var wire 1 7 reg416_full $end
$var wire 8 8 dataOut_ROM [7:0] $end
$var reg 5 9 rom_cnt [4:0] $end
$var reg 1 : req_rom $end
$var reg 1 ; shf_reg $end
$var wire 128 < dataOut_shifter [15:0] $end
$var reg 1 = wr_shf $end
$var reg 1 > wr_shf_delay $end
$var reg 1 ? outp_en_shf $end
$var reg 1 @ outp_en_shf_delay $end
$var wire 128 A dataOut_mixColumns [15:0] $end
$var reg 1 B wr_mC $end
$var reg 1 C wr_mC_delay $end
$var wire 128 D dataOut_reg16_2 [15:0] $end
$var wire 128 E dataOut_demux_1 [15:0] $end
$var reg 2 F reg162_cnt [1:0] $end
$var reg 1 G wr_reg162 $end
$var reg 1 H wr_reg162_delay $end
$var wire 128 I dataIn_addRK [15:0] $end
$var reg 128 J dataOut_addRK [15:0] $end
$var wire 8 K dataOut_reg163 [7:0] $end
$var reg 1 L wr_reg163 $end
$var wire 128 M key [127:0] $end
$var reg 1 N end_st_reg $end
$scope module mux $end
$var wire 4 O addr [3:0] $end
$var wire 128 P inp0 [15:0] $end
$var wire 128 D inp1 [15:0] $end
$var reg 128 Q aux [15:0] $end
$var reg 128 R outp [15:0] $end
$upscope $end
$scope module addRK $end
$var wire 1 ) clk $end
$var wire 1 * resetn $end
$var wire 128 M inp_key_addRK [127:0] $end
$var wire 128 I inp_addRK [15:0] $end
$var reg 128 J outp_addRK [15:0] $end
$var integer 32 S index $end
$var integer 32 T row $end
$upscope $end
$scope module rom_key $end
$var wire 1 ) clk $end
$var wire 1 * resetn $end
$var wire 4 U addr_romKey [3:0] $end
$var reg 128 V outp_romKey [127:0] $end
$upscope $end
$scope module reg16_3 $end
$var integer 32 W index $end
$var wire 1 ) clk $end
$var wire 1 * resetn $end
$var wire 1 X wr_en $end
$var wire 1 Y req_rom $end
$var wire 128 Z inp_reg163 [15:0] $end
$var reg 128 [ aux [15:0] $end
$var reg 4 \ n_read [3:0] $end
$var reg 4 ] n_read_delay [3:0] $end
$var reg 8 ^ outp_reg163 [7:0] $end
$upscope $end
$scope module rom_Sbox $end
$var wire 1 ) clk $end
$var wire 1 * resetn $end
$var wire 8 K addr_romSbox [7:0] $end
$var reg 8 _ outp_romSbox [7:0] $end
$var integer 32 ` index $end
$upscope $end
$scope module shifter $end
$var wire 1 ) clk $end
$var wire 1 * resetn $end
$var wire 1 a wr_en $end
$var wire 8 8 inp_shf [7:0] $end
$var wire 1 b outp_en $end
$var reg 128 c aux [15:0] $end
$var reg 4 d counter [3:0] $end
$var wire 128 < outp_shf [15:0] $end
$var integer 32 e index $end
$upscope $end
$scope module mixColumns $end
$var wire 1 ) clk $end
$var wire 1 * resetn $end
$var wire 128 < inp_mC [15:0] $end
$var wire 1 f wr_en $end
$var reg 32 g row [3:0] $end
$var reg 128 h temp [15:0] $end
$var reg 128 i auxIn [15:0] $end
$var reg 128 j outp_mC [15:0] $end
$var integer 32 k index $end
$var integer 32 l rowNum $end
$scope function mix_columns $end
$var reg 128 m mix_columns [15:0] $end
$var reg 128 n inp_mC [15:0] $end
$upscope $end
$scope function xtime $end
$var reg 8 o xtime [7:0] $end
$var reg 8 p num [7:0] $end
$upscope $end
$upscope $end
$scope module reg16_2 $end
$var integer 32 q index $end
$var wire 1 ) clk $end
$var wire 1 * resetn $end
$var wire 1 r wr_en $end
$var wire 4 s round [3:0] $end
$var wire 128 A inp_reg162_mC [15:0] $end
$var wire 128 < inp_reg162_shf [15:0] $end
$var reg 128 t aux [15:0] $end
$var reg 128 u outp_reg162 [15:0] $end
$upscope $end
$upscope $end
$scope task enableResetn $end
$upscope $end
$scope task test_AES_encryption $end
$upscope $end
$upscope $end
$enddefinitions $end
#0
$dumpvars
0!
x"
x#
bx $
x%
bx &
bx '
b0 (
0)
x*
bx +
x,
x-
bx .
bx /
bx 0
bx 1
bx 2
bx 3
bx 4
bz 5
z6
z7
bx 8
bx 9
x:
x;
bx <
x=
x>
x?
x@
bx A
xB
xC
bx D
bz E
bx F
xG
xH
bx I
bx J
bx K
xL
bx M
xN
bx O
bx P
bx Q
bx R
bx S
bx T
bx U
bx V
bx W
xX
xY
bx Z
bx [
bx \
bx ]
bx ^
bx _
bx `
xa
xb
bx c
bx d
bx e
xf
bx g
bx h
bx i
bx j
bx k
bx l
bx m
bx n
b0 o
bx p
bx q
xr
bx s
bx t
bx u
$end
#10000
1!
0%
1)
0-
b0 9
0:
0?
0B
0G
0L
0N
b10000 S
bx T
0X
0Y
0a
0b
0f
0r
#11000
0"
bx0000000000000000 &
0*
bx0000000000000000 .
b10000 0
b0 2
b0 3
b0 4
b1100011 8
0;
b0 <
0=
b0 A
b0 D
b0 J
b0 K
b1111000011100000110100001100000010110000101000001001000010000000011100000110000001010000010000000011000000100000000100000000 M
b0 O
bx R
b10000 S
b0 T
b0 U
b1111000011100000110100001100000010110000101000001001000010000000011100000110000001010000010000000011000000100000000100000000 V
b10000 W
b0 Z
b0 [
b0 \
b0 ]
b0 ^
b1100011 _
b0 c
b0 d
b10000 e
b0 i
b0 j
b10000 k
b10000 q
b0 s
b0 t
b0 u
#20000
0!
0)
#30000
1!
1)
b10000 0
b10000 S
b10000 W
b10000 e
b0 i
b10000 k
b10000 q
#31000
1"
1*
#40000
0!
0)
#50000
1!
1#
1)
1,
b100 1
b1 3
bx J
b10000 S
b1 T
bx Z
#60000
0!
0)
#70000
1!
b100000000000000000000000000000000110000000000000000000000000000001000000000000000000000000000000001000000000000000000000000 $
1)
b100000000000000000000000000000000110000000000000000000000000000001000000000000000000000000000000001000000000000000000000000 +
b100000000000000000000000000000000110000000000000000000000000000001000000000000000000000000000000001000000000000000000000000 /
b100 1
b1 2
b10 3
b100000000000000000000000000000000110000000000000000000000000000001000000000000000000000000000000001000000000000000000000000 I
b100000000000000000000000000000000110000000000000000000000000000001000000000000000000000000000000001000000000000000000000000 P
b100000000000000000000000000000000110000000000000000000000000000001000000000000000000000000000000001000000000000000000000000 R
b10000 S
b10 T
#80000
0!
0)
#90000
1!
1)
b100 1
b10 2
b11 3
b1011000011100000110100001100000010000000101000001001000010000000010100000110000001010000010000000010000000100000000100000000 J
b10000 S
b11 T
b1011000011100000110100001100000010000000101000001001000010000000010100000110000001010000010000000010000000100000000100000000 Z
#100000
0!
0)
#110000
1!
1)
b100 1
b11 2
1=
1L
b10000 S
b100 T
1X
#120000
0!
0)
#130000
1!
1)
b100 1
b1 9
1:
0L
b10000 S
b101 T
0X
1Y
b1011000011100000110100001100000010000000101000001001000010000000010100000110000001010000010000000010000000100000000100000000 [
b0 ^
1a
#140000
0!
0)
#150000
1!
1)
b100 1
b1111100 8
b10 9
1;
b1100011000000000000000000000000000000000000000000000000000000000000000000000000000000000000000000000000 <
b1 K
b10000 S
b110 T
b1 \
b1 ^
b1111100 _
b1100011000000000000000000000000000000000000000000000000000000000000000000000000000000000000000000000000000000000000000000000000 c
b1 d
b0 e
#160000
0!
0)
#170000
1!
1)
b100 1
b1110111 8
b11 9
b1100011000000000000000001111100000000000000000000000000000000000000000000000000000000000000000000000000000000000000000000000000 <
b10 K
b10000 S
b111 T
b10 \
b1 ]
b10 ^
b1110111 _
b1111100011000110000000000000000000000000000000000000000000000000000000000000000000000000000000000000000000000000000000000000000 c
b10 d
b0 e
#180000
0!
0)
#190000
1!
1)
b100 1
b100 9
b1111100011000110000000001110111000000000000000000000000000000000000000000000000000000000000000000000000000000000000000000000000 <
b10000 S
b1000 T
b11 \
b10 ]
b10 ^
b1110111011111000110001100000000000000000000000000000000000000000000000000000000000000000000000000000000000000000000000000000000 c
b11 d
b0 e
#200000
0!
0)
#210000
1!
1)
b100 1
b11110010 8
b101 9
b1110111011111000110001101110111000000000000000000000000000000000000000000000000000000000000000000000000000000000000000000000000 <
b100 K
b10000 S
b1001 T
b100 \
b11 ]
b100 ^
b11110010 _
b1110111011101110111110001100011000000000000000000000000000000000000000000000000000000000000000000000000000000000000000000000000 c
b100 d
b0 e
#220000
0!
0)
#230000
1!
1)
b100 1
b1101011 8
b110 9
b1110111011101110111110011110010000000000000000001100011000000000000000000000000000000000000000000000000000000000000000000000000 <
b101 K
b10000 S
b1010 T
b101 \
b100 ]
b101 ^
b1101011 _
b11110010011101110111011101111100011000110000000000000000000000000000000000000000000000000000000000000000000000000000000000000000 c
b101 d
b0 e
#240000
0!
0)
#250000
1!
1)
b100 1
b1101111 8
b111 9
b11110010011101110111011101101011000000000000000001111100011000110000000000000000000000000000000000000000000000000000000000000000 <
b110 K
b10000 S
b1011 T
b110 \
b101 ]
b110 ^
b1101111 _
b1101011111100100111011101110111011111000110001100000000000000000000000000000000000000000000000000000000000000000000000000000000 c
b110 d
b0 e
#260000
0!
0)
#270000
1!
1)
b100 1
b1101011 8
b1000 9
b1101011111100100111011101101111011000110000000001110111011111000000000000000000000000000000000000000000000000000000000000000000 <
b101 K
b10000 S
b1100 T
b111 \
b110 ]
b101 ^
b1101011 _
b1101111011010111111001001110111011101110111110001100011000000000000000000000000000000000000000000000000000000000000000000000000 c
b111 d
b0 e
#280000
0!
0)
#290000
1!
1)
b100 1
b110000 8
b1001 9
b1101111011010111111001001101011011111000110001101110111011101110000000000000000000000000000000000000000000000000000000000000000 <
b1000 K
b10000 S
b1101 T
b1000 \
b111 ]
b1000 ^
b110000 _
b1101011011011110110101111110010011101110111011101111100011000110000000000000000000000000000000000000000000000000000000000000000 c
b1000 d
b0 e
#300000
0!
0)
#310000
1!
1)
b100 1
b1 8
b1010 9
b1101011011011110110101100110000011101110111110011110010011101110000000001100011000000000000000000000000000000000000000000000000 <
b1001 K
b10000 S
b1110 T
b1001 \
b1000 ]
b1001 ^
b1 _
b110000011010110110111101101011111100100111011101110111011111000110001100000000000000000000000000000000000000000000000000000000 c
b1001 d
b0 e
#320000
0!
0)
#330000
1!
1)
b100 1
b1100111 8
b1011 9
b110000011010110110111100000001011101110111011101101011111100100000000001111100011000110000000000000000000000000000000000000000 <
b1010 K
b10000 S
b1111 T
b1010 \
b1001 ]
b1010 ^
b1100111 _
b1001100000110101101101111011010111111001001110111011101110111110001100011000000000000000000000000000000000000000000000000 c
b1010 d
b0 e
#340000
0!
0)
#350000
1!
1)
b100 1
b110000 8
b1100 9
b1001100000110101101100111111100100111011101101111011010110000000001110111011111000110001100000000000000000000000000000000 <
b1000 K
b10000 S
b10000 T
b1011 \
b1010 ]
b1000 ^
b110000 _
b1100111000000010011000001101011011011110110101111110010011101110111011101111100011000110000000000000000000000000000000000000000 c
b1011 d
b0 e
#360000
0!
0)
#370000
1!
1)
b100 1
b11111110 8
b1101 9
b1100111000000010011000000110000011010111111001001101011011011110110001101110111011101110111110000000000000000000000000000000000 <
b1100 K
b10000 S
b10001 T
b1100 \
b1011 ]
b1100 ^
b11111110 _
b110000011001110000000100110000011010110110111101101011111100100111011101110111011111000110001100000000000000000000000000000000 c
b1100 d
b0 e
#380000
0!
0)
#390000
1!
1)
b100 1
b11010111 8
b1110 9
b110000011001110000000111111110011011110110101100110000011010110111110011110010011101110111011101100011000000000000000000000000 <
b1101 K
b10000 S
b10010 T
b1101 \
b1100 ]
b1101 ^
b11010111 _
b11111110001100000110011100000001001100000110101101101111011010111111001001110111011101110111110001100011000000000000000000000000 c
b1101 d
b0 e
#400000
0!
0)
#410000
1!
1)
b100 1
b100 3
b10101011 8
b1111 9
b11111110001100000110011111010111011010110110111100000001001100000111011101101011111100100111011101111100011000110000000000000000 <
b1110 K
b10000 S
b10011 T
b1110 \
b1101 ]
b1110 ^
b10101011 _
b11010111111111100011000001100111000000010011000001101011011011110110101111110010011101110111011101111100011000110000000000000000 c
b1110 d
b0 e
#420000
0!
0)
#430000
1!
1)
b100 1
b100 2
b101 3
b101011 8
b10000 9
b11010111111111100011000010101011001100000110101101100111000000010111011101101111011010111111001001110111011111000110001100000000 <
b1011 K
b10000 S
b10100 T
b1111 \
b1110 ]
b1011 ^
b101011 _
b10101011110101111111111000110000011001110000000100110000011010110110111101101011111100100111011101110111011111000110001100000000 c
b1111 d
b0 e
#440000
0!
0)
#450000
1!
1)
b100 1
b101 2
b110 3
b1100011 8
b10001 9
0:
b10101011110101111111111000101011000000010011000000110000011001111111001001101011011011110110101101110111011101110111110001100011 <
0=
b0 K
b10000 S
b10101 T
0Y
b0 \
b1111 ]
b0 ^
b1100011 _
0a
b101011101010111101011111111110001100000110011100000001001100000110101101101111011010111111001001110111011101110111110001100011 c
b0 d
b0 e
#460000
0!
0)
#470000
1!
1)
b100 1
b110 2
b111 3
b0 9
0;
1?
b10000 S
b10110 T
1b
#480000
0!
0)
#490000
1!
1)
b100 1
b111 2
b1100 3
0?
1B
b10000 S
b10111 T
0b
1f
#500000
0!
0)
#510000
1!
1)
b100 1
b1100 2
b1 3
b11001100001100000010100110011101010110011010001010110101011110100011011011111111110101111111001000000011010000111010101000010 A
0B
1G
b10000 S
b11000 T
0f
b10101011110101111111111000101011 g
b11001100001100000010100110011101010110011010001010110101011110100011011011111111110101111111001000000011010000111010101000010 h
b11001100001100000010100110011101010110011010001010110101011110100011011011111111110101111111001000000011010000111010101000010 i
b11001100001100000010100110011101010110011010001010110101011110100011011011111111110101111111001000000011010000111010101000010 j
b100 k
b100 l
b11001100001100000010100110011101010110011010001010110101011110100011011011111111110101111111001000000011010000111010101000010 m
b10101011110101111111111000101011000000010011000000110000011001111111001001101011011011110110101101110111011101110111110001100011 n
b1001101 o
b10101011 p
1r
#520000
0!
0)
#530000
1!
1)
b100 1
b1 2
b10 3
b1 4
b11001100001100000010100110011101010110011010001010110101011110100011011011111111110101111111001000000011010000111010101000010 D
0G
b11001100001100000010100110011101010110011010001010110101011110100011011011111111110101111111001000000011010000111010101000010 I
b1 O
b11001100001100000010100110011101010110011010001010110101011110100011011011111111110101111111001000000011010000111010101000010 R
b10000 S
b11001 T
b1 U
b1111000011100000110100001100000010110000101000001001000010000000011100000110000001010000010000000011000000100000000100000000 V
0r
b1 s
b11001100001100000010100110011101010110011010001010110101011110100011011011111111110101111111001000000011010000111010101000010 t
b11001100001100000010100110011101010110011010001010110101011110100011011011111111110101111111001000000011010000111010101000010 u
#540000
0!
0)
#550000
1!
1)
b100 1
b10 2
b11 3
b10110100010000000100000111111101000000011111001011111101001110100000111011001111111111111101001000011011010100111010001000010 J
b10000 S
b11010 T
b10110100010000000100000111111101000000011111001011111101001110100000111011001111111111111101001000011011010100111010001000010 Z
#560000
0!
0)
#570000
1!
1)
b100 1
b11 2
1=
1L
b10000 S
b11011 T
1X
#580000
0!
0)
#590000
1!
1)
b100 1
b101100 8
b1 9
1:
b1000010 K
0L
b10000 S
b11100 T
0X
1Y
b10110100010000000100000111111101000000011111001011111101001110100000111011001111111111111101001000011011010100111010001000010 [
b1000010 ^
b101100 _
1a
#600000
0!
0)
#610000
1!
1)
b100 1
b10010010 8
b10 9
1;
b101011101010111101011100101100011001110000000111111110001100000110101100110000011010110110111111110010011101110111011101111100 <
b1110100 K
b10000 S
b11101 T
b1 \
b0 ]
b1110100 ^
b10010010 _
b101100001010111010101111010111111111100011000001100111000000010011000001101011011011110110101111110010011101110111011101111100 c
b1 d
b0 e
#620000
0!
0)
#630000
1!
1)
b100 1
b10 8
b11 9
b101100001010111010101110010010001100000110011111010111111111100110111100000001001100000110101101101011111100100111011101110111 <
b1101010 K
b10000 S
b11110 T
b10 \
b1 ]
b1101010 ^
b10 _
b10010010001011000010101110101011110101111111111000110000011001110000000100110000011010110110111101101011111100100111011101110111 c
b10 d
b0 e
#640000
0!
0)
#650000
1!
1)
b100 1
b11010 8
b100 9
b10010010001011000010101100000010111111100011000010101011110101110110101101100111000000010011000001101111011010111111001001110111 <
b1000011 K
b10000 S
b11111 T
b11 \
b10 ]
b1000011 ^
b11010 _
b10100100100010110000101011101010111101011111111110001100000110011100000001001100000110101101101111011010111111001001110111 c
b11 d
b0 e
#660000
0!
0)
#670000
1!
1)
b100 1
b101101 8
b101 9
b10100100100010110000011010110101111111111000101011101010110011000000110000011001110000000101101011011011110110101111110010 <
b11111010 K
b10000 S
b100000 T
b100 \
b11 ]
b11111010 ^
b101101 _
b11010000000101001001000101100001010111010101111010111111111100011000001100111000000010011000001101011011011110110101111110010 c
b100 d
b0 e
#680000
0!
0)
#690000
1!
1)
b100 1
b10110 8
b110 9
b11010000000101001001000101101101010111101011100101100001010110000000111111110001100000110011100110000011010110110111101101011 <
b11111111 K
b10000 S
b100001 T
b101 \
b100 ]
b11111111 ^
b10110 _
b101101000110100000001010010010001011000010101110101011110101111111111000110000011001110000000100110000011010110110111101101011 c
b101 d
b0 e
#700000
0!
0)
#710000
1!
1)
b100 1
b110101 8
b111 9
b101101000110100000001000010110001010111010101110010010001011000110011111010111111111100011000000000001001100000110101101101111 <
b11011001 K
b10000 S
b100010 T
b110 \
b101 ]
b11011001 ^
b110101 _
b10110001011010001101000000010100100100010110000101011101010111101011111111110001100000110011100000001001100000110101101101111 c
b110 d
b0 e
#720000
0!
0)
#730000
1!
1)
b100 1
b10000011 8
b1000 9
b10110001011010001101000110101001011000010101100000010100100100011000010101011110101111111111001100111000000010011000001101011 <
b1000001 K
b10000 S
b100011 T
b111 \
b110 ]
b1000001 ^
b10000011 _
b110101000101100010110100011010000000101001001000101100001010111010101111010111111111100011000001100111000000010011000001101011 c
b111 d
b0 e
#740000
0!
0)
#750000
1!
1)
b100 1
b1011100 8
b1001 9
b110101000101100010110110000011100100100010110000011010000000101111111000101011101010111101011100110000011001110000000100110000 <
b10100111 K
b10000 S
b100100 T
b1000 \
b111 ]
b10100111 ^
b1011100 _
b10000011001101010001011000101101000110100000001010010010001011000010101110101011110101111111111000110000011001110000000100110000 c
b1000 d
b0 e
#760000
0!
0)
#770000
1!
1)
b100 1
b11001111 8
b1010 9
b10000011001101010001011001011100000000101001001000101101000110101101011100101100001010111010101111111110001100000110011100000001 <
b1011111 K
b10000 S
b100101 T
b1001 \
b1000 ]
b1011111 ^
b11001111 _
b1011100100000110011010100010110001011010001101000000010100100100010110000101011101010111101011111111110001100000110011100000001 c
b1001 d
b0 e
#780000
0!
0)
#790000
1!
1)
b100 1
b10110010 8
b1011 9
b1011100100000110011010111001111000110100000001000010110001011011010101110010010001011000010101111010111111111100011000001100111 <
b111110 K
b10000 S
b100110 T
b1010 \
b1001 ]
b111110 ^
b10110010 _
b11001111010111001000001100110101000101100010110100011010000000101001001000101100001010111010101111010111111111100011000001100111 c
b1010 d
b0 e
#800000
0!
0)
#810000
1!
1)
b100 1
b11100000 8
b1100 9
b11001111010111001000001110110010001011010001101000110101000101100010101100000010100100100010110010101011110101111111111000110000 <
b10100000 K
b10000 S
b100111 T
b1011 \
b1010 ]
b10100000 ^
b11100000 _
b10110010110011110101110010000011001101010001011000101101000110100000001010010010001011000010101110101011110101111111111000110000 c
b1011 d
b0 e
#820000
0!
0)
#830000
1!
1)
b100 1
b1110101 8
b1101 9
b10110010110011110101110011100000000101100010110110000011001101010010110000011010000000101001001000101011101010111101011111111110 <
b111111 K
b10000 S
b101000 T
b1100 \
b1011 ]
b111111 ^
b1110101 _
b11100000101100101100111101011100100000110011010100010110001011010001101000000010100100100010110000101011101010111101011111111110 c
b1100 d
b0 e
#840000
0!
0)
#850000
1!
1)
b100 1
b110000 8
b1110 9
b11100000101100101100111101110101001101010001011001011100100000111001001000101101000110100000001000101100001010111010101111010111 <
b1000 K
b10000 S
b101001 T
b1101 \
b1100 ]
b1000 ^
b110000 _
b1110101111000001011001011001111010111001000001100110101000101100010110100011010000000101001001000101100001010111010101111010111 c
b1101 d
b0 e
#860000
0!
0)
#870000
1!
1)
b100 1
b100 3
b11000100 8
b1111 9
b1110101111000001011001000110000100000110011010111001111010111000000001000010110001011010001101010010010001011000010101110101011 <
b10001000 K
b10000 S
b101010 T
b1110 \
b1101 ]
b10001000 ^
b11000100 _
b110000011101011110000010110010110011110101110010000011001101010001011000101101000110100000001010010010001011000010101110101011 c
b1110 d
b0 e
#880000
0!
0)
#890000
1!
1)
b100 1
b100 2
b101 3
b1000111 8
b10000 9
b110000011101011110000011000100010111001000001110110010110011110001101000110101000101100010110100000010100100100010110000101011 <
b10110 K
b10000 S
b101011 T
b1111 \
b1110 ]
b10110 ^
b1000111 _
b11000100001100000111010111100000101100101100111101011100100000110011010100010110001011010001101000000010100100100010110000101011 c
b1111 d
b0 e
#900000
0!
0)
#910000
1!
1)
b100 1
b101 2
b110 3
b101100 8
b10001 9
0:
b11000100001100000111010101000111110011110101110011100000101100100010110110000011001101010001011000011010000000101001001000101100 <
0=
b1000010 K
b10000 S
b101100 T
0Y
b0 \
b1111 ]
b1000010 ^
b101100 _
0a
b1000111110001000011000001110101111000001011001011001111010111001000001100110101000101100010110100011010000000101001001000101100 c
b0 d
b0 e
#920000
0!
0)
#930000
1!
1)
b100 1
b110 2
b111 3
b0 9
0;
1?
b10000 S
b101101 T
1b
#940000
0!
0)
#950000
1!
1)
b100 1
b111 2
b1100 3
0?
1B
b10000 S
b101110 T
0b
1f
#960000
0!
0)
#970000
1!
1)
b100 1
b1100 2
b1 3
b11111000001010011100111100101111101001010000001000010110101111101011001001001110011111101110111010000100101000000111111101101 A
0B
1G
b10000 S
b101111 T
0f
b11000100001100000111010101000111 g
b11111000001010011100111100101111101001010000001000010110101111101011001001001110011111101110111010000100101000000111111101101 h
b11111000001010011100111100101111101001010000001000010110101111101011001001001110011111101110111010000100101000000111111101101 i
b11111000001010011100111100101111101001010000001000010110101111101011001001001110011111101110111010000100101000000111111101101 j
b100 k
b100 l
b11111000001010011100111100101111101001010000001000010110101111101011001001001110011111101110111010000100101000000111111101101 m
b11000100001100000111010101000111110011110101110011100000101100100010110110000011001101010001011000011010000000101001001000101100 n
b10010011 o
b11000100 p
1r
#980000
0!
0)
#990000
1!
1)
b100 1
b1 2
b10 3
b10 4
b11111000001010011100111100101111101001010000001000010110101111101011001001001110011111101110111010000100101000000111111101101 D
0G
b11111000001010011100111100101111101001010000001000010110101111101011001001001110011111101110111010000100101000000111111101101 I
b11111110011101101010101111010110111100010111100010100110110110101111101001110010101011111101001011111101011101001010101011010110 M
b10 O
b11111000001010011100111100101111101001010000001000010110101111101011001001001110011111101110111010000100101000000111111101101 R
b10000 S
b110000 T
b10 U
b11111110011101101010101111010110111100010111100010100110110110101111101001110010101011111101001011111101011101001010101011010110 V
0r
b10 s
b11111000001010011100111100101111101001010000001000010110101111101011001001001110011111101110111010000100101000000111111101101 t
b11111000001010011100111100101111101001010000001000010110101111101011001001001110011111101110111010000100101000000111111101101 u
#1000000
0!
0)
#1010000
1!
1)
b100 1
b10 2
b11 3
b11100001011100111001001000110011000001011101100011100100000011010010110000111011011000000000111100101101111000001010010100111011 J
b10000 S
b110001 T
b11100001011100111001001000110011000001011101100011100100000011010010110000111011011000000000111100101101111000001010010100111011 Z
#1020000
0!
0)
#1030000
1!
1)
b100 1
b11 2
1=
1L
b10000 S
b110010 T
1X
#1040000
0!
0)
#1050000
1!
1)
b100 1
b11100010 8
b1 9
1:
b111011 K
0L
b10000 S
b110011 T
0X
1Y
b11100001011100111001001000110011000001011101100011100100000011010010110000111011011000000000111100101101111000001010010100111011 [
b111011 ^
b11100010 _
1a
#1060000
0!
0)
#1070000
1!
1)
b100 1
b110 8
b10 9
1;
b1000111110001000011000011100010101100101100111101110101111000000001011001011100100000110011010100101101000110100000001010010010 <
b10100101 K
b10000 S
b110100 T
b1 \
b0 ]
b10100101 ^
b110 _
b11100010010001111100010000110000011101011110000010110010110011110101110010000011001101010001011000101101000110100000001010010010 c
b1 d
b0 e
#1080000
0!
0)
#1090000
1!
1)
b100 1
b11100001 8
b11 9
b11100010010001111100010000000110111000001011001000110000011101010011010111001111010111001000001100010110001011010001101000000010 <
b11100000 K
b10000 S
b110101 T
b10 \
b1 ]
b11100000 ^
b11100001 _
b110111000100100011111000100001100000111010111100000101100101100111101011100100000110011010100010110001011010001101000000010 c
b10 d
b0 e
#1100000
0!
0)
#1110000
1!
1)
b100 1
b11011000 8
b100 9
b110111000100100011111100001011101011110000011000100001100001000001110110010110011110101110000110101000101100010110100011010 <
b101101 K
b10000 S
b110110 T
b11 \
b10 ]
b101101 ^
b11011000 _
b11100001000001101110001001000111110001000011000001110101111000001011001011001111010111001000001100110101000101100010110100011010 c
b11 d
b0 e
#1120000
0!
0)
#1130000
1!
1)
b100 1
b1110110 8
b101 9
b11100001000001101110001011011000001100000111010101000111110001000101110011100000101100101100111110000011001101010001011000101101 <
b1111 K
b10000 S
b110111 T
b100 \
b11 ]
b1111 ^
b1110110 _
b11011000111000010000011011100010010001111100010000110000011101011110000010110010110011110101110010000011001101010001011000101101 c
b100 d
b0 e
#1140000
0!
0)
#1150000
1!
1)
b100 1
b11010000 8
b110 9
b11011000111000010000011001110110110001000011000011100010010001111100111101110101111000001011001001011100100000110011010100010110 <
b1100000 K
b10000 S
b111000 T
b101 \
b100 ]
b1100000 ^
b11010000 _
b1110110110110001110000100000110111000100100011111000100001100000111010111100000101100101100111101011100100000110011010100010110 c
b101 d
b0 e
#1160000
0!
0)
#1170000
1!
1)
b100 1
b11100010 8
b111 9
b1110110110110001110000111010000010001111100010000000110111000101011001000110000011101011110000011001111010111001000001100110101 <
b111011 K
b10000 S
b111001 T
b110 \
b101 ]
b111011 ^
b11100010 _
b11010000011101101101100011100001000001101110001001000111110001000011000001110101111000001011001011001111010111001000001100110101 c
b110 d
b0 e
#1180000
0!
0)
#1190000
1!
1)
b100 1
b1110001 8
b1000 9
b11010000011101101101100011100010111000100100011111100001000001101110000011000100001100000111010110110010110011110101110010000011 <
b101100 K
b10000 S
b111010 T
b111 \
b110 ]
b101100 ^
b1110001 _
b11100010110100000111011011011000111000010000011011100010010001111100010000110000011101011110000010110010110011110101110010000011 c
b111 d
b0 e
#1200000
0!
0)
#1210000
1!
1)
b100 1
b11010111 8
b1001 9
b11100010110100000111011001110001000001101110001011011000111000010111010101000111110001000011000011100000101100101100111101011100 <
b1101 K
b10000 S
b111011 T
b1000 \
b111 ]
b1101 ^
b11010111 _
b1110001111000101101000001110110110110001110000100000110111000100100011111000100001100000111010111100000101100101100111101011100 c
b1000 d
b0 e
#1220000
0!
0)
#1230000
1!
1)
b100 1
b1101001 8
b1010 9
b1110001111000101101000011010111111000010000011001110110110110000011000011100010010001111100010001110101111000001011001011001111 <
b11100100 K
b10000 S
b111100 T
b1001 \
b1000 ]
b11100100 ^
b1101001 _
b11010111011100011110001011010000011101101101100011100001000001101110001001000111110001000011000001110101111000001011001011001111 c
b1001 d
b0 e
#1240000
0!
0)
#1250000
1!
1)
b100 1
b1100001 8
b1011 9
b11010111011100011110001001101001110110001110000111010000011101101100010000000110111000100100011100110000011101011110000010110010 <
b11011000 K
b10000 S
b111101 T
b1010 \
b1001 ]
b11011000 ^
b1100001 _
b1101001110101110111000111100010110100000111011011011000111000010000011011100010010001111100010000110000011101011110000010110010 c
b1010 d
b0 e
#1260000
0!
0)
#1270000
1!
1)
b100 1
b1101011 8
b1100 9
b1101001110101110111000101100001011101101101100011100010110100000100011111100001000001101110001011000100001100000111010111100000 <
b101 K
b10000 S
b111110 T
b1011 \
b1010 ]
b101 ^
b1101011 _
b1100001011010011101011101110001111000101101000001110110110110001110000100000110111000100100011111000100001100000111010111100000 c
b1011 d
b0 e
#1280000
0!
0)
#1290000
1!
1)
b100 1
b11000011 8
b1101 9
b1100001011010011101011101101011110100000111011001110001111000101110001011011000111000010000011001000111110001000011000001110101 <
b110011 K
b10000 S
b111111 T
b1100 \
b1011 ]
b110011 ^
b11000011 _
b1101011011000010110100111010111011100011110001011010000011101101101100011100001000001101110001001000111110001000011000001110101 c
b1100 d
b0 e
#1300000
0!
0)
#1310000
1!
1)
b100 1
b1001111 8
b1110 9
b1101011011000010110100111000011111000101101000011010111011100010000011001110110110110001110000111100010010001111100010000110000 <
b10010010 K
b10000 S
b1000000 T
b1101 \
b1100 ]
b10010010 ^
b1001111 _
b11000011011010110110000101101001110101110111000111100010110100000111011011011000111000010000011011100010010001111100010000110000 c
b1101 d
b0 e
#1320000
0!
0)
#1330000
1!
1)
b100 1
b100 3
b10001111 8
b1111 9
b11000011011010110110000101001111011100011110001001101001110101111110000111010000011101101101100000000110111000100100011111000100 <
b1110011 K
b10000 S
b1000001 T
b1110 \
b1101 ]
b1110011 ^
b10001111 _
b1001111110000110110101101100001011010011101011101110001111000101101000001110110110110001110000100000110111000100100011111000100 c
b1110 d
b0 e
#1340000
0!
0)
