Vivado_projects/addRoundKey/addRoundKey.sim/sim_1/behav/xsim/wv_mod_enc_addRoundKey.vcd
$date
   Sat Sep  4 13:51:11 2021
$end
$version
  2020.2
$end
$timescale
  1ps
$end
$scope module tb_mod_enc_addRoundKey $end
$var reg 1 ! clk $end
$var reg 1 " resetn $end
$var reg 1 # reg_empty $end
$var reg 1 $ rd_comp $end
$var reg 128 % p [15:0] $end
$var reg 128 & k [127:0] $end
$var wire 128 ' o [15:0] $end
$var wire 1 ( ok $end
$var integer 32 ) i $end
$scope module DUT $end
$var wire 1 * clk $end
$var wire 1 + resetn $end
$var wire 1 , reg_empty $end
$var wire 1 - rd_comp $end
$var wire 128 . k [127:0] $end
$var wire 128 / p [15:0] $end
$var reg 1 0 reg163_empty $end
$var reg 1 1 rd_romKey $end
$var reg 128 2 regKey [127:0] $end
$var reg 128 3 reg_p [15:0] $end
$var reg 128 4 o [15:0] $end
$var reg 1 5 ok $end
$var integer 32 6 i $end
$upscope $end
$scope task test_addRK $end
$upscope $end
$upscope $end
$enddefinitions $end
#0
$dumpvars
0!
0"
x#
x$
bx %
bx &
b0 '
1(
bx )
0*
0+
x,
x-
bx .
bx /
10
x1
bx 2
bx 3
b0 4
15
b10000 6
$end
#100000
1!
1*
x0
b0 4
15
b10000 6
#200000
0!
1"
1#
1$
b0 %
b10000001000000011000001000000010100000110000001110000100000001001000010100000101100001100000011010000111000001111 &
b10000 )
0*
1+
1,
1-
b10000001000000011000001000000010100000110000001110000100000001001000010100000101100001100000011010000111000001111 .
b0 /
#300000
1!
b10000001000000011000001000000010100000110000001110000100000001001000010100000101100001100000011010000111000001111 '
0(
1*
00
01
b10000001000000011000001000000010100000110000001110000100000001001000010100000101100001100000011010000111000001111 2
b0 3
b10000001000000011000001000000010100000110000001110000100000001001000010100000101100001100000011010000111000001111 4
05
b10000 6
#400000
0!
b0 )
0*
#500000
1!
1*
00
01
b10000001000000011000001000000010100000110000001110000100000001001000010100000101100001100000011010000111000001111 4
05
b10000 6
#600000
0!
b1 )
0*
#700000
1!
1*
00
01
b10000001000000011000001000000010100000110000001110000100000001001000010100000101100001100000011010000111000001111 4
05
b10000 6
#800000
0!
b10 )
0*
#900000
1!
1*
00
01
b10000001000000011000001000000010100000110000001110000100000001001000010100000101100001100000011010000111000001111 4
05
b10000 6
#1000000
0!
b11 )
0*
