Vivado_projects/AES256_AXI_test/AES256_AXI_test.sim/sim_1/behav/xsim/wv_AES256_AXI.vcd
$date
   Tue Feb  1 17:18:01 2022
$end
$version
  2020.2
$end
$timescale
  1ps
$end
$scope module tb_AES256_AXI $end
$var reg 1 ! S_AXI_ACLK $end
$var reg 1 " S_AXI_ARESETN $end
$var reg 32 # slv_reg0 [31:0] $end
$var reg 32 $ slv_reg1 [31:0] $end
$var reg 32 % slv_reg2 [31:0] $end
$var reg 32 & slv_reg3 [31:0] $end
$var integer 32 ' index $end
$scope module DUT $end
$var wire 1 ( S_AXI_ACLK $end
$var wire 1 ) S_AXI_ARESETN $end
$var wire 32 * slv_reg0 [31:0] $end
$var wire 32 + slv_reg1 [31:0] $end
$var wire 32 , slv_reg2 [31:0] $end
$var wire 32 - slv_reg3 [31:0] $end
$var wire 1 . mod_fifo_full $end
$var wire 1 / data_fifo_full $end
$var wire 1 0 seed_fifo_full $end
$var reg 1 1 wr_mod_fifo $end
$var reg 1 2 wr_data_fifo $end
$var reg 1 3 ctrl_dataIn $end
$var wire 1 4 ctrl_dataOut $end
$var wire 1 5 mod_decrease $end
$var wire 2 6 mode [1:0] $end
$var wire 128 7 data [127:0] $end
$var wire 128 8 seed [127:0] $end
$var wire 1 9 wr_seed_fifo $end
$var wire 1 : resetn $end
$var wire 1 ; outp_dev_reg $end
$var wire 1 < temp $end
$var wire 1 = S_AXI_WDATA $end
$var wire 1 > seed_reg $end
$scope module mod_fifo $end
$var wire 1 ( clk $end
$var wire 1 ) resetn $end
$var wire 1 ? wr_fifo $end
$var wire 1 5 decrease_fifo $end
$var wire 1 @ size $end
$var wire 32 A inp_fifo [31:0] $end
$var reg 1 B fifo_full $end
$var reg 128 C outp_fifo [127:0] $end
$var reg 2080 D fifo [64:0] $end
$var reg 6 E counter [5:0] $end
$var integer 32 F index $end
$upscope $end
$scope module data_fifo $end
$var wire 1 ( clk $end
$var wire 1 ) resetn $end
$var wire 1 G wr_fifo $end
$var wire 1 5 decrease_fifo $end
$var wire 1 H size $end
$var wire 32 I inp_fifo [31:0] $end
$var reg 1 J fifo_full $end
$var reg 128 K outp_fifo [127:0] $end
$var reg 2080 L fifo [64:0] $end
$var reg 6 M counter [5:0] $end
$var integer 32 N index $end
$upscope $end
$scope module seed_fifo $end
$var wire 1 ( clk $end
$var wire 1 ) resetn $end
$var wire 1 9 wr_fifo $end
$var wire 1 O decrease_fifo $end
$var wire 1 P size $end
$var wire 32 Q inp_fifo [31:0] $end
$var reg 1 R fifo_full $end
$var reg 128 S outp_fifo [127:0] $end
$var reg 2080 T fifo [64:0] $end
$var reg 6 U counter [5:0] $end
$var integer 32 V index $end
$upscope $end
$scope module device $end
$var wire 1 ( clk $end
$var wire 1 : resetn $end
$var wire 2 6 mod_en [1:0] $end
$var wire 1 W ctrl_dataIn $end
$var wire 128 7 inp_device [127:0] $end
$var wire 128 X seed [127:0] $end
$var reg 1 Y mod_decrease $end
$var reg 1 Z ctrl_dataOut $end
$var reg 128 [ outp_device [127:0] $end
$var reg 3 \ dev_st [2:0] $end
$var reg 3 ] dev_st_next [2:0] $end
$var reg 4 ^ rom_cnt [3:0] $end
$var reg 2 _ seed_cnt [1:0] $end
$var reg 1 ` rom_dataStored $end
$var reg 1 a end_st_reg $end
$var reg 128 b key [127:0] $end
$var reg 4 c keyAddr [3:0] $end
$var reg 1 d ctrl_keyAddr $end
$var reg 1 e ctrl_dataIn_enc $end
$var reg 1 f ctrl_dataOut_enc $end
$var reg 128 g enc_dataIn [127:0] $end
$var reg 128 h enc_dataOut [127:0] $end
$var wire 4 i enc_keyAddr [3:0] $end
$var reg 1 j enc_avail $end
$var reg 1 k ctrl_dataIn_dec $end
$var reg 1 l ctrl_dataOut_dec $end
$var reg 128 m dec_dataIn [127:0] $end
$var reg 128 n dec_dataOut [127:0] $end
$var wire 4 o dec_keyAddr [3:0] $end
$var reg 1 p dec_avail $end
$var reg 1 q ctrl_dataIn_kg $end
$var reg 1 r ctrl_dataOut_kg $end
$var reg 128 s kg_dataIn [127:0] $end
$var wire 128 t kg_dataOut [127:0] $end
$var reg 128 u inp_romKey [127:0] $end
$var reg 1 v wr_en_rom $end
$var integer 32 w index $end
$scope module encrypter $end
$var wire 1 ( clk $end
$var wire 1 : resetn $end
$var wire 1 x ctrl_dataIn_enc $end
$var wire 128 y enc_key [127:0] $end
$var wire 128 z enc_dataIn [127:0] $end
$var reg 1 f ctrl_dataOut_enc $end
$var reg 4 { enc_keyAddr [3:0] $end
$var reg 128 h enc_dataOut [127:0] $end
$var reg 128 | auxData [15:0] $end
$var integer 32 } i $end
$var integer 32 ~ index $end
$var reg 4 !! enc_st [3:0] $end
$var reg 4 "! enc_st_next [3:0] $end
$var reg 4 #! round [3:0] $end
$var reg 1 $! end_st_reg $end
$var reg 1 %! end_st_reg_delay $end
$var reg 1 &! mux_chgInp $end
$var wire 8 '! dataOut_ROM [7:0] $end
$var reg 5 (! rom_cnt [4:0] $end
$var reg 1 )! req_rom $end
$var reg 1 *! req_rom_delay $end
$var wire 128 +! dataOut_shifter [15:0] $end
$var reg 1 ,! outp_en_shf $end
$var reg 1 -! outp_en_shf_delay $end
$var wire 128 .! dataOut_mixColumns [15:0] $end
$var reg 1 /! wr_mC $end
$var reg 1 0! wr_mC_delay $end
$var wire 128 1! dataOut_reg16_2 [15:0] $end
$var reg 2 2! reg162_cnt [1:0] $end
$var reg 1 3! wr_reg162 $end
$var reg 1 4! wr_reg162_delay $end
$var wire 128 5! dataIn_addRK [15:0] $end
$var reg 128 6! dataOut_addRK [15:0] $end
$var wire 8 7! dataOut_reg163 [7:0] $end
$var reg 1 8! wr_reg163 $end
$var wire 128 9! key [127:0] $end
$scope module mux $end
$var wire 1 :! addr $end
$var wire 128 ;! inp0 [15:0] $end
$var wire 128 1! inp1 [15:0] $end
$var reg 128 <! aux [15:0] $end
$var reg 128 =! outp [15:0] $end
$upscope $end
$scope module addRK $end
$var wire 1 ( clk $end
$var wire 1 : resetn $end
$var wire 128 9! inp_key_addRK [127:0] $end
$var wire 128 5! inp_addRK [15:0] $end
$var reg 128 6! outp_addRK [15:0] $end
$var integer 32 >! index $end
$var integer 32 ?! row $end
$upscope $end
$scope module reg16_3 $end
$var integer 32 @! index $end
$var wire 1 ( clk $end
$var wire 1 : resetn $end
$var wire 1 A! wr_en $end
$var wire 1 B! req_rom $end
$var wire 128 C! inp_reg163 [15:0] $end
$var reg 128 D! aux [15:0] $end
$var reg 4 E! n_read [3:0] $end
$var reg 4 F! n_read_delay [3:0] $end
$var reg 8 G! outp_reg163 [7:0] $end
$upscope $end
$scope module rom_Sbox $end
$var wire 1 ( clk $end
$var wire 1 : resetn $end
$var wire 8 7! addr_romSbox [7:0] $end
$var reg 8 H! outp_romSbox [7:0] $end
$upscope $end
$scope module shifter $end
$var wire 1 ( clk $end
$var wire 1 : resetn $end
$var wire 1 I! wr_en $end
$var wire 8 '! inp_shf [7:0] $end
$var reg 128 J! aux [15:0] $end
$var reg 4 K! counter [3:0] $end
$var wire 128 +! outp_shf [15:0] $end
$var integer 32 L! index $end
$upscope $end
$scope module mixColumns $end
$var wire 1 ( clk $end
$var wire 1 : resetn $end
$var wire 128 +! inp_mC [15:0] $end
$var wire 1 M! wr_en $end
$var reg 32 N! row [3:0] $end
$var reg 128 O! temp [15:0] $end
$var reg 128 P! auxIn [15:0] $end
$var reg 128 Q! outp_mC [15:0] $end
$var integer 32 R! index $end
$var integer 32 S! rowNum $end
$scope function mix_columns $end
$var reg 128 T! mix_columns [15:0] $end
$var reg 128 U! inp_mC [15:0] $end
$upscope $end
$scope function xtime $end
$var reg 8 V! xtime [7:0] $end
$var reg 8 W! num [7:0] $end
$upscope $end
$upscope $end
$scope module reg16_2 $end
$var integer 32 X! index $end
$var wire 1 ( clk $end
$var wire 1 : resetn $end
$var wire 1 Y! wr_en $end
$var wire 4 Z! round [3:0] $end
$var wire 128 .! inp_reg162_mC [15:0] $end
$var wire 128 +! inp_reg162_shf [15:0] $end
$var reg 128 [! aux [15:0] $end
$var reg 128 \! outp_reg162 [15:0] $end
$upscope $end
$upscope $end
$scope module decrypter $end
$var wire 1 ( clk $end
$var wire 1 : resetn $end
$var wire 1 ]! ctrl_dataIn_dec $end
$var wire 128 ^! dec_dataIn [127:0] $end
$var wire 128 _! dec_key [127:0] $end
$var reg 1 l ctrl_dataOut_dec $end
$var reg 4 `! dec_keyAddr [3:0] $end
$var reg 128 n dec_dataOut [127:0] $end
$var reg 128 a! auxData [15:0] $end
$var integer 32 b! i $end
$var integer 32 c! index $end
$var reg 4 d! dec_st [3:0] $end
$var reg 4 e! dec_st_next [3:0] $end
$var reg 4 f! round [3:0] $end
$var wire 8 g! dataOut1_demux [7:0] $end
$var wire 128 h! dataOut2_demux [15:0] $end
$var wire 8 i! dataOut_ROM [7:0] $end
$var reg 5 j! rom_cnt [4:0] $end
$var reg 1 k! req_rom $end
$var reg 1 l! shf_reg $end
$var wire 128 m! dataIn_shifter [15:0] $end
$var wire 128 n! dataOut_shifter [15:0] $end
$var reg 1 o! wr_shf $end
$var reg 1 p! wr_shf_delay $end
$var reg 1 q! outp_en_shf $end
$var reg 1 r! outp_en_shf_delay $end
$var wire 128 s! dataOut_mixColumns [15:0] $end
$var reg 1 t! wr_mC $end
$var reg 1 u! wr_mC_delay $end
$var wire 128 v! dataOut_reg162 [15:0] $end
$var reg 2 w! reg162_cnt [1:0] $end
$var reg 1 x! wr_reg162 $end
$var reg 1 y! wr_reg162_delay $end
$var wire 128 z! dataOut_reg161 [15:0] $end
$var reg 1 {! wr_reg161 $end
$var wire 128 |! dataIn_addRK [15:0] $end
$var reg 128 }! dataOut_addRK [15:0] $end
$var reg 1 ~! wr_addRK $end
$var wire 8 !" dataOut_reg163 [7:0] $end
$var reg 1 "" wr_reg163 $end
$var wire 128 #" key [127:0] $end
$var reg 1 $" mux1_chgInp $end
$var reg 1 %" mux2_chgInp $end
$var reg 1 &" end_st_reg $end
$scope module mux $end
$var wire 1 '" addr $end
$var wire 128 (" inp0 [15:0] $end
$var wire 128 v! inp1 [15:0] $end
$var reg 128 )" aux [15:0] $end
$var reg 128 *" outp [15:0] $end
$upscope $end
$scope module shifter $end
$var wire 1 ( clk $end
$var wire 1 : resetn $end
$var wire 128 m! inp_shf [15:0] $end
$var wire 1 +" outp_en $end
$var reg 128 ," aux [15:0] $end
$var reg 128 -" outp_shf [15:0] $end
$var integer 32 ." index $end
$upscope $end
$scope module reg16_3 $end
$var integer 32 /" index $end
$var wire 1 ( clk $end
$var wire 1 : resetn $end
$var wire 1 0" wr_en $end
$var wire 1 1" req_rom $end
$var wire 128 n! inp_reg163 [15:0] $end
$var reg 128 2" aux [15:0] $end
$var reg 4 3" n_read [3:0] $end
$var reg 4 4" n_read_delay [3:0] $end
$var reg 8 5" outp_reg163 [7:0] $end
$upscope $end
$scope module rom_Sbox $end
$var wire 1 ( clk $end
$var wire 1 : resetn $end
$var wire 8 !" addr_romSbox [7:0] $end
$var reg 8 6" outp_romSbox [7:0] $end
$upscope $end
$scope module reg16_1 $end
$var integer 32 7" index $end
$var wire 1 ( clk $end
$var wire 1 : resetn $end
$var wire 1 8" wr_en $end
$var wire 8 i! i [7:0] $end
$var reg 128 9" aux [15:0] $end
$var reg 4 :" counter [3:0] $end
$var reg 128 ;" o [15:0] $end
$upscope $end
$scope module mux2 $end
$var wire 1 <" addr $end
$var wire 128 =" inp0 [15:0] $end
$var wire 128 z! inp1 [15:0] $end
$var reg 128 >" aux [15:0] $end
$var reg 128 ?" outp [15:0] $end
$upscope $end
$scope module addRK $end
$var wire 1 ( clk $end
$var wire 1 : resetn $end
$var wire 128 #" inp_key_addRK [127:0] $end
$var wire 128 |! inp_addRK [15:0] $end
$var reg 128 }! outp_addRK [15:0] $end
$var integer 32 @" index $end
$var integer 32 A" row $end
$upscope $end
$scope module mixColumns $end
$var wire 1 ( clk $end
$var wire 1 : resetn $end
$var wire 128 B" inp_mC [15:0] $end
$var wire 1 C" wr_en $end
$var reg 128 D" lookup [15:0] $end
$var reg 128 E" temp [15:0] $end
$var reg 128 F" auxIn [15:0] $end
$var reg 128 G" outp_mC [15:0] $end
$var integer 32 H" index $end
$var integer 32 I" i $end
$var integer 32 J" j $end
$scope function invMixColumns $end
$var reg 128 K" invMixColumns [15:0] $end
$var reg 128 L" inp_mC [15:0] $end
$upscope $end
$scope function xtime $end
$var reg 8 M" xtime [7:0] $end
$var reg 8 N" num [7:0] $end
$upscope $end
$upscope $end
$scope module reg16_2 $end
$var integer 32 O" index $end
$var wire 1 ( clk $end
$var wire 1 : resetn $end
$var wire 1 P" wr_en $end
$var wire 4 Q" round [3:0] $end
$var wire 128 s! inp_reg162_mC [15:0] $end
$var wire 128 R" inp_reg162_shf [15:0] $end
$var reg 128 S" aux [15:0] $end
$var reg 128 T" outp_reg162 [15:0] $end
$upscope $end
$upscope $end
$scope module keygen $end
$var wire 1 ( clk $end
$var wire 1 : resetn $end
$var wire 128 U" kg_dataIn [127:0] $end
$var wire 1 V" ctrl_dataIn_kg $end
$var reg 128 W" kg_dataOut [127:0] $end
$var reg 1 r ctrl_dataOut_kg $end
$var reg 4 X" kg_st [3:0] $end
$var reg 4 Y" kg_st_next [3:0] $end
$var reg 8 Z" round [7:0] $end
$var reg 3 [" word_cnt [2:0] $end
$var reg 128 \" key_aux [127:0] $end
$var reg 3 ]" cond_getWord [2:0] $end
$var reg 2 ^" subWord_cnt [1:0] $end
$var reg 32 _" temp [3:0] $end
$var reg 1920 `" wordlist [239:0] $end
$var reg 56 a" Rcon [6:0] $end
$var integer 32 b" index $end
$var integer 32 c" i $end
$var integer 32 d" iAux $end
$var integer 32 e" iOut $end
$var reg 2 f" key_num [1:0] $end
$var reg 2 g" key_num_delay [1:0] $end
$var reg 32 h" dataIn_rotWord [3:0] $end
$var wire 32 i" dataOut_rotWord [3:0] $end
$var reg 1 j" wr_rotWord $end
$var wire 8 k" dataOut_subWord [7:0] $end
$var reg 1 l" end_st_reg $end
$scope module rotWord $end
$var wire 1 ( clk $end
$var wire 1 : resetn $end
$var wire 1 m" wr_rotWord $end
$var wire 32 n" inp_rotWord [3:0] $end
$var reg 32 o" outp_rotWord [3:0] $end
$upscope $end
$scope module subWord $end
$var wire 1 ( clk $end
$var wire 1 : resetn $end
$var wire 8 p" addr_subWord [7:0] $end
$var reg 8 q" outp_subWord [7:0] $end
$var integer 32 r" index $end
$upscope $end
$upscope $end
$scope module romKey $end
$var wire 1 ( clk $end
$var wire 1 : resetn $end
$var wire 4 s" addr_romKey [3:0] $end
$var wire 128 t inp_romKey [127:0] $end
$var wire 1 t" wrEn_romKey $end
$var reg 128 b outp_romKey [127:0] $end
$var reg 1920 u" rom [14:0] $end
$var reg 4 v" key_cnt [3:0] $end
$upscope $end
$upscope $end
$upscope $end
$scope task enableResetn $end
$upscope $end
$upscope $end
$enddefinitions $end
#0
$dumpvars
0!
bx !!
bx !"
x"
bx "!
x""
bx #
bx #!
bx #"
bx $
x$!
x$"
bx %
x%!
x%"
bx &
x&!
x&"
bx '
bx '!
x'"
0(
bx (!
bx ("
x)
x)!
bx )"
bx *
x*!
bx *"
bx +
bx +!
x+"
bx ,
x,!
bx ,"
bx -
x-!
bx -"
x.
bx .!
bx ."
x/
x/!
bx /"
x0
x0!
x0"
x1
bx 1!
x1"
x2
bx 2!
bx 2"
x3
x3!
bx 3"
z4
x4!
bx 4"
x5
bx 5!
bx 5"
bx 6
bx 6!
bx 6"
bx 7
bx 7!
bx 7"
bx 8
x8!
x8"
z9
bx 9!
bx 9"
z:
x:!
bx :"
x;
bx ;!
bx ;"
x<
bx <!
x<"
z=
bx =!
bx ="
z>
bx >!
bx >"
x?
bx ?!
bx ?"
z@
bx @!
bx @"
bz A
xA!
bx A"
xB
xB!
bx B"
bx C
bx C!
xC"
bx D
bx D!
bx D"
bx E
bx E!
bx E"
bx F
bx F!
bx F"
xG
bx G!
bx G"
zH
bx H!
bx H"
bz I
xI!
bx I"
xJ
bx J!
bx J"
bx K
bx K!
bx K"
bx L
bx L!
bx L"
bx M
xM!
b0 M"
bx N
bx N!
bx N"
1O
bx O!
bx O"
zP
bx P!
xP"
bz Q
bx Q!
bx Q"
xR
bx R!
bx R"
bx S
bx S!
bx S"
bx T
bx T!
bx T"
bx U
bx U!
bx U"
bx V
b0 V!
xV"
xW
bx W!
bx W"
bz X
bx X!
bx X"
xY
xY!
bx Y"
xZ
bx Z!
bx Z"
bx [
bx [!
bx ["
bx \
bx \!
bx \"
bx ]
x]!
bx ]"
bx ^
bx ^!
bx ^"
bx _
bx _!
bx _"
x`
bx `!
bx `"
xa
bx a!
bx a"
bx b
bx b!
bx b"
bx c
bx c!
bx c"
xd
bx d!
bx d"
xe
bx e!
bx e"
xf
bx f!
bx f"
bx g
bz g!
bx g"
bx h
bz h!
bx h"
bx i
bx i!
bx i"
xj
bx j!
xj"
xk
xk!
bx k"
xl
xl!
xl"
bx m
bx m!
xm"
bx n
bx n!
bx n"
bx o
xo!
bx o"
xp
xp!
bx p"
xq
xq!
bx q"
xr
xr!
bx r"
bx s
bx s!
bx s"
bx t
xt!
xt"
bx u
xu!
bx u"
xv
bx v!
bx v"
bx w
bx w!
xx
xx!
bx y
xy!
bx z
bx z!
bx {
x{!
bx |
bx |!
bx }
bx }!
bx ~
x~!
$end
#10000
1!
0""
0$!
0&"
1(
b0 (!
0)!
0+"
0.
0/
0/!
00
00"
01"
03!
08!
0<
b10000 >!
bx ?!
b10000 @"
0A!
bx A"
0B
0B!
0C"
0J
0M!
0P"
0R
0Y!
0Z
b0 ^
b0 ^"
b0 e"
0f
b0 j!
0j"
0k!
0l
0l"
0m"
bx p"
0q!
0r
0t!
0t"
0x!
#11000
0"
b0 #
b0 '
0)
b0 *
01
03
0?
b0 D
b0 E
b0 L
b0 M
b0 T
b0 U
0W
#20000
0!
0(
#30000
1!
0%!
1(
0*!
08"
b10000 >!
bx ?!
b10000 @"
bx A"
0I!
0Z
0f
0{!
#31000
1"
1)
#40000
0!
0(
#50000
1!
b1 '
1(
b10000 >!
bx ?!
b10000 @"
bx A"
0Z
#60000
0!
0(
#70000
1!
b10 '
1(
b10000 >!
bx ?!
b10000 @"
bx A"
0Z
#80000
0!
0(
#90000
1!
b11 '
1(
b10000 >!
bx ?!
b10000 @"
bx A"
0Z
#100000
0!
0(
#110000
1!
b10 #
b10 $
b11000000100000000100000000 &
b100 '
1(
b10 *
b10 +
b11000000100000000100000000 -
b10000 >!
bx ?!
b10000 @"
bx A"
0Z
#120000
0!
0(
#130000
1!
b111000001100000010100000100 &
b101 '
1(
b111000001100000010100000100 -
13
b10000 >!
bx ?!
b10000 @"
bx A"
1W
0Z
#140000
0!
0(
#150000
1!
b1011000010100000100100001000 &
b110 '
1(
b1011000010100000100100001000 -
b10000 >!
bx ?!
b10000 @"
bx A"
0Z
#160000
0!
0(
#170000
1!
b1111000011100000110100001100 &
b111 '
1(
b1111000011100000110100001100 -
b10000 >!
bx ?!
b10000 @"
bx A"
0Z
#180000
0!
0(
#190000
1!
b11000000100000000100000000 &
b1000 '
1(
b11000000100000000100000000 -
b10000 >!
bx ?!
b10000 @"
bx A"
0Z
#200000
0!
0(
#210000
1!
b111000001100000010100000100 &
b1001 '
1(
b111000001100000010100000100 -
b10000 >!
bx ?!
b10000 @"
bx A"
0Z
#220000
0!
0(
#230000
1!
b1011000010100000100100001000 &
b1010 '
1(
b1011000010100000100100001000 -
b10000 >!
bx ?!
b10000 @"
bx A"
0Z
#240000
0!
0(
#250000
1!
b1111000011100000110100001100 &
b1011 '
1(
b1111000011100000110100001100 -
b10000 >!
bx ?!
b10000 @"
bx A"
0Z
#260000
0!
0(
#270000
1!
b0 #
b1100 '
1(
b0 *
b10000 >!
bx ?!
b10000 @"
bx A"
0Z
#280000
0!
0(
#290000
1!
b1101 '
1(
03
b10000 >!
bx ?!
b10000 @"
bx A"
0W
0Z
#300000
0!
0(
#310000
1!
b1110 '
1(
b10000 >!
bx ?!
b10000 @"
bx A"
0Z
#320000
0!
0(
#330000
1!
b1111 '
1(
b10000 >!
bx ?!
b10000 @"
bx A"
0Z
#340000
0!
0(
#350000
1!
b10000 '
1(
b10000 >!
bx ?!
b10000 @"
bx A"
0Z
#360000
0!
0(
#370000
1!
b10001 '
1(
b10000 >!
bx ?!
b10000 @"
bx A"
0Z
#380000
0!
0(
#390000
1!
b10010 '
1(
b10000 >!
bx ?!
b10000 @"
bx A"
0Z
#400000
0!
0(
#410000
1!
b10011 '
1(
b10000 >!
bx ?!
b10000 @"
bx A"
0Z
#420000
0!
0(
#430000
1!
b10100 '
1(
b10000 >!
bx ?!
b10000 @"
bx A"
0Z
#440000
0!
0(
#450000
1!
b10 #
b1 $
b11000100101011010011101001100011 %
b10101 '
1(
b10 *
b1 +
b11000100101011010011101001100011 ,
b10000 >!
bx ?!
b10000 @"
bx A"
0Z
#460000
0!
0(
#470000
1!
b11010110101100110101011000111100 %
b10110 '
1(
b11010110101100110101011000111100 ,
13
b10000 >!
bx ?!
b10000 @"
bx A"
1W
0Z
#480000
0!
0(
#490000
1!
b11111110101111001001001111101010 %
b10111 '
1(
b11111110101111001001001111101010 ,
b10000 >!
bx ?!
b10000 @"
bx A"
0Z
#500000
0!
0(
#510000
1!
b1111010010110000100110110011001 %
b11000 '
1(
b1111010010110000100110110011001 ,
b10000 >!
bx ?!
b10000 @"
bx A"
0Z
#520000
0!
0(
#530000
1!
b0 #
b11001 '
1(
b0 *
b10000 >!
bx ?!
b10000 @"
bx A"
0Z
#540000
0!
0(
#550000
1!
b10 #
b10100111000000110000111000110001 %
b11010 '
1(
b10 *
b10100111000000110000111000110001 ,
03
b10000 >!
bx ?!
b10000 @"
bx A"
0W
0Z
#560000
0!
0(
#570000
1!
b10100100011110011001000111111110 %
b11011 '
1(
b10100100011110011001000111111110 ,
13
b10000 >!
bx ?!
b10000 @"
bx A"
1W
0Z
#580000
0!
0(
#590000
1!
b110110110100000110110110101010 %
b11100 '
1(
b110110110100000110110110101010 ,
b10000 >!
bx ?!
b10000 @"
bx A"
0Z
#600000
0!
0(
#610000
1!
b11101010011110110011000000000010 %
b11101 '
1(
b11101010011110110011000000000010 ,
b10000 >!
bx ?!
b10000 @"
bx A"
0Z
#620000
0!
0(
#630000
1!
b0 #
b11110 '
1(
b0 *
b10000 >!
bx ?!
b10000 @"
bx A"
0Z
#640000
0!
0(
#650000
1!
b10 #
b11000100101011010011101001100011 %
b11111 '
1(
b10 *
b11000100101011010011101001100011 ,
03
b10000 >!
bx ?!
b10000 @"
bx A"
0W
0Z
#660000
0!
0(
#670000
1!
b11010110101100110101011000111100 %
b100000 '
1(
b11010110101100110101011000111100 ,
13
b10000 >!
bx ?!
b10000 @"
bx A"
1W
0Z
#680000
0!
0(
#690000
1!
b11111110101111001001001111101010 %
b100001 '
1(
b11111110101111001001001111101010 ,
b10000 >!
bx ?!
b10000 @"
bx A"
0Z
#700000
0!
0(
#710000
1!
b1111010010110000100110110011001 %
b100010 '
1(
b1111010010110000100110110011001 ,
b10000 >!
bx ?!
b10000 @"
bx A"
0Z
#720000
0!
0(
#730000
1!
b0 #
b100011 '
1(
b0 *
b10000 >!
bx ?!
b10000 @"
bx A"
0Z
#740000
0!
0(
#750000
1!
b100100 '
1(
03
b10000 >!
bx ?!
b10000 @"
bx A"
0W
0Z
#760000
0!
0(
#770000
1!
b100101 '
1(
b10000 >!
bx ?!
b10000 @"
bx A"
0Z
#780000
0!
0(
#790000
1!
b100110 '
1(
b10000 >!
bx ?!
b10000 @"
bx A"
0Z
#800000
0!
0(
#810000
1!
b100111 '
1(
b10000 >!
bx ?!
b10000 @"
bx A"
0Z
#820000
0!
0(
#830000
1!
b101000 '
1(
b10000 >!
bx ?!
b10000 @"
bx A"
0Z
#840000
0!
0(
#850000
1!
b101001 '
1(
b10000 >!
bx ?!
b10000 @"
bx A"
0Z
#860000
0!
0(
#870000
1!
b101010 '
1(
b10000 >!
bx ?!
b10000 @"
bx A"
0Z
#880000
0!
0(
#890000
1!
b101011 '
1(
b10000 >!
bx ?!
b10000 @"
bx A"
0Z
#900000
0!
0(
#910000
1!
b101100 '
1(
b10000 >!
bx ?!
b10000 @"
bx A"
0Z
#920000
0!
0(
#930000
1!
b101101 '
1(
b10000 >!
bx ?!
b10000 @"
bx A"
0Z
#940000
0!
0(
#950000
1!
b101110 '
1(
b10000 >!
bx ?!
b10000 @"
bx A"
0Z
#960000
0!
0(
#970000
1!
b101111 '
1(
b10000 >!
bx ?!
b10000 @"
bx A"
0Z
#980000
0!
0(
#990000
1!
b110000 '
1(
b10000 >!
bx ?!
b10000 @"
bx A"
0Z
#1000000
0!
0(
#1010000
1!
b110001 '
1(
b10000 >!
bx ?!
b10000 @"
bx A"
0Z
#1020000
0!
0(
#1030000
1!
b110010 '
1(
b10000 >!
bx ?!
b10000 @"
bx A"
0Z
#1040000
0!
0(
#1050000
1!
b110011 '
1(
b10000 >!
bx ?!
b10000 @"
bx A"
0Z
#1060000
0!
0(
#1070000
1!
b110100 '
1(
b10000 >!
bx ?!
b10000 @"
bx A"
0Z
#1080000
0!
0(
#1090000
1!
b110101 '
1(
b10000 >!
bx ?!
b10000 @"
bx A"
0Z
#1100000
0!
0(
#1110000
1!
b110110 '
1(
b10000 >!
bx ?!
b10000 @"
bx A"
0Z
#1120000
0!
0(
#1130000
1!
b110111 '
1(
b10000 >!
bx ?!
b10000 @"
bx A"
0Z
#1140000
0!
0(
#1150000
1!
b111000 '
1(
b10000 >!
bx ?!
b10000 @"
bx A"
0Z
#1160000
0!
0(
#1170000
1!
b111001 '
1(
b10000 >!
bx ?!
b10000 @"
bx A"
0Z
#1180000
0!
0(
#1190000
1!
b111010 '
1(
b10000 >!
bx ?!
b10000 @"
bx A"
0Z
#1200000
0!
0(
#1210000
1!
b111011 '
1(
b10000 >!
bx ?!
b10000 @"
bx A"
0Z
#1220000
0!
0(
#1230000
1!
b111100 '
1(
b10000 >!
bx ?!
b10000 @"
bx A"
0Z
#1240000
0!
0(
#1250000
1!
b111101 '
1(
b10000 >!
bx ?!
b10000 @"
bx A"
0Z
#1260000
0!
0(
#1270000
1!
b111110 '
1(
b10000 >!
bx ?!
b10000 @"
bx A"
0Z
#1280000
0!
0(
#1290000
1!
b111111 '
1(
b10000 >!
bx ?!
b10000 @"
bx A"
0Z
#1300000
0!
0(
#1310000
1!
b1000000 '
1(
b10000 >!
bx ?!
b10000 @"
bx A"
0Z
#1320000
0!
0(
#1330000
1!
b1000001 '
1(
b10000 >!
bx ?!
b10000 @"
bx A"
0Z
#1340000
0!
0(
#1350000
1!
b1000010 '
1(
b10000 >!
bx ?!
b10000 @"
bx A"
0Z
#1360000
0!
0(
#1370000
1!
b1000011 '
1(
b10000 >!
bx ?!
b10000 @"
bx A"
0Z
#1380000
0!
0(
#1390000
1!
b1000100 '
1(
b10000 >!
bx ?!
b10000 @"
bx A"
0Z
#1400000
0!
0(
#1410000
1!
b1000101 '
1(
b10000 >!
bx ?!
b10000 @"
bx A"
0Z
#1420000
0!
0(
#1430000
1!
b1000110 '
1(
b10000 >!
bx ?!
b10000 @"
bx A"
0Z
#1440000
0!
0(
#1450000
1!
b1000111 '
1(
b10000 >!
bx ?!
b10000 @"
bx A"
0Z
#1460000
0!
0(
#1470000
1!
b1001000 '
1(
b10000 >!
bx ?!
b10000 @"
bx A"
0Z
#1480000
0!
0(
#1490000
1!
b1001001 '
1(
b10000 >!
bx ?!
b10000 @"
bx A"
0Z
#1500000
0!
0(
#1510000
1!
b1001010 '
1(
b10000 >!
bx ?!
b10000 @"
bx A"
0Z
#1520000
0!
0(
#1530000
1!
b1001011 '
1(
b10000 >!
bx ?!
b10000 @"
bx A"
0Z
#1540000
0!
0(
#1550000
1!
b1001100 '
1(
b10000 >!
bx ?!
b10000 @"
bx A"
0Z
#1560000
0!
0(
#1570000
1!
b1001101 '
1(
b10000 >!
bx ?!
b10000 @"
bx A"
0Z
#1580000
0!
0(
#1590000
1!
b1001110 '
1(
b10000 >!
bx ?!
b10000 @"
bx A"
0Z
#1600000
0!
0(
#1610000
1!
b1001111 '
1(
b10000 >!
bx ?!
b10000 @"
bx A"
0Z
#1620000
0!
0(
#1630000
1!
b1010000 '
1(
b10000 >!
bx ?!
b10000 @"
bx A"
0Z
#1640000
0!
0(
#1650000
1!
b1010001 '
1(
b10000 >!
bx ?!
b10000 @"
bx A"
0Z
#1660000
0!
0(
#1670000
1!
b1010010 '
1(
b10000 >!
bx ?!
b10000 @"
bx A"
0Z
#1680000
0!
0(
#1690000
1!
b1010011 '
1(
b10000 >!
bx ?!
b10000 @"
bx A"
0Z
#1700000
0!
0(
#1710000
1!
b1010100 '
1(
b10000 >!
bx ?!
b10000 @"
bx A"
0Z
#1720000
0!
0(
#1730000
1!
b1010101 '
1(
b10000 >!
bx ?!
b10000 @"
bx A"
0Z
#1740000
0!
0(
#1750000
1!
b1010110 '
1(
b10000 >!
bx ?!
b10000 @"
bx A"
0Z
#1760000
0!
0(
#1770000
1!
b1010111 '
1(
b10000 >!
bx ?!
b10000 @"
bx A"
0Z
#1780000
0!
0(
#1790000
1!
b1011000 '
1(
b10000 >!
bx ?!
b10000 @"
bx A"
0Z
#1800000
0!
0(
#1810000
1!
b1011001 '
1(
b10000 >!
bx ?!
b10000 @"
bx A"
0Z
#1820000
0!
0(
#1830000
1!
b1011010 '
1(
b10000 >!
bx ?!
b10000 @"
bx A"
0Z
#1840000
0!
0(
#1850000
1!
b1011011 '
1(
b10000 >!
bx ?!
b10000 @"
bx A"
0Z
#1860000
0!
0(
