verilogCode/tb/wv_mod_enc_shifter.vcd
$date
	Tue Sep  7 19:26:34 2021
$end
$version
	Icarus Verilog
$end
$timescale
	10ps
$end
$scope module tb_mod_enc_shifter $end
$var wire 32 ! o00 [31:0] $end
$var wire 1 " done $end
$var reg 1 # clk $end
$var reg 32 $ p00 [31:0] $end
$var reg 1 % resetn $end
$var reg 1 & wr_en $end
$var integer 32 ' index [31:0] $end
$scope module DUT $end
$var wire 1 # clk $end
$var wire 32 ( inp [31:0] $end
$var wire 1 % resetn $end
$var wire 1 & wr_en $end
$var reg 1 " done $end
$var reg 32 ) outp [31:0] $end
$var reg 1 * reg_wrEn $end
$var reg 2 + row [1:0] $end
$upscope $end
$scope task test_shifter_row0 $end
$upscope $end
$scope task test_shifter_row1 $end
$upscope $end
$scope task test_shifter_row2 $end
$upscope $end
$scope task test_shifter_row3 $end
$upscope $end
$upscope $end
$enddefinitions $end
#0
$dumpvars
bx +
x*
bx )
bx (
bx '
x&
0%
bx $
0#
x"
bx !
$end
#1000
1"
b0 +
1#
#2000
0#
b100 '
b11000000100000000100000000 $
b11000000100000000100000000 (
1%
#3000
b1 +
0"
b11000000100000000100000000 !
b11000000100000000100000000 )
0*
0&
1#
#4000
0#
#5000
1"
1#
#6000
0#
#7000
b10 +
0"
b110000001000000001 !
b110000001000000001 )
1#
0&
#8000
0#
#9000
1"
1#
#10000
0#
#11000
b11 +
0"
b1000000000000001100000010 !
b1000000000000001100000010 )
1#
0&
#12000
0#
#13000
1"
1#
#14000
0#
#15000
b0 +
0"
b10000000010000000000000011 !
b10000000010000000000000011 )
1#
0&
#16000
0#
#17000
1"
1#
#18000
0#
#19000
1*
1#
1&
