Vivado_projects/AES256_encrypt/AES256_encrypt.sim/sim_1/behav/xsim/wv_AES256_enc.vcd
$date
   Sun Nov 28 20:21:07 2021
$end
$version
  2020.2
$end
$timescale
  1ps
$end
$scope module tb_AES256_enc $end
$var reg 1 ! clk $end
$var reg 1 " resetn $end
$var reg 1 # ctrl_dataIn $end
$var reg 128 $ inpAES [127:0] $end
$var wire 1 % ctrl_dataOut $end
$var wire 128 & outAES [127:0] $end
$var integer 32 ' index $end
$var integer 32 ( i $end
$scope module DUT $end
$var wire 1 ) clk $end
$var wire 1 * resetn $end
$var wire 128 + inpAES [127:0] $end
$var wire 1 , ctrl_dataIn $end
$var reg 1 - ctrl_dataOut $end
$var reg 128 . outAES [127:0] $end
$var reg 128 / auxData [15:0] $end
$var integer 32 0 i $end
$var integer 32 1 index $end
$var reg 4 2 aes_st [3:0] $end
$var reg 4 3 aes_st_next [3:0] $end
$var reg 4 4 round [3:0] $end
$var wire 128 5 dataOut_reg416 [15:0] $end
$var wire 1 6 reg416_empty $end
$var wire 1 7 reg416_full $end
$var wire 8 8 dataOut1_demux [7:0] $end
$var wire 128 9 dataOut2_demux [15:0] $end
$var wire 8 : dataOut_ROM [7:0] $end
$var reg 5 ; rom_cnt [4:0] $end
$var reg 1 < req_rom $end
$var reg 1 = shf_reg $end
$var wire 128 > dataOut_shifter [15:0] $end
$var reg 1 ? wr_shf $end
$var reg 1 @ wr_shf_delay $end
$var reg 1 A outp_en_shf $end
$var reg 1 B outp_en_shf_delay $end
$var wire 128 C dataOut_mixColumns [15:0] $end
$var wire 128 D dataOut_demux_0 [15:0] $end
$var reg 1 E wr_mC $end
$var reg 1 F wr_mC_delay $end
$var wire 128 G dataOut_reg16_2 [15:0] $end
$var wire 128 H dataOut_demux_1 [15:0] $end
$var reg 2 I reg162_cnt [1:0] $end
$var reg 1 J wr_reg162 $end
$var reg 1 K wr_reg162_delay $end
$var wire 128 L dataIn_addRK [15:0] $end
$var reg 128 M dataOut_addRK [15:0] $end
$var wire 8 N dataOut_reg163 [7:0] $end
$var reg 1 O wr_reg163 $end
$var wire 128 P key [127:0] $end
$scope module mux $end
$var wire 4 Q addr [3:0] $end
$var wire 128 R inp0 [15:0] $end
$var wire 128 G inp1 [15:0] $end
$var reg 128 S aux [15:0] $end
$var reg 128 T outp [15:0] $end
$upscope $end
$scope module addRK $end
$var wire 1 ) clk $end
$var wire 1 * resetn $end
$var wire 128 P inp_key_addRK [127:0] $end
$var wire 128 L inp_addRK [15:0] $end
$var reg 128 M outp_addRK [15:0] $end
$var integer 32 U index $end
$var integer 32 V row $end
$upscope $end
$scope module rom_key $end
$var wire 1 ) clk $end
$var wire 1 * resetn $end
$var wire 4 W addr_romKey [3:0] $end
$var reg 128 X outp_romKey [127:0] $end
$upscope $end
$scope module reg16_3 $end
$var integer 32 Y index $end
$var wire 1 ) clk $end
$var wire 1 * resetn $end
$var wire 1 Z wr_en $end
$var wire 1 [ req_rom $end
$var wire 128 \ inp_reg163 [15:0] $end
$var reg 128 ] aux [15:0] $end
$var reg 4 ^ n_read [3:0] $end
$var reg 4 _ n_read_delay [3:0] $end
$var reg 8 ` outp_reg163 [7:0] $end
$upscope $end
$scope module rom_Sbox $end
$var wire 1 ) clk $end
$var wire 1 * resetn $end
$var wire 8 N addr_romSbox [7:0] $end
$var reg 8 a outp_romSbox [7:0] $end
$var integer 32 b index $end
$upscope $end
$scope module shifter $end
$var wire 1 ) clk $end
$var wire 1 * resetn $end
$var wire 1 c wr_en $end
$var wire 8 : inp_shf [7:0] $end
$var wire 1 d outp_en $end
$var reg 128 e aux [15:0] $end
$var reg 4 f counter [3:0] $end
$var wire 128 > outp_shf [15:0] $end
$var integer 32 g index $end
$upscope $end
$scope module mixColumns $end
$var wire 1 ) clk $end
$var wire 1 * resetn $end
$var wire 128 > inp_mC [15:0] $end
$var wire 1 h wr_en $end
$var reg 32 i row [3:0] $end
$var reg 128 j temp [15:0] $end
$var reg 128 k auxIn [15:0] $end
$var reg 128 l outp_mC [15:0] $end
$var integer 32 m index $end
$var integer 32 n rowNum $end
$scope function mix_columns $end
$var reg 128 o mix_columns [15:0] $end
$var reg 128 p inp_mC [15:0] $end
$upscope $end
$scope function xtime $end
$var reg 8 q xtime [7:0] $end
$var reg 8 r num [7:0] $end
$upscope $end
$upscope $end
$scope module reg16_2 $end
$var integer 32 s index $end
$var wire 1 ) clk $end
$var wire 1 * resetn $end
$var wire 1 t wr_en $end
$var wire 4 u round [3:0] $end
$var wire 128 C inp_reg162_mC [15:0] $end
$var wire 128 > inp_reg162_shf [15:0] $end
$var reg 128 v aux [15:0] $end
$var reg 128 w outp_reg162 [15:0] $end
$upscope $end
$upscope $end
$scope task enableResetn $end
$upscope $end
$scope task test_AES_encryption $end
$upscope $end
$upscope $end
$enddefinitions $end
#0
$dumpvars
0!
x"
x#
bx $
x%
bx &
bx '
b0 (
0)
x*
bx +
x,
x-
bx .
bx /
bx 0
bx 1
bx 2
bx 3
bx 4
bz 5
z6
z7
bz 8
bz 9
bx :
bx ;
x<
x=
bx >
x?
x@
xA
xB
bx C
bz D
xE
xF
bx G
bz H
bx I
xJ
xK
bx L
bx M
bx N
xO
bx P
bx Q
bx R
bx S
bx T
bx U
bx V
bx W
bx X
bx Y
xZ
x[
bx \
bx ]
bx ^
bx _
bx `
bx a
bx b
xc
xd
bx e
bx f
bx g
xh
bx i
bx j
bx k
bx l
bx m
bx n
bx o
bx p
b0 q
bx r
bx s
xt
bx u
bx v
bx w
$end
#10000
1!
0%
1)
0-
b0 ;
0<
0A
0E
0J
0O
b10000 U
b0 V
0Z
0[
0d
0h
0t
#11000
0"
bx0000000000000000 &
0*
bx0000000000000000 .
b10000 0
b0 2
b0 3
b0 4
b1100011 :
0=
b0 >
0?
b0 C
b0 G
b0 M
b0 N
b1111000011100000110100001100000010110000101000001001000010000000011100000110000001010000010000000011000000100000000100000000 P
b0 Q
bx T
b10000 U
b0 W
b1111000011100000110100001100000010110000101000001001000010000000011100000110000001010000010000000011000000100000000100000000 X
b10000 Y
b0 \
b0 ]
b0 ^
b0 _
b0 `
b1100011 a
0c
b0 e
b0 f
b10000 g
b0 k
b0 l
b10000 m
b10000 s
b0 u
b0 v
b0 w
#20000
0!
0)
#30000
1!
1)
b10000 0
b0 M
b10000 U
b10000 Y
b10000 g
b0 k
b10000 m
b10000 s
#31000
1"
1*
#40000
0!
0)
#50000
1!
1#
1)
1,
b100 1
b1 3
b1100011000000000000000000000000000000000000000000000000000000000000000000000000000000000000000000000000 >
bx M
b10000 U
b0 V
bx \
b1100011000000000000000000000000000000000000000000000000000000000000000000000000000000000000000000000000000000000000000000000000 e
#60000
0!
0)
#70000
1!
b100000000000000000000000000000000110000000000000000000000000000001000000000000000000000000000000001000000000000000000000000 $
1)
b100000000000000000000000000000000110000000000000000000000000000001000000000000000000000000000000001000000000000000000000000 +
b100000000000000000000000000000000110000000000000000000000000000001000000000000000000000000000000001000000000000000000000000 /
b100 1
b1 2
b10 3
b100000000000000000000000000000000110000000000000000000000000000001000000000000000000000000000000001000000000000000000000000 L
b100000000000000000000000000000000110000000000000000000000000000001000000000000000000000000000000001000000000000000000000000 R
b100000000000000000000000000000000110000000000000000000000000000001000000000000000000000000000000001000000000000000000000000 T
b10000 U
b0 V
#80000
0!
0)
#90000
1!
1)
b100 1
b10 2
b11 3
b1011000011100000110100001100000010000000101000001001000010000000010100000110000001010000010000000010000000100000000100000000 M
b10000 U
b0 V
b1011000011100000110100001100000010000000101000001001000010000000010100000110000001010000010000000010000000100000000100000000 \
#100000
0!
0)
#110000
1!
1)
b100 1
b11 2
1?
1O
b10000 U
b0 V
1Z
#120000
0!
0)
#130000
1!
1)
b100 1
b1 ;
1<
0O
b10000 U
b0 V
0Z
1[
b1011000011100000110100001100000010000000101000001001000010000000010100000110000001010000010000000010000000100000000100000000 ]
b0 `
#140000
0!
0)
#150000
1!
1)
b100 1
b1111100 :
b10 ;
1=
b1 N
b10000 U
b0 V
b1 ^
b1 `
b1111100 a
1c
#160000
0!
0)
#170000
1!
1)
b100 1
b1110111 :
b11 ;
b1100011000000000000000001111100000000000000000000000000000000000000000000000000000000000000000000000000000000000000000000000000 >
b10 N
b10000 U
b0 V
b10 ^
b1 _
b10 `
b1110111 a
b1111100011000110000000000000000000000000000000000000000000000000000000000000000000000000000000000000000000000000000000000000000 e
b1 f
b0 g
#180000
0!
0)
#190000
1!
1)
b100 1
b100 ;
b1111100011000110000000001110111000000000000000000000000000000000000000000000000000000000000000000000000000000000000000000000000 >
b10000 U
b0 V
b11 ^
b10 _
b10 `
b1110111011111000110001100000000000000000000000000000000000000000000000000000000000000000000000000000000000000000000000000000000 e
b10 f
b0 g
#200000
0!
0)
#210000
1!
1)
b100 1
b11110010 :
b101 ;
b1110111011111000110001101110111000000000000000000000000000000000000000000000000000000000000000000000000000000000000000000000000 >
b100 N
b10000 U
b0 V
b100 ^
b11 _
b100 `
b11110010 a
b1110111011101110111110001100011000000000000000000000000000000000000000000000000000000000000000000000000000000000000000000000000 e
b11 f
b0 g
#220000
0!
0)
#230000
1!
1)
b100 1
b1101011 :
b110 ;
b1110111011101110111110011110010000000000000000001100011000000000000000000000000000000000000000000000000000000000000000000000000 >
b101 N
b10000 U
b0 V
b101 ^
b100 _
b101 `
b1101011 a
b11110010011101110111011101111100011000110000000000000000000000000000000000000000000000000000000000000000000000000000000000000000 e
b100 f
b0 g
#240000
0!
0)
#250000
1!
1)
b100 1
b1101111 :
b111 ;
b11110010011101110111011101101011000000000000000001111100011000110000000000000000000000000000000000000000000000000000000000000000 >
b110 N
b10000 U
b0 V
b110 ^
b101 _
b110 `
b1101111 a
b1101011111100100111011101110111011111000110001100000000000000000000000000000000000000000000000000000000000000000000000000000000 e
b101 f
b0 g
#260000
0!
0)
#270000
1!
1)
b100 1
b1101011 :
b1000 ;
b1101011111100100111011101101111011000110000000001110111011111000000000000000000000000000000000000000000000000000000000000000000 >
b101 N
b10000 U
b0 V
b111 ^
b110 _
b101 `
b1101011 a
b1101111011010111111001001110111011101110111110001100011000000000000000000000000000000000000000000000000000000000000000000000000 e
b110 f
b0 g
#280000
0!
0)
#290000
1!
1)
b100 1
b110000 :
b1001 ;
b1101111011010111111001001101011011111000110001101110111011101110000000000000000000000000000000000000000000000000000000000000000 >
b1000 N
b10000 U
b0 V
b1000 ^
b111 _
b1000 `
b110000 a
b1101011011011110110101111110010011101110111011101111100011000110000000000000000000000000000000000000000000000000000000000000000 e
b111 f
b0 g
#300000
0!
0)
#310000
1!
1)
b100 1
b1 :
b1010 ;
b1101011011011110110101100110000011101110111110011110010011101110000000001100011000000000000000000000000000000000000000000000000 >
b1001 N
b10000 U
b0 V
b1001 ^
b1000 _
b1001 `
b1 a
b110000011010110110111101101011111100100111011101110111011111000110001100000000000000000000000000000000000000000000000000000000 e
b1000 f
b0 g
#320000
0!
0)
#330000
1!
1)
b100 1
b1100111 :
b1011 ;
b110000011010110110111100000001011101110111011101101011111100100000000001111100011000110000000000000000000000000000000000000000 >
b1010 N
b10000 U
b0 V
b1010 ^
b1001 _
b1010 `
b1100111 a
b1001100000110101101101111011010111111001001110111011101110111110001100011000000000000000000000000000000000000000000000000 e
b1001 f
b0 g
#340000
0!
0)
#350000
1!
1)
b100 1
b110000 :
b1100 ;
b1001100000110101101100111111100100111011101101111011010110000000001110111011111000110001100000000000000000000000000000000 >
b1000 N
b10000 U
b0 V
b1011 ^
b1010 _
b1000 `
b110000 a
b1100111000000010011000001101011011011110110101111110010011101110111011101111100011000110000000000000000000000000000000000000000 e
b1010 f
b0 g
#360000
0!
0)
#370000
1!
1)
b100 1
b11111110 :
b1101 ;
b1100111000000010011000000110000011010111111001001101011011011110110001101110111011101110111110000000000000000000000000000000000 >
b1100 N
b10000 U
b0 V
b1100 ^
b1011 _
b1100 `
b11111110 a
b110000011001110000000100110000011010110110111101101011111100100111011101110111011111000110001100000000000000000000000000000000 e
b1011 f
b0 g
#380000
0!
0)
#390000
1!
1)
b100 1
b11010111 :
b1110 ;
b110000011001110000000111111110011011110110101100110000011010110111110011110010011101110111011101100011000000000000000000000000 >
b1101 N
b10000 U
b0 V
b1101 ^
b1100 _
b1101 `
b11010111 a
b11111110001100000110011100000001001100000110101101101111011010111111001001110111011101110111110001100011000000000000000000000000 e
b1100 f
b0 g
#400000
0!
0)
#410000
1!
1)
b100 1
b100 3
b10101011 :
b1111 ;
b11111110001100000110011111010111011010110110111100000001001100000111011101101011111100100111011101111100011000110000000000000000 >
b1110 N
b10000 U
b0 V
b1110 ^
b1101 _
b1110 `
b10101011 a
b11010111111111100011000001100111000000010011000001101011011011110110101111110010011101110111011101111100011000110000000000000000 e
b1101 f
b0 g
#420000
0!
0)
#430000
1!
1)
b100 1
b100 2
b101 3
b101011 :
b10000 ;
b11010111111111100011000010101011001100000110101101100111000000010111011101101111011010111111001001110111011111000110001100000000 >
b1011 N
b10000 U
b0 V
b1111 ^
b1110 _
b1011 `
b101011 a
b10101011110101111111111000110000011001110000000100110000011010110110111101101011111100100111011101110111011111000110001100000000 e
b1110 f
b0 g
#440000
0!
0)
#450000
1!
1)
b100 1
b101 2
b110 3
b1100011 :
b10001 ;
0<
b10101011110101111111111000101011000000010011000000110000011001111111001001101011011011110110101101110111011101110111110001100011 >
0?
b0 N
b10000 U
b0 V
0[
b0 ^
b1111 _
b0 `
b1100011 a
b101011101010111101011111111110001100000110011100000001001100000110101101101111011010111111001001110111011101110111110001100011 e
b1111 f
b0 g
#460000
0!
0)
#470000
1!
1)
b100 1
b110 2
b111 3
b0 ;
0=
b101011101010111101011101100011011001110000000111111110001100000110101100110000011010110110111111110010011101110111011101111100 >
1A
b10000 U
b0 V
0c
1d
b1100011001010111010101111010111111111100011000001100111000000010011000001101011011011110110101111110010011101110111011101111100 e
b0 f
b0 g
#480000
0!
0)
#490000
1!
1)
b100 1
b111 2
b1100 3
0A
1E
b10000 U
b0 V
0d
1h
#500000
0!
0)
#510000
1!
1)
b100 1
b1100 2
b1 3
b10001111100001000001101100100100011000010110010110110011000111110011110011011001100000100011100001111011111010001111100111100100 C
0E
1J
b10000 U
b0 V
0h
b101011101010111101011101100011 i
b10001111100001000001101100100100011000010110010110110011000111110011110011011001100000100011100001111011111010001111100111100100 j
b10001111100001000001101100100100011000010110010110110011000111110011110011011001100000100011100001111011111010001111100111100100 k
b10001111100001000001101100100100011000010110010110110011000111110011110011011001100000100011100001111011111010001111100111100100 l
b100 m
b100 n
b10001111100001000001101100100100011000010110010110110011000111110011110011011001100000100011100001111011111010001111100111100100 o
b101011101010111101011101100011011001110000000111111110001100000110101100110000011010110110111111110010011101110111011101111100 p
b1010110 q
b101011 r
1t
#520000
0!
0)
#530000
1!
1)
b100 1
b1 2
b10 3
b1 4
b10001111100001000001101100100100011000010110010110110011000111110011110011011001100000100011100001111011111010001111100111100100 G
0J
b10001111100001000001101100100100011000010110010110110011000111110011110011011001100000100011100001111011111010001111100111100100 L
b1 Q
b10001111100001000001101100100100011000010110010110110011000111110011110011011001100000100011100001111011111010001111100111100100 T
b10000 U
b0 V
b1 W
b1111000011100000110100001100000010110000101000001001000010000000011100000110000001010000010000000011000000100000000100000000 X
0t
b1 u
b10001111100001000001101100100100011000010110010110110011000111110011110011011001100000100011100001111011111010001111100111100100 v
b10001111100001000001101100100100011000010110010110110011000111110011110011011001100000100011100001111011111010001111100111100100 w
#540000
0!
0)
#550000
1!
1)
b100 1
b10 2
b11 3
b10000000100010100001011000101000011010100110111110111010000101110011101111011111100001110011110001111000111010101111100011100100 M
b10000 U
b0 V
b10000000100010100001011000101000011010100110111110111010000101110011101111011111100001110011110001111000111010101111100011100100 \
#560000
0!
0)
#570000
1!
1)
b100 1
b11 2
1?
1O
b10000 U
b0 V
1Z
#580000
0!
0)
#590000
1!
1)
b100 1
b1101001 :
b1 ;
1<
b11100100 N
0O
b10000 U
b0 V
0Z
1[
b10000000100010100001011000101000011010100110111110111010000101110011101111011111100001110011110001111000111010101111100011100100 ]
b11100100 `
b1101001 a
#600000
0!
0)
#610000
1!
1)
b100 1
b1000001 :
b10 ;
1=
b101011101010111101011101101001011001110000000111111110001100000110101100110000011010110110111111110010011101110111011101111100 >
b11111000 N
b10000 U
b0 V
b1 ^
b0 _
b11111000 `
b1000001 a
1c
b1101001001010111010101111010111111111100011000001100111000000010011000001101011011011110110101111110010011101110111011101111100 e
#620000
0!
0)
#630000
1!
1)
b100 1
b10000111 :
b11 ;
b1101001001010111010101101000001001100000110011111010111111111100110111100000001001100000110101101101011111100100111011101110111 >
b11101010 N
b10000 U
b0 V
b10 ^
b1 _
b11101010 `
b10000111 a
b1000001011010010010101110101011110101111111111000110000011001110000000100110000011010110110111101101011111100100111011101110111 e
b1 f
b0 g
#640000
0!
0)
#650000
1!
1)
b100 1
b10111100 :
b100 ;
b1000001011010010010101110000111111111100011000010101011110101110110101101100111000000010011000001101111011010111111001001110111 >
b1111000 N
b10000 U
b0 V
b11 ^
b10 _
b1111000 `
b10111100 a
b10000111010000010110100100101011101010111101011111111110001100000110011100000001001100000110101101101111011010111111001001110111 e
b10 f
b0 g
#660000
0!
0)
#670000
1!
1)
b100 1
b11101011 :
b101 ;
b10000111010000010110100110111100110101111111111000101011101010110011000000110000011001110000000101101011011011110110101111110010 >
b111100 N
b10000 U
b0 V
b100 ^
b11 _
b111100 `
b11101011 a
b10111100100001110100000101101001001010111010101111010111111111100011000001100111000000010011000001101011011011110110101111110010 e
b11 f
b0 g
#680000
0!
0)
#690000
1!
1)
b100 1
b10111 :
b110 ;
b10111100100001110100000111101011101010111101011101101001001010110000000111111110001100000110011100110000011010110110111101101011 >
b10000111 N
b10000 U
b0 V
b101 ^
b100 _
b10000111 `
b10111 a
b11101011101111001000011101000001011010010010101110101011110101111111111000110000011001110000000100110000011010110110111101101011 e
b100 f
b0 g
#700000
0!
0)
#710000
1!
1)
b100 1
b10011110 :
b111 ;
b11101011101111001000011100010111001010111010101101000001011010010110011111010111111111100011000000000001001100000110101101101111 >
b11011111 N
b10000 U
b0 V
b110 ^
b101 _
b11011111 `
b10011110 a
b10111111010111011110010000111010000010110100100101011101010111101011111111110001100000110011100000001001100000110101101101111 e
b101 f
b0 g
#720000
0!
0)
#730000
1!
1)
b100 1
b11100010 :
b1000 ;
b10111111010111011110010011110011010010010101110000111010000010011000010101011110101111111111001100111000000010011000001101011 >
b111011 N
b10000 U
b0 V
b111 ^
b110 _
b111011 `
b11100010 a
b10011110000101111110101110111100100001110100000101101001001010111010101111010111111111100011000001100111000000010011000001101011 e
b110 f
b0 g
#740000
0!
0)
#750000
1!
1)
b100 1
b11110000 :
b1001 ;
b10011110000101111110101111100010010000010110100110111100100001111111111000101011101010111101011100110000011001110000000100110000 >
b10111 N
b10000 U
b0 V
b1000 ^
b111 _
b10111 `
b11110000 a
b11100010100111100001011111101011101111001000011101000001011010010010101110101011110101111111111000110000011001110000000100110000 e
b111 f
b0 g
#760000
0!
0)
#770000
1!
1)
b100 1
b11110100 :
b1010 ;
b11100010100111100001011111110000100001110100000111101011101111001101011101101001001010111010101111111110001100000110011100000001 >
b10111010 N
b10000 U
b0 V
b1001 ^
b1000 _
b10111010 `
b11110100 a
b11110000111000101001111000010111111010111011110010000111010000010110100100101011101010111101011111111110001100000110011100000001 e
b1000 f
b0 g
#780000
0!
0)
#790000
1!
1)
b100 1
b10101000 :
b1011 ;
b11110000111000101001111011110100101111001000011100010111111010111010101101000001011010010010101111010111111111100011000001100111 >
b1101111 N
b10000 U
b0 V
b1010 ^
b1001 _
b1101111 `
b10101000 a
b11110100111100001110001010011110000101111110101110111100100001110100000101101001001010111010101111010111111111100011000001100111 e
b1001 f
b0 g
#800000
0!
0)
#810000
1!
1)
b100 1
b10 :
b1100 ;
b11110100111100001110001010101000111010111011110010011110000101110010101110000111010000010110100110101011110101111111111000110000 >
b1101010 N
b10000 U
b0 V
b1011 ^
b1010 _
b1101010 `
b10 a
b10101000111101001111000011100010100111100001011111101011101111001000011101000001011010010010101110101011110101111111111000110000 e
b1010 f
b0 g
#820000
0!
0)
#830000
1!
1)
b100 1
b110100 :
b1101 ;
b10101000111101001111000000000010000101111110101111100010100111100110100110111100100001110100000100101011101010111101011111111110 >
b101000 N
b10000 U
b0 V
b1100 ^
b1011 _
b101000 `
b110100 a
b10101010001111010011110000111000101001111000010111111010111011110010000111010000010110100100101011101010111101011111111110 e
b1011 f
b0 g
#840000
0!
0)
#850000
1!
1)
b100 1
b1000111 :
b1110 ;
b10101010001111010000110100100111100001011111110000111000100100000111101011101111001000011101101001001010111010101111010111 >
b10110 N
b10000 U
b0 V
b1101 ^
b1100 _
b10110 `
b1000111 a
b110100000000101010100011110100111100001110001010011110000101111110101110111100100001110100000101101001001010111010101111010111 e
b1100 f
b0 g
#860000
0!
0)
#870000
1!
1)
b100 1
b100 3
b1111110 :
b1111 ;
b110100000000101010100001000111111000101001111011110100111100001000011100010111111010111011110001000001011010010010101110101011 >
b10001010 N
b10000 U
b0 V
b1110 ^
b1101 _
b10001010 `
b1111110 a
b1000111001101000000001010101000111101001111000011100010100111100001011111101011101111001000011101000001011010010010101110101011 e
b1101 f
b0 g
#880000
0!
0)
#890000
1!
1)
b100 1
b100 2
b101 3
b11001101 :
b10000 ;
b1000111001101000000001001111110111100001110001010101000111101001011110010011110000101111110101110000111010000010110100100101011 >
b10000000 N
b10000 U
b0 V
b1111 ^
b1110 _
b10000000 `
b11001101 a
b1111110010001110011010000000010101010001111010011110000111000101001111000010111111010111011110010000111010000010110100100101011 e
b1110 f
b0 g
#900000
0!
0)
#910000
1!
1)
b100 1
b101 2
b110 3
b1101001 :
b10001 ;
0<
b1111110010001110011010011001101111101001111000000000010101010001110101111100010100111100001011110111100100001110100000101101001 >
0?
b11100100 N
b10000 U
b0 V
0[
b0 ^
b1111 _
b11100100 `
b1101001 a
b11001101011111100100011100110100000000101010100011110100111100001110001010011110000101111110101110111100100001110100000101101001 e
b1111 f
b0 g
#920000
0!
0)
#930000
1!
1)
b100 1
b110 2
b111 3
b0 ;
0=
b11001101011111100100011101101001101010001111010000110100000000100001011111110000111000101001111011101011101111001000011101000001 >
1A
b10000 U
b0 V
0c
1d
b1101001110011010111111001000111001101000000001010101000111101001111000011100010100111100001011111101011101111001000011101000001 e
b0 f
b0 g
#940000
0!
0)
#950000
1!
1)
b100 1
b111 2
b1100 3
0A
1E
b10000 U
b0 V
0d
1h
#960000
0!
0)
#970000
1!
1)
b100 1
b1100 2
b1 3
b11100111101010100010101000100011010010011011000101000001001000010110111110010111011111110100110101100000110110000001000111 C
0E
1J
b10000 U
b0 V
0h
b11001101011111100100011101101001 i
b11100111101010100010101000100011010010011011000101000001001000010110111110010111011111110100110101100000110110000001000111 j
b11100111101010100010101000100011010010011011000101000001001000010110111110010111011111110100110101100000110110000001000111 k
b11100111101010100010101000100011010010011011000101000001001000010110111110010111011111110100110101100000110110000001000111 l
b100 m
b100 n
b11100111101010100010101000100011010010011011000101000001001000010110111110010111011111110100110101100000110110000001000111 o
b11001101011111100100011101101001101010001111010000110100000000100001011111110000111000101001111011101011101111001000011101000001 p
b10000001 q
b11001101 r
1t
#980000
0!
0)
#990000
1!
1)
b100 1
b1 2
b10 3
b10 4
b11100111101010100010101000100011010010011011000101000001001000010110111110010111011111110100110101100000110110000001000111 G
0J
b11100111101010100010101000100011010010011011000101000001001000010110111110010111011111110100110101100000110110000001000111 L
b11111110011101101010101111010110111100010111100010100110110110101111101001110010101011111101001011111101011101001010101011010110 P
b10 Q
b11100111101010100010101000100011010010011011000101000001001000010110111110010111011111110100110101100000110110000001000111 T
b10000 U
b0 V
b10 W
b11111110011101101010101111010110111100010111100010100110110110101111101001110010101011111101001011111101011101001010101011010110 X
0t
b10 u
b11100111101010100010101000100011010010011011000101000001001000010110111110010111011111110100110101100000110110000001000111 v
b11100111101010100010101000100011010010011011000101000001001000010110111110010111011111110100110101100000110110000001000111 w
#1000000
0!
0)
#1010000
1!
1)
b100 1
b10 2
b11 3
b11111101111010000000001101111110011111000101111001100011110111100111111111001100111100100010111111001000111101111100101010010001 M
b10000 U
b0 V
b11111101111010000000001101111110011111000101111001100011110111100111111111001100111100100010111111001000111101111100101010010001 \
#1020000
0!
0)
#1030000
1!
1)
b100 1
b11 2
1?
1O
b10000 U
b0 V
1Z
#1040000
0!
0)
#1050000
1!
1)
b100 1
b10000001 :
b1 ;
1<
b10010001 N
0O
b10000 U
b0 V
0Z
1[
b11111101111010000000001101111110011111000101111001100011110111100111111111001100111100100010111111001000111101111100101010010001 ]
b10010001 `
b10000001 a
#1060000
0!
0)
#1070000
1!
1)
b100 1
b1110100 :
b10 ;
1=
b11001101011111100100011110000001101010001111010000110100000000100001011111110000111000101001111011101011101111001000011101000001 >
b11001010 N
b10000 U
b0 V
b1 ^
b0 _
b11001010 `
b1110100 a
1c
b10000001110011010111111001000111001101000000001010101000111101001111000011100010100111100001011111101011101111001000011101000001 e
#1080000
0!
0)
#1090000
1!
1)
b100 1
b1101000 :
b11 ;
b10000001110011010111111001110100000000101010100001000111001101001001111011110100111100001110001000010111111010111011110010000111 >
b11110111 N
b10000 U
b0 V
b10 ^
b1 _
b11110111 `
b1101000 a
b1110100100000011100110101111110010001110011010000000010101010001111010011110000111000101001111000010111111010111011110010000111 e
b1 f
b0 g
#1100000
0!
0)
#1110000
1!
1)
b100 1
b11101000 :
b100 ;
b1110100100000011100110101101000001101000000001001111110010001111110001010101000111101001111000010011110000101111110101110111100 >
b11001000 N
b10000 U
b0 V
b11 ^
b10 _
b11001000 `
b11101000 a
b1101000011101001000000111001101011111100100011100110100000000101010100011110100111100001110001010011110000101111110101110111100 e
b10 f
b0 g
#1120000
0!
0)
#1130000
1!
1)
b100 1
b10101 :
b101 ;
b1101000011101001000000111101000010001110011010011001101011111101111000000000010101010001111010011100010100111100001011111101011 >
b101111 N
b10000 U
b0 V
b100 ^
b11 _
b101111 `
b10101 a
b11101000011010000111010010000001110011010111111001000111001101000000001010101000111101001111000011100010100111100001011111101011 e
b11 f
b0 g
#1140000
0!
0)
#1150000
1!
1)
b100 1
b10001001 :
b110 ;
b11101000011010000111010000010101011111100100011110000001110011011111010000110100000000101010100011110000111000101001111000010111 >
b11110010 N
b10000 U
b0 V
b101 ^
b100 _
b11110010 `
b10001001 a
b10101111010000110100001110100100000011100110101111110010001110011010000000010101010001111010011110000111000101001111000010111 e
b100 f
b0 g
#1160000
0!
0)
#1170000
1!
1)
b100 1
b1001011 :
b111 ;
b10101111010000110100010001001110011010111111001110100100000011010100001000111001101000000001011110100111100001110001010011110 >
b11001100 N
b10000 U
b0 V
b110 ^
b101 _
b11001100 `
b1001011 a
b10001001000101011110100001101000011101001000000111001101011111100100011100110100000000101010100011110100111100001110001010011110 e
b101 f
b0 g
#1180000
0!
0)
#1190000
1!
1)
b100 1
b11010010 :
b1000 ;
b10001001000101011110100001001011100000011100110101101000011101000000001001111110010001110011010010101000111101001111000011100010 >
b1111111 N
b10000 U
b0 V
b111 ^
b110 _
b1111111 `
b11010010 a
b1001011100010010001010111101000011010000111010010000001110011010111111001000111001101000000001010101000111101001111000011100010 e
b110 f
b0 g
#1200000
0!
0)
#1210000
1!
1)
b100 1
b11101 :
b1001 ;
b1001011100010010001010111010010011101001000000111101000011010000011010011001101011111100100011100000010101010001111010011110000 >
b11011110 N
b10000 U
b0 V
b1000 ^
b111 _
b11011110 `
b11101 a
b11010010010010111000100100010101111010000110100001110100100000011100110101111110010001110011010000000010101010001111010011110000 e
b111 f
b0 g
#1220000
0!
0)
#1230000
1!
1)
b100 1
b11111011 :
b1010 ;
b11010010010010111000100100011101011010000111010000010101111010000100011110000001110011010111111000110100000000101010100011110100 >
b1100011 N
b10000 U
b0 V
b1001 ^
b1000 _
b1100011 `
b11111011 a
b11101110100100100101110001001000101011110100001101000011101001000000111001101011111100100011100110100000000101010100011110100 e
b1000 f
b0 g
#1240000
0!
0)
#1250000
1!
1)
b100 1
b1011000 :
b1011 ;
b11101110100100100101111111011111010000110100010001001000101010111111001110100100000011100110101000111001101000000001010101000 >
b1011110 N
b10000 U
b0 V
b1010 ^
b1001 _
b1011110 `
b1011000 a
b11111011000111011101001001001011100010010001010111101000011010000111010010000001110011010111111001000111001101000000001010101000 e
b1001 f
b0 g
#1260000
0!
0)
#1270000
1!
1)
b100 1
b10000 :
b1100 ;
b11111011000111011101001001011000000101011110100001001011100010011100110101101000011101001000000101111110010001110011010000000010 >
b1111100 N
b10000 U
b0 V
b1011 ^
b1010 _
b1111100 `
b10000 a
b1011000111110110001110111010010010010111000100100010101111010000110100001110100100000011100110101111110010001110011010000000010 e
b1010 f
b0 g
#1280000
0!
0)
#1290000
1!
1)
b100 1
b11110011 :
b1101 ;
b1011000111110110001110100010000100010010001010111010010010010111000000111101000011010000111010011001101011111100100011100110100 >
b1111110 N
b10000 U
b0 V
b1100 ^
b1011 _
b1111110 `
b11110011 a
b10000010110001111101100011101110100100100101110001001000101011110100001101000011101001000000111001101011111100100011100110100 e
b1011 f
b0 g
#1300000
0!
0)
#1310000
1!
1)
b100 1
b1111011 :
b1110 ;
b10000010110001111101111110011010010111000100100011101110100100111010000010101111010000110100010000001110011010111111001000111 >
b11 N
b10000 U
b0 V
b1101 ^
b1100 _
b11 `
b1111011 a
b11110011000100000101100011111011000111011101001001001011100010010001010111101000011010000111010010000001110011010111111001000111 e
b1100 f
b0 g
#1320000
0!
0)
