Vivado_projects/AES256_encrypt/AES256_encrypt.sim/sim_1/behav/xsim/wv_AES256_enc.vcd
$date
   Sun Nov 28 02:36:35 2021
$end
$version
  2020.2
$end
$timescale
  1ps
$end
$scope module tb_AES256_enc $end
$var reg 1 ! clk $end
$var reg 1 " resetn $end
$var reg 1 # ctrl_dataIn $end
$var reg 1 $ masterRd $end
$var reg 1 % masterRecDataRd $end
$var reg 128 & inpAES [15:0] $end
$var reg 1 ' addr $end
$var wire 1 ( slaveRd $end
$var wire 1 ) ctrl_dataOut $end
$var wire 1 * slaveValidResp $end
$var wire 1 + masterSendDataRd $end
$var wire 128 , outAES [15:0] $end
$var integer 32 - index $end
$var integer 32 . i $end
$scope module DUT $end
$var wire 1 / clk $end
$var wire 1 0 resetn $end
$var wire 32 1 inpAES [31:0] $end
$var wire 1 2 ctrl_dataIn $end
$var wire 1 3 addr $end
$var reg 8 4 regCTRL [7:0] $end
$var reg 1 5 ctrl_dataOut $end
$var reg 128 6 outAES [15:0] $end
$var integer 32 7 i $end
$var reg 4 8 aes_st [3:0] $end
$var reg 4 9 aes_st_next [3:0] $end
$var reg 4 : round [3:0] $end
$var wire 128 ; dataOut_reg416 [15:0] $end
$var wire 1 < reg416_empty $end
$var wire 1 = reg416_full $end
$var wire 8 > dataOut1_demux [7:0] $end
$var wire 128 ? dataOut2_demux [15:0] $end
$var wire 8 @ dataOut_ROM [7:0] $end
$var reg 5 A rom_cnt [4:0] $end
$var reg 1 B req_rom $end
$var reg 1 C shf_reg $end
$var wire 128 D dataOut_shifter [15:0] $end
$var reg 1 E wr_shf $end
$var reg 1 F wr_shf_delay $end
$var reg 1 G outp_en_shf $end
$var reg 1 H outp_en_shf_delay $end
$var wire 128 I dataOut_mixColumns [15:0] $end
$var wire 128 J dataOut_demux_0 [15:0] $end
$var reg 1 K wr_mC $end
$var reg 1 L wr_mC_delay $end
$var wire 128 M dataOut_reg16_2 [15:0] $end
$var wire 128 N dataOut_demux_1 [15:0] $end
$var reg 2 O reg162_cnt [1:0] $end
$var reg 1 P wr_reg162 $end
$var reg 1 Q wr_reg162_delay $end
$var wire 128 R dataIn_addRK [15:0] $end
$var reg 128 S dataOut_addRK [15:0] $end
$var wire 8 T dataOut_reg163 [7:0] $end
$var reg 1 U wr_reg163 $end
$var wire 128 V key [127:0] $end
$scope module demux_INIT $end
$var wire 1 3 addr $end
$var wire 32 1 inp_demux [31:0] $end
$var wire 32 W outp_demux_flags [31:0] $end
$var wire 32 X outp_demux_data [3:0] $end
$var reg 32 Y auxData [3:0] $end
$var reg 32 Z auxFlags [31:0] $end
$var integer 32 [ i $end
$upscope $end
$scope module reg416_INIT $end
$var integer 32 \ index $end
$var wire 1 / clk $end
$var wire 1 0 resetn $end
$var wire 1 2 req_axi_in $end
$var wire 32 ] inp_regInit [31:0] $end
$var reg 128 ^ aux [15:0] $end
$var reg 2 _ n_wr [1:0] $end
$var reg 2 ` n_wr_delay [1:0] $end
$var reg 128 a outp_regInit [15:0] $end
$upscope $end
$scope module mux $end
$var wire 4 b addr [3:0] $end
$var wire 128 ; inp0 [15:0] $end
$var wire 128 M inp1 [15:0] $end
$var reg 128 c aux [15:0] $end
$var reg 128 d outp [15:0] $end
$upscope $end
$scope module addRK $end
$var wire 1 / clk $end
$var wire 1 0 resetn $end
$var wire 128 V inp_key_addRK [127:0] $end
$var wire 128 R inp_addRK [15:0] $end
$var reg 128 S outp_addRK [15:0] $end
$var integer 32 e index $end
$var integer 32 f row $end
$upscope $end
$scope module rom_key $end
$var wire 1 / clk $end
$var wire 1 0 resetn $end
$var wire 4 g addr_romKey [3:0] $end
$var reg 128 h outp_romKey [127:0] $end
$upscope $end
$scope module reg16_3 $end
$var integer 32 i index $end
$var wire 1 / clk $end
$var wire 1 0 resetn $end
$var wire 1 j wr_en $end
$var wire 1 k req_rom $end
$var wire 128 l inp_reg163 [15:0] $end
$var reg 128 m aux [15:0] $end
$var reg 4 n n_read [3:0] $end
$var reg 4 o n_read_delay [3:0] $end
$var reg 8 p outp_reg163 [7:0] $end
$upscope $end
$scope module rom_Sbox $end
$var wire 1 / clk $end
$var wire 1 0 resetn $end
$var wire 8 T addr_romSbox [7:0] $end
$var reg 8 q outp_romSbox [7:0] $end
$var integer 32 r index $end
$upscope $end
$scope module shifter $end
$var wire 1 / clk $end
$var wire 1 0 resetn $end
$var wire 1 s wr_en $end
$var wire 8 @ inp_shf [7:0] $end
$var wire 1 t outp_en $end
$var reg 128 u aux [15:0] $end
$var reg 4 v counter [3:0] $end
$var wire 128 D outp_shf [15:0] $end
$var integer 32 w index $end
$upscope $end
$scope module mixColumns $end
$var wire 1 / clk $end
$var wire 1 0 resetn $end
$var wire 128 D inp_mC [15:0] $end
$var wire 1 x wr_en $end
$var reg 32 y row [3:0] $end
$var reg 128 z temp [15:0] $end
$var reg 128 { auxIn [15:0] $end
$var reg 128 | outp_mC [15:0] $end
$var integer 32 } index $end
$var integer 32 ~ rowNum $end
$scope function mix_columns $end
$var reg 128 !! mix_columns [15:0] $end
$var reg 128 "! inp_mC [15:0] $end
$upscope $end
$scope function xtime $end
$var reg 8 #! xtime [7:0] $end
$var reg 8 $! num [7:0] $end
$upscope $end
$upscope $end
$scope module reg16_2 $end
$var integer 32 %! index $end
$var wire 1 / clk $end
$var wire 1 0 resetn $end
$var wire 1 &! wr_en $end
$var wire 4 '! round [3:0] $end
$var wire 128 I inp_reg162_mC [15:0] $end
$var wire 128 D inp_reg162_shf [15:0] $end
$var reg 128 (! aux [15:0] $end
$var reg 128 )! outp_reg162 [15:0] $end
$upscope $end
$upscope $end
$scope task enableResetn $end
$upscope $end
$scope task test_AES_encryption $end
$upscope $end
$upscope $end
$enddefinitions $end
#0
$dumpvars
0!
bx !!
x"
bx "!
x#
b0 #!
x$
bx $!
x%
bx %!
bx &
x&!
x'
bx '!
z(
bx (!
x)
bx )!
z*
z+
bx ,
bx -
b0 .
0/
x0
bx 1
x2
x3
bx 4
x5
bx 6
bx 7
bx 8
bx 9
bx :
bx ;
z<
z=
bx >
bzxxxxxxxxxxxxxxxxxxxxxxxxxxxxxxxx ?
bx @
bx A
xB
xC
bx D
xE
xF
xG
xH
bx I
bz J
xK
xL
bx M
bz N
bx O
xP
xQ
bx R
bx S
bx T
xU
bx V
bx W
bx X
bx Y
bx Z
bx [
bx \
bx ]
bx ^
bx _
bx `
bx a
bx b
bx c
bx d
bx e
bx f
bx g
bx h
bx i
xj
xk
bx l
bx m
bx n
bx o
bx p
bx q
bx r
xs
xt
bx u
bx v
bx w
xx
bx y
bx z
bx {
bx |
bx }
bx ~
$end
#10000
1!
1#
bx &
0&!
1'
0)
b1 .
1/
12
13
05
b0 A
0B
0G
0K
0P
0U
b100 \
b10000 e
b0 f
0j
0k
0t
0x
#11000
0"
0#
b10000 %!
b0 '!
b0 (!
b0 )!
b0 ,
b0 .
00
02
b0 4
b0 6
b10000 7
b0 8
b0 9
b0 :
b1100011 @
0C
b0 D
0E
b0 I
b0 M
b0 S
b0 T
b1111000011100000110100001100000010110000101000001001000010000000011100000110000001010000010000000011000000100000000100000000 V
b0 ^
b0 _
b0 `
b0 b
bx d
b10000 e
b0 g
b1111000011100000110100001100000010110000101000001001000010000000011100000110000001010000010000000011000000100000000100000000 h
b10000 i
b0 l
b0 m
b0 n
b0 o
b0 p
b1100011 q
0s
b0 u
b0 v
b10000 w
b0 {
b0 |
b10000 }
#20000
0!
0/
#30000
1!
b10000 %!
1/
b10000 7
b0 S
b10000 e
b10000 i
b10000 w
b0 {
b10000 }
#31000
1"
1$
1%
b1 &
0'
10
b1 1
03
b1 >
b1 W
b1 Z
#40000
0!
0/
#50000
1!
1#
b1000000000000000000000000 &
1'
b1 .
1/
b1000000000000000000000000 1
12
13
bz00000001000000000000000000000000 ?
b1100011000000000000000000000000000000000000000000000000000000000000000000000000000000000000000000000000 D
bx S
b1000000000000000000000000 X
b1000000000000000000000000 Y
b100 [
b100 \
b1000000000000000000000000 ]
b0xxxxxxxxxxxxxxxxxxxxxxxxxxxxxxxx ^
b1 _
b10000 e
b0 f
bx l
b1100011000000000000000000000000000000000000000000000000000000000000000000000000000000000000000000000000000000000000000000000000 u
#60000
0!
0/
#70000
1!
b10000000000000000000000000 &
b10 .
1/
b10000000000000000000000000 1
bz00000010000000000000000000000000 ?
b10000000000000000000000000 X
b10000000000000000000000000 Y
b100 [
b100 \
b10000000000000000000000000 ]
b1000000000000000000000000 ^
b10 _
b1 `
b10000 e
b0 f
#80000
0!
0/
#90000
1!
b11000000000000000000000000 &
b11 .
1/
b11000000000000000000000000 1
bz00000011000000000000000000000000 ?
b11000000000000000000000000 X
b11000000000000000000000000 Y
b100 [
b100 \
b11000000000000000000000000 ]
b1000000000000000000000000000000001000000000000000000000000 ^
b11 _
b10 `
b10000 e
b0 f
#100000
0!
0/
#110000
1!
b100000000000000000000000000 &
b100 .
1/
b100000000000000000000000000 1
b100000000000000000000000000000000110000000000000000000000000000001000000000000000000000000000000001000000000000000000000000 ;
bz00000100000000000000000000000000 ?
b100000000000000000000000000000000110000000000000000000000000000001000000000000000000000000000000001000000000000000000000000 R
b100000000000000000000000000 X
b100000000000000000000000000 Y
b100 [
b100 \
b100000000000000000000000000 ]
b110000000000000000000000000000001000000000000000000000000000000001000000000000000000000000 ^
b0 _
b11 `
b100000000000000000000000000000000110000000000000000000000000000001000000000000000000000000000000001000000000000000000000000 a
b100000000000000000000000000000000110000000000000000000000000000001000000000000000000000000000000001000000000000000000000000 d
b10000 e
b0 f
#120000
0!
0/
#130000
1!
1/
b1011000011100000110100001100000010000000101000001001000010000000010100000110000001010000010000000010000000100000000100000000 S
b100 \
b100000000000000000000000000000000110000000000000000000000000000001000000000000000000000000000000001000000000000000000000000 ^
b1 _
b0 `
b10000 e
b0 f
b1011000011100000110100001100000010000000101000001001000010000000010100000110000001010000010000000010000000100000000100000000 l
#131000
0#
b101 .
02
#140000
0!
0/
#150000
1!
1/
b10000 e
b0 f
#151000
1#
b1 &
0'
b110 .
b1 1
12
03
#160000
0!
0/
#170000
1!
1/
b1 4
b1 9
b100 \
b100000000000000000000000000000000110000000000000000000000000000001000000000000000000000000000000100000000000000000000000000 ^
b10 _
b1 `
b10000 e
b0 f
#171000
0#
02
#180000
0!
0/
#190000
1!
1/
b1 8
b10 9
b10000 e
b0 f
#200000
0!
0/
#210000
1!
1/
b10 8
b11 9
b10000 e
b0 f
#220000
0!
0/
#230000
1!
1/
b11 8
1E
1U
b10000 e
b0 f
1j
#240000
0!
0/
#250000
1!
1/
b1 A
1B
0U
b10000 e
b0 f
0j
1k
b1011000011100000110100001100000010000000101000001001000010000000010100000110000001010000010000000010000000100000000100000000 m
b0 p
#260000
0!
0/
#270000
1!
1/
b1111100 @
b10 A
1C
b1 T
b10000 e
b0 f
b1 n
b1 p
b1111100 q
1s
#280000
0!
0/
#290000
1!
1/
b1110111 @
b11 A
b1100011000000000000000001111100000000000000000000000000000000000000000000000000000000000000000000000000000000000000000000000000 D
b10 T
b10000 e
b0 f
b10 n
b1 o
b10 p
b1110111 q
b1111100011000110000000000000000000000000000000000000000000000000000000000000000000000000000000000000000000000000000000000000000 u
b1 v
b0 w
#300000
0!
0/
#310000
1!
1/
b100 A
b1111100011000110000000001110111000000000000000000000000000000000000000000000000000000000000000000000000000000000000000000000000 D
b10000 e
b0 f
b11 n
b10 o
b10 p
b1110111011111000110001100000000000000000000000000000000000000000000000000000000000000000000000000000000000000000000000000000000 u
b10 v
b0 w
#320000
0!
0/
#330000
1!
1/
b11110010 @
b101 A
b1110111011111000110001101110111000000000000000000000000000000000000000000000000000000000000000000000000000000000000000000000000 D
b100 T
b10000 e
b0 f
b100 n
b11 o
b100 p
b11110010 q
b1110111011101110111110001100011000000000000000000000000000000000000000000000000000000000000000000000000000000000000000000000000 u
b11 v
b0 w
#340000
0!
0/
#350000
1!
1/
b1101011 @
b110 A
b1110111011101110111110011110010000000000000000001100011000000000000000000000000000000000000000000000000000000000000000000000000 D
b101 T
b10000 e
b0 f
b101 n
b100 o
b101 p
b1101011 q
b11110010011101110111011101111100011000110000000000000000000000000000000000000000000000000000000000000000000000000000000000000000 u
b100 v
b0 w
#360000
0!
0/
#370000
1!
1/
b1101111 @
b111 A
b11110010011101110111011101101011000000000000000001111100011000110000000000000000000000000000000000000000000000000000000000000000 D
b110 T
b10000 e
b0 f
b110 n
b101 o
b110 p
b1101111 q
b1101011111100100111011101110111011111000110001100000000000000000000000000000000000000000000000000000000000000000000000000000000 u
b101 v
b0 w
#380000
0!
0/
#390000
1!
1/
b1101011 @
b1000 A
b1101011111100100111011101101111011000110000000001110111011111000000000000000000000000000000000000000000000000000000000000000000 D
b101 T
b10000 e
b0 f
b111 n
b110 o
b101 p
b1101011 q
b1101111011010111111001001110111011101110111110001100011000000000000000000000000000000000000000000000000000000000000000000000000 u
b110 v
b0 w
#400000
0!
0/
#410000
1!
1/
b110000 @
b1001 A
b1101111011010111111001001101011011111000110001101110111011101110000000000000000000000000000000000000000000000000000000000000000 D
b1000 T
b10000 e
b0 f
b1000 n
b111 o
b1000 p
b110000 q
b1101011011011110110101111110010011101110111011101111100011000110000000000000000000000000000000000000000000000000000000000000000 u
b111 v
b0 w
#420000
0!
0/
#430000
1!
1/
b1 @
b1010 A
b1101011011011110110101100110000011101110111110011110010011101110000000001100011000000000000000000000000000000000000000000000000 D
b1001 T
b10000 e
b0 f
b1001 n
b1000 o
b1001 p
b1 q
b110000011010110110111101101011111100100111011101110111011111000110001100000000000000000000000000000000000000000000000000000000 u
b1000 v
b0 w
#440000
0!
0/
#450000
1!
1/
b1100111 @
b1011 A
b110000011010110110111100000001011101110111011101101011111100100000000001111100011000110000000000000000000000000000000000000000 D
b1010 T
b10000 e
b0 f
b1010 n
b1001 o
b1010 p
b1100111 q
b1001100000110101101101111011010111111001001110111011101110111110001100011000000000000000000000000000000000000000000000000 u
b1001 v
b0 w
#460000
0!
0/
#470000
1!
1/
b110000 @
b1100 A
b1001100000110101101100111111100100111011101101111011010110000000001110111011111000110001100000000000000000000000000000000 D
b1000 T
b10000 e
b0 f
b1011 n
b1010 o
b1000 p
b110000 q
b1100111000000010011000001101011011011110110101111110010011101110111011101111100011000110000000000000000000000000000000000000000 u
b1010 v
b0 w
#480000
0!
0/
#490000
1!
1/
b11111110 @
b1101 A
b1100111000000010011000000110000011010111111001001101011011011110110001101110111011101110111110000000000000000000000000000000000 D
b1100 T
b10000 e
b0 f
b1100 n
b1011 o
b1100 p
b11111110 q
b110000011001110000000100110000011010110110111101101011111100100111011101110111011111000110001100000000000000000000000000000000 u
b1011 v
b0 w
#500000
0!
0/
#510000
1!
1/
b11010111 @
b1110 A
b110000011001110000000111111110011011110110101100110000011010110111110011110010011101110111011101100011000000000000000000000000 D
b1101 T
b10000 e
b0 f
b1101 n
b1100 o
b1101 p
b11010111 q
b11111110001100000110011100000001001100000110101101101111011010111111001001110111011101110111110001100011000000000000000000000000 u
b1100 v
b0 w
#520000
0!
0/
#530000
1!
1/
b100 9
b10101011 @
b1111 A
b11111110001100000110011111010111011010110110111100000001001100000111011101101011111100100111011101111100011000110000000000000000 D
b1110 T
b10000 e
b0 f
b1110 n
b1101 o
b1110 p
b10101011 q
b11010111111111100011000001100111000000010011000001101011011011110110101111110010011101110111011101111100011000110000000000000000 u
b1101 v
b0 w
#540000
0!
0/
#550000
1!
1/
b100 8
b101 9
b101011 @
b10000 A
b11010111111111100011000010101011001100000110101101100111000000010111011101101111011010111111001001110111011111000110001100000000 D
b1011 T
b10000 e
b0 f
b1111 n
b1110 o
b1011 p
b101011 q
b10101011110101111111111000110000011001110000000100110000011010110110111101101011111100100111011101110111011111000110001100000000 u
b1110 v
b0 w
#560000
0!
0/
#570000
1!
1/
b101 8
b110 9
b1100011 @
b10001 A
0B
b10101011110101111111111000101011000000010011000000110000011001111111001001101011011011110110101101110111011101110111110001100011 D
0E
b0 T
b10000 e
b0 f
0k
b0 n
b1111 o
b0 p
b1100011 q
b101011101010111101011111111110001100000110011100000001001100000110101101101111011010111111001001110111011101110111110001100011 u
b1111 v
b0 w
#580000
0!
0/
#590000
1!
1/
b110 8
b111 9
b0 A
0C
b101011101010111101011101100011011001110000000111111110001100000110101100110000011010110110111111110010011101110111011101111100 D
1G
b10000 e
b0 f
0s
1t
b1100011001010111010101111010111111111100011000001100111000000010011000001101011011011110110101111110010011101110111011101111100 u
b0 v
b0 w
#600000
0!
0/
#610000
1!
1/
b111 8
b1100 9
0G
1K
b10000 e
b0 f
0t
1x
#620000
0!
0/
#630000
1!
b10001111100001000001101100100100011000010110010110110011000111110011110011011001100000100011100001111011111010001111100111100100 !!
b101011101010111101011101100011011001110000000111111110001100000110101100110000011010110110111111110010011101110111011101111100 "!
b1010110 #!
b101011 $!
1&!
1/
b1100 8
b1 9
b10001111100001000001101100100100011000010110010110110011000111110011110011011001100000100011100001111011111010001111100111100100 I
0K
1P
b10000 e
b0 f
0x
b101011101010111101011101100011 y
b10001111100001000001101100100100011000010110010110110011000111110011110011011001100000100011100001111011111010001111100111100100 z
b10001111100001000001101100100100011000010110010110110011000111110011110011011001100000100011100001111011111010001111100111100100 {
b10001111100001000001101100100100011000010110010110110011000111110011110011011001100000100011100001111011111010001111100111100100 |
b100 }
b100 ~
#640000
0!
0/
#650000
1!
0&!
b1 '!
b10001111100001000001101100100100011000010110010110110011000111110011110011011001100000100011100001111011111010001111100111100100 (!
b10001111100001000001101100100100011000010110010110110011000111110011110011011001100000100011100001111011111010001111100111100100 )!
1/
b1 8
b10 9
b1 :
b10001111100001000001101100100100011000010110010110110011000111110011110011011001100000100011100001111011111010001111100111100100 M
0P
b10001111100001000001101100100100011000010110010110110011000111110011110011011001100000100011100001111011111010001111100111100100 R
b1 b
b10001111100001000001101100100100011000010110010110110011000111110011110011011001100000100011100001111011111010001111100111100100 d
b10000 e
b0 f
b1 g
b1111000011100000110100001100000010110000101000001001000010000000011100000110000001010000010000000011000000100000000100000000 h
#660000
0!
0/
#670000
1!
1/
b10 8
b11 9
b10000000100010100001011000101000011010100110111110111010000101110011101111011111100001110011110001111000111010101111100011100100 S
b10000 e
b0 f
b10000000100010100001011000101000011010100110111110111010000101110011101111011111100001110011110001111000111010101111100011100100 l
#680000
0!
0/
#690000
1!
1/
b11 8
1E
1U
b10000 e
b0 f
1j
#700000
0!
0/
#710000
1!
1/
b1101001 @
b1 A
1B
b11100100 T
0U
b10000 e
b0 f
0j
1k
b10000000100010100001011000101000011010100110111110111010000101110011101111011111100001110011110001111000111010101111100011100100 m
b11100100 p
b1101001 q
#720000
0!
0/
#730000
1!
1/
b1000001 @
b10 A
1C
b101011101010111101011101101001011001110000000111111110001100000110101100110000011010110110111111110010011101110111011101111100 D
b11111000 T
b10000 e
b0 f
b1 n
b0 o
b11111000 p
b1000001 q
1s
b1101001001010111010101111010111111111100011000001100111000000010011000001101011011011110110101111110010011101110111011101111100 u
#740000
0!
0/
#750000
1!
1/
b10000111 @
b11 A
b1101001001010111010101101000001001100000110011111010111111111100110111100000001001100000110101101101011111100100111011101110111 D
b11101010 T
b10000 e
b0 f
b10 n
b1 o
b11101010 p
b10000111 q
b1000001011010010010101110101011110101111111111000110000011001110000000100110000011010110110111101101011111100100111011101110111 u
b1 v
b0 w
#760000
0!
0/
#770000
1!
1/
b10111100 @
b100 A
b1000001011010010010101110000111111111100011000010101011110101110110101101100111000000010011000001101111011010111111001001110111 D
b1111000 T
b10000 e
b0 f
b11 n
b10 o
b1111000 p
b10111100 q
b10000111010000010110100100101011101010111101011111111110001100000110011100000001001100000110101101101111011010111111001001110111 u
b10 v
b0 w
#780000
0!
0/
#790000
1!
1/
b11101011 @
b101 A
b10000111010000010110100110111100110101111111111000101011101010110011000000110000011001110000000101101011011011110110101111110010 D
b111100 T
b10000 e
b0 f
b100 n
b11 o
b111100 p
b11101011 q
b10111100100001110100000101101001001010111010101111010111111111100011000001100111000000010011000001101011011011110110101111110010 u
b11 v
b0 w
#800000
0!
0/
#810000
1!
1/
b10111 @
b110 A
b10111100100001110100000111101011101010111101011101101001001010110000000111111110001100000110011100110000011010110110111101101011 D
b10000111 T
b10000 e
b0 f
b101 n
b100 o
b10000111 p
b10111 q
b11101011101111001000011101000001011010010010101110101011110101111111111000110000011001110000000100110000011010110110111101101011 u
b100 v
b0 w
#820000
0!
0/
#830000
1!
1/
b10011110 @
b111 A
b11101011101111001000011100010111001010111010101101000001011010010110011111010111111111100011000000000001001100000110101101101111 D
b11011111 T
b10000 e
b0 f
b110 n
b101 o
b11011111 p
b10011110 q
b10111111010111011110010000111010000010110100100101011101010111101011111111110001100000110011100000001001100000110101101101111 u
b101 v
b0 w
#840000
0!
0/
#850000
1!
1/
b11100010 @
b1000 A
b10111111010111011110010011110011010010010101110000111010000010011000010101011110101111111111001100111000000010011000001101011 D
b111011 T
b10000 e
b0 f
b111 n
b110 o
b111011 p
b11100010 q
b10011110000101111110101110111100100001110100000101101001001010111010101111010111111111100011000001100111000000010011000001101011 u
b110 v
b0 w
#860000
0!
0/
#870000
1!
1/
b11110000 @
b1001 A
b10011110000101111110101111100010010000010110100110111100100001111111111000101011101010111101011100110000011001110000000100110000 D
b10111 T
b10000 e
b0 f
b1000 n
b111 o
b10111 p
b11110000 q
b11100010100111100001011111101011101111001000011101000001011010010010101110101011110101111111111000110000011001110000000100110000 u
b111 v
b0 w
#880000
0!
0/
#890000
1!
1/
b11110100 @
b1010 A
b11100010100111100001011111110000100001110100000111101011101111001101011101101001001010111010101111111110001100000110011100000001 D
b10111010 T
b10000 e
b0 f
b1001 n
b1000 o
b10111010 p
b11110100 q
b11110000111000101001111000010111111010111011110010000111010000010110100100101011101010111101011111111110001100000110011100000001 u
b1000 v
b0 w
#900000
0!
0/
#910000
1!
1/
b10101000 @
b1011 A
b11110000111000101001111011110100101111001000011100010111111010111010101101000001011010010010101111010111111111100011000001100111 D
b1101111 T
b10000 e
b0 f
b1010 n
b1001 o
b1101111 p
b10101000 q
b11110100111100001110001010011110000101111110101110111100100001110100000101101001001010111010101111010111111111100011000001100111 u
b1001 v
b0 w
#920000
0!
0/
#930000
1!
1/
b10 @
b1100 A
b11110100111100001110001010101000111010111011110010011110000101110010101110000111010000010110100110101011110101111111111000110000 D
b1101010 T
b10000 e
b0 f
b1011 n
b1010 o
b1101010 p
b10 q
b10101000111101001111000011100010100111100001011111101011101111001000011101000001011010010010101110101011110101111111111000110000 u
b1010 v
b0 w
#940000
0!
0/
#950000
1!
1/
b110100 @
b1101 A
b10101000111101001111000000000010000101111110101111100010100111100110100110111100100001110100000100101011101010111101011111111110 D
b101000 T
b10000 e
b0 f
b1100 n
b1011 o
b101000 p
b110100 q
b10101010001111010011110000111000101001111000010111111010111011110010000111010000010110100100101011101010111101011111111110 u
b1011 v
b0 w
#960000
0!
0/
#970000
1!
1/
b1000111 @
b1110 A
b10101010001111010000110100100111100001011111110000111000100100000111101011101111001000011101101001001010111010101111010111 D
b10110 T
b10000 e
b0 f
b1101 n
b1100 o
b10110 p
b1000111 q
b110100000000101010100011110100111100001110001010011110000101111110101110111100100001110100000101101001001010111010101111010111 u
b1100 v
b0 w
#980000
0!
0/
#990000
1!
1/
b100 9
b1111110 @
b1111 A
b110100000000101010100001000111111000101001111011110100111100001000011100010111111010111011110001000001011010010010101110101011 D
b10001010 T
b10000 e
b0 f
b1110 n
b1101 o
b10001010 p
b1111110 q
b1000111001101000000001010101000111101001111000011100010100111100001011111101011101111001000011101000001011010010010101110101011 u
b1101 v
b0 w
#1000000
0!
0/
#1010000
1!
1/
b100 8
b101 9
b11001101 @
b10000 A
b1000111001101000000001001111110111100001110001010101000111101001011110010011110000101111110101110000111010000010110100100101011 D
b10000000 T
b10000 e
b0 f
b1111 n
b1110 o
b10000000 p
b11001101 q
b1111110010001110011010000000010101010001111010011110000111000101001111000010111111010111011110010000111010000010110100100101011 u
b1110 v
b0 w
#1020000
0!
0/
#1030000
1!
1/
b101 8
b110 9
b1101001 @
b10001 A
0B
b1111110010001110011010011001101111101001111000000000010101010001110101111100010100111100001011110111100100001110100000101101001 D
0E
b11100100 T
b10000 e
b0 f
0k
b0 n
b1111 o
b11100100 p
b1101001 q
b11001101011111100100011100110100000000101010100011110100111100001110001010011110000101111110101110111100100001110100000101101001 u
b1111 v
b0 w
#1040000
0!
0/
#1050000
1!
1/
b110 8
b111 9
b0 A
0C
b11001101011111100100011101101001101010001111010000110100000000100001011111110000111000101001111011101011101111001000011101000001 D
1G
b10000 e
b0 f
0s
1t
b1101001110011010111111001000111001101000000001010101000111101001111000011100010100111100001011111101011101111001000011101000001 u
b0 v
b0 w
#1060000
0!
0/
#1070000
1!
1/
b111 8
b1100 9
0G
1K
b10000 e
b0 f
0t
1x
#1080000
0!
0/
#1090000
1!
b11100111101010100010101000100011010010011011000101000001001000010110111110010111011111110100110101100000110110000001000111 !!
b11001101011111100100011101101001101010001111010000110100000000100001011111110000111000101001111011101011101111001000011101000001 "!
b10000001 #!
b11001101 $!
1&!
1/
b1100 8
b1 9
b11100111101010100010101000100011010010011011000101000001001000010110111110010111011111110100110101100000110110000001000111 I
0K
1P
b10000 e
b0 f
0x
b11001101011111100100011101101001 y
b11100111101010100010101000100011010010011011000101000001001000010110111110010111011111110100110101100000110110000001000111 z
b11100111101010100010101000100011010010011011000101000001001000010110111110010111011111110100110101100000110110000001000111 {
b11100111101010100010101000100011010010011011000101000001001000010110111110010111011111110100110101100000110110000001000111 |
b100 }
b100 ~
#1100000
0!
0/
#1110000
1!
0&!
b10 '!
b11100111101010100010101000100011010010011011000101000001001000010110111110010111011111110100110101100000110110000001000111 (!
b11100111101010100010101000100011010010011011000101000001001000010110111110010111011111110100110101100000110110000001000111 )!
1/
b1 8
b10 9
b10 :
b11100111101010100010101000100011010010011011000101000001001000010110111110010111011111110100110101100000110110000001000111 M
0P
b11100111101010100010101000100011010010011011000101000001001000010110111110010111011111110100110101100000110110000001000111 R
b11111110011101101010101111010110111100010111100010100110110110101111101001110010101011111101001011111101011101001010101011010110 V
b10 b
b11100111101010100010101000100011010010011011000101000001001000010110111110010111011111110100110101100000110110000001000111 d
b10000 e
b0 f
b10 g
b11111110011101101010101111010110111100010111100010100110110110101111101001110010101011111101001011111101011101001010101011010110 h
#1120000
0!
0/
#1130000
1!
1/
b10 8
b11 9
b11111101111010000000001101111110011111000101111001100011110111100111111111001100111100100010111111001000111101111100101010010001 S
b10000 e
b0 f
b11111101111010000000001101111110011111000101111001100011110111100111111111001100111100100010111111001000111101111100101010010001 l
#1140000
0!
0/
#1150000
1!
1/
b11 8
1E
1U
b10000 e
b0 f
1j
#1160000
0!
0/
#1170000
1!
1/
b10000001 @
b1 A
1B
b10010001 T
0U
b10000 e
b0 f
0j
1k
b11111101111010000000001101111110011111000101111001100011110111100111111111001100111100100010111111001000111101111100101010010001 m
b10010001 p
b10000001 q
#1180000
0!
0/
#1190000
1!
1/
b1110100 @
b10 A
1C
b11001101011111100100011110000001101010001111010000110100000000100001011111110000111000101001111011101011101111001000011101000001 D
b11001010 T
b10000 e
b0 f
b1 n
b0 o
b11001010 p
b1110100 q
1s
b10000001110011010111111001000111001101000000001010101000111101001111000011100010100111100001011111101011101111001000011101000001 u
#1200000
0!
0/
#1210000
1!
1/
b1101000 @
b11 A
b10000001110011010111111001110100000000101010100001000111001101001001111011110100111100001110001000010111111010111011110010000111 D
b11110111 T
b10000 e
b0 f
b10 n
b1 o
b11110111 p
b1101000 q
b1110100100000011100110101111110010001110011010000000010101010001111010011110000111000101001111000010111111010111011110010000111 u
b1 v
b0 w
#1220000
0!
0/
#1230000
1!
1/
b11101000 @
b100 A
b1110100100000011100110101101000001101000000001001111110010001111110001010101000111101001111000010011110000101111110101110111100 D
b11001000 T
b10000 e
b0 f
b11 n
b10 o
b11001000 p
b11101000 q
b1101000011101001000000111001101011111100100011100110100000000101010100011110100111100001110001010011110000101111110101110111100 u
b10 v
b0 w
#1240000
0!
0/
#1250000
1!
1/
b10101 @
b101 A
b1101000011101001000000111101000010001110011010011001101011111101111000000000010101010001111010011100010100111100001011111101011 D
b101111 T
b10000 e
b0 f
b100 n
b11 o
b101111 p
b10101 q
b11101000011010000111010010000001110011010111111001000111001101000000001010101000111101001111000011100010100111100001011111101011 u
b11 v
b0 w
#1260000
0!
0/
#1270000
1!
1/
b10001001 @
b110 A
b11101000011010000111010000010101011111100100011110000001110011011111010000110100000000101010100011110000111000101001111000010111 D
b11110010 T
b10000 e
b0 f
b101 n
b100 o
b11110010 p
b10001001 q
b10101111010000110100001110100100000011100110101111110010001110011010000000010101010001111010011110000111000101001111000010111 u
b100 v
b0 w
#1280000
0!
0/
#1290000
1!
1/
b1001011 @
b111 A
b10101111010000110100010001001110011010111111001110100100000011010100001000111001101000000001011110100111100001110001010011110 D
b11001100 T
b10000 e
b0 f
b110 n
b101 o
b11001100 p
b1001011 q
b10001001000101011110100001101000011101001000000111001101011111100100011100110100000000101010100011110100111100001110001010011110 u
b101 v
b0 w
#1300000
0!
0/
#1310000
1!
1/
b11010010 @
b1000 A
b10001001000101011110100001001011100000011100110101101000011101000000001001111110010001110011010010101000111101001111000011100010 D
b1111111 T
b10000 e
b0 f
b111 n
b110 o
b1111111 p
b11010010 q
b1001011100010010001010111101000011010000111010010000001110011010111111001000111001101000000001010101000111101001111000011100010 u
b110 v
b0 w
#1320000
0!
0/
#1330000
1!
1/
b11101 @
b1001 A
b1001011100010010001010111010010011101001000000111101000011010000011010011001101011111100100011100000010101010001111010011110000 D
b11011110 T
b10000 e
b0 f
b1000 n
b111 o
b11011110 p
b11101 q
b11010010010010111000100100010101111010000110100001110100100000011100110101111110010001110011010000000010101010001111010011110000 u
b111 v
b0 w
