Vivado_projects/AES256_encrypt/AES256_encrypt.sim/sim_1/behav/xsim/wv_AES256_enc.vcd
$date
   Sun Oct  3 13:07:12 2021
$end
$version
  2020.2
$end
$timescale
  1ps
$end
$scope module tb_AES256_enc $end
$var reg 1 ! clk $end
$var reg 1 " resetn $end
$var reg 1 # req_axi_in $end
$var reg 128 $ plaintext [15:0] $end
$var reg 1 % addr $end
$var wire 1 & done $end
$var wire 128 ' encData [15:0] $end
$var integer 32 ( index $end
$var integer 32 ) i $end
$scope module DUT $end
$var wire 1 * clk $end
$var wire 1 + resetn $end
$var wire 32 , plaintext [31:0] $end
$var wire 1 - addr $end
$var wire 1 . req_axi_in $end
$var reg 8 / regCTRL [7:0] $end
$var reg 1 0 done $end
$var reg 128 1 encData [15:0] $end
$var integer 32 2 i $end
$var reg 4 3 aes_st [3:0] $end
$var reg 4 4 aes_st_next [3:0] $end
$var reg 4 5 round [3:0] $end
$var wire 128 6 dataOut_reg416 [15:0] $end
$var wire 1 7 reg416_empty $end
$var wire 1 8 reg416_full $end
$var wire 8 9 dataOut1_demux [7:0] $end
$var wire 128 : dataOut2_demux [15:0] $end
$var wire 8 ; dataOut_ROM [7:0] $end
$var reg 4 < rom_cnt [3:0] $end
$var reg 1 = req_rom $end
$var wire 128 > dataOut_reg161 [15:0] $end
$var wire 128 ? dataOut_shifter [15:0] $end
$var reg 1 @ wr_shf $end
$var reg 1 A outp_en_shf $end
$var wire 128 B dataOut_mixColumns [15:0] $end
$var reg 1 C wr_mC $end
$var wire 128 D dataOut_reg16_2 [15:0] $end
$var reg 2 E reg162_cnt [1:0] $end
$var reg 1 F wr_reg162 $end
$var wire 128 G dataIn_addRK [15:0] $end
$var reg 128 H dataOut_addRK [15:0] $end
$var wire 8 I dataOut_reg163 [7:0] $end
$var reg 1 J wr_reg163 $end
$var wire 128 K key [127:0] $end
$var wire 1 L reg163_empty $end
$scope module demux $end
$var wire 1 - addr $end
$var wire 32 , inp [31:0] $end
$var wire 32 M outp0 [31:0] $end
$var wire 32 N outp1 [3:0] $end
$var reg 32 O auxData [3:0] $end
$var reg 32 P auxFlags [31:0] $end
$var integer 32 Q i $end
$upscope $end
$scope module rom_Sbox $end
$var wire 1 * clk $end
$var wire 1 + resetn $end
$var wire 8 I addr [7:0] $end
$var reg 8 R data [7:0] $end
$var integer 32 S index $end
$upscope $end
$scope module shifter $end
$var wire 1 * clk $end
$var wire 1 + resetn $end
$var wire 1 T wr_en $end
$var wire 128 U inp [15:0] $end
$var wire 1 V outp_en $end
$var reg 128 W aux [15:0] $end
$var reg 4 X counter [3:0] $end
$var reg 128 Y outp [15:0] $end
$var integer 32 Z index $end
$upscope $end
$scope module mixColumns $end
$var wire 1 * clk $end
$var wire 1 + resetn $end
$var wire 128 ? state [15:0] $end
$var wire 1 [ wr_en $end
$var reg 128 \ stateAux [15:0] $end
$var reg 128 ] state_out [15:0] $end
$var integer 32 ^ index $end
$var wire 128 _ state_out_comb [15:0] $end
$var reg 128 ` f_state_out [15:0] $end
$scope function MultiplyByTwo $end
$var reg 8 a MultiplyByTwo [7:0] $end
$var reg 8 b x [7:0] $end
$upscope $end
$scope function MultiplyByThree $end
$var reg 8 c MultiplyByThree [7:0] $end
$var reg 8 d x [7:0] $end
$upscope $end
$scope function finite_multiplication $end
$var reg 15 e finite_multiplication [14:0] $end
$var reg 8 f A [7:0] $end
$var reg 8 g B [7:0] $end
$var reg 15 h AB [14:0] $end
$var integer 32 i i $end
$upscope $end
$scope function Mod $end
$var reg 8 j Mod [7:0] $end
$var reg 15 k x [14:0] $end
$var reg 8 l y [7:0] $end
$var reg 9 m con [8:0] $end
$var reg 15 n z [14:0] $end
$var integer 32 o i $end
$upscope $end
$scope function mix_columns $end
$var reg 128 p mix_columns [15:0] $end
$var reg 128 q state [127:0] $end
$var integer 32 r i $end
$var integer 32 s j $end
$var integer 32 t ij $end
$var integer 32 u k $end
$var reg 128 v state_2d [15:0] $end
$var reg 128 w mix_out_2d [15:0] $end
$var reg 15 x tmp_mult [14:0] $end
$var reg 15 y tmp_mod [14:0] $end
$var reg 128 z state_out [15:0] $end
$upscope $end
$upscope $end
$scope module reg16_2 $end
$var integer 32 { index $end
$var wire 1 * clk $end
$var wire 1 + resetn $end
$var wire 1 | wr_en $end
$var wire 128 B i [15:0] $end
$var reg 128 } aux [15:0] $end
$var reg 128 ~ o [15:0] $end
$upscope $end
$scope module reg416_INIT $end
$var integer 32 !! index $end
$var wire 1 * clk $end
$var wire 1 + resetn $end
$var wire 1 . req_axi_in $end
$var wire 1 "! rd_en $end
$var wire 32 #! i [31:0] $end
$var reg 128 $! aux [15:0] $end
$var reg 2 %! n_wr [1:0] $end
$var reg 1 &! reg_empty $end
$var reg 1 '! reg_full $end
$var reg 128 (! o [15:0] $end
$upscope $end
$scope module mux $end
$var wire 4 )! addr [3:0] $end
$var wire 128 6 inp0 [15:0] $end
$var wire 128 D inp1 [15:0] $end
$var reg 128 *! aux [15:0] $end
$var reg 128 +! outp [15:0] $end
$upscope $end
$scope module addRK $end
$var wire 1 * clk $end
$var wire 1 + resetn $end
$var wire 128 K k [127:0] $end
$var wire 128 G p [15:0] $end
$var reg 128 H o [15:0] $end
$var integer 32 ,! index $end
$upscope $end
$scope module rom_key $end
$var wire 1 * clk $end
$var wire 1 + resetn $end
$var wire 4 -! selectKey [3:0] $end
$var reg 128 .! data [127:0] $end
$upscope $end
$scope module reg16_3 $end
$var integer 32 /! index $end
$var wire 1 * clk $end
$var wire 1 + resetn $end
$var wire 1 0! wr_en $end
$var wire 1 1! req_rom $end
$var wire 128 2! i [15:0] $end
$var reg 128 3! aux [15:0] $end
$var reg 4 4! n_read [3:0] $end
$var reg 1 5! reg_empty $end
$var reg 8 6! o [7:0] $end
$upscope $end
$upscope $end
$scope task enableResetn $end
$upscope $end
$scope task test_AES_encryption $end
$upscope $end
$upscope $end
$enddefinitions $end
#0
$dumpvars
0!
bx !!
x"
1"!
x#
bx #!
bx $
bx $!
x%
bx %!
x&
x&!
bx '
x'!
bx (
bx (!
b0 )
bx )!
0*
bx *!
x+
bx +!
bx ,
bx ,!
x-
bx -!
x.
bx .!
bx /
bx /!
x0
x0!
bx 1
x1!
bx 2
bx 2!
bx 3
bx 3!
bx 4
bx 4!
bx 5
x5!
bx 6
bx 6!
x7
x8
bx 9
bzxxxxxxxxxxxxxxxxxxxxxxxxxxxxxxxx :
bx ;
bx <
x=
bz >
bx ?
x@
xA
bx B
xC
bx D
bx E
xF
bx G
bx H
bx I
xJ
bx K
xL
bx M
bx N
bx O
bx P
bx Q
bx R
bx S
xT
bzxxxxxxxx U
xV
bx W
bx X
bx Y
bx Z
x[
bx \
bx ]
bx ^
bx _
bx `
bx0 a
bx b
bx c
bx d
b0 e
bx f
bx g
bx h
bx i
b0 j
bx k
bx l
bx m
bx n
bx o
bx p
bx q
bx r
bx s
bx t
bx u
bx v
bx w
bx x
bx y
bx z
bx {
x|
bx }
bx ~
$end
#10000
1!
0&
0'!
1*
b10000 ,!
00
00!
01!
bx 3
08
b0 <
0=
0@
0A
0C
0F
bx H
0J
0T
0V
0[
0|
#11000
b10000 !!
0"
1#
bx $
b0 $!
1%
b0 %!
1&!
b0 '
0'!
b0 (!
b1 )
b0 )!
0+
b0 +!
b10000 ,!
1-
b0 -!
1.
b10000001000000011000001000000010100000110000001110000100000001001000010100000101100001100000011010000111000001111 .!
b0 /
b10000 /!
00
b0 1
b10000 2
b0 2!
b0 3
b0 3!
b0 4
b0 4!
b0 5
15!
b0 6
b0 6!
17
b1100011 ;
b0 <
b0 D
b0 G
b0 H
b0 I
b10000001000000011000001000000010100000110000001110000100000001001000010100000101100001100000011010000111000001111 K
1L
b1100011 R
bz01100011 U
b0 W
b0 X
b10000 Z
b10000 {
b0 }
b0 ~
#20000
0!
0*
#30000
1!
b10000 !!
0#
b0 $!
1&!
0'!
b0 )
1*
b10000 ,!
0.
b10000 /!
00
b0 1
b10000 2
b0 3
b0 3!
b0 4!
b0 5
15!
b0 <
b0 B
b0 H
b10000 Z
b0 \
b0 ]
b10000 ^
b0 _
b0 a
b0 b
b0 c
b0 d
b10000 {
b0 }
#31000
1"
b1 $
0%
1+
b1 ,
0-
b1 9
b1 M
b1 P
#40000
0!
0*
#50000
1!
b0 #!
b0 $
1%
0'!
1*
b0 ,
b10000 ,!
1-
00
b10000001000000011000001000000010100000110000001110000100000001001000010100000101100001100000011010000111000001111 2!
b0 3
b0 5
bz00000000000000000000000000000000 :
b0 <
b10000001000000011000001000000010100000110000001110000100000001001000010100000101100001100000011010000111000001111 H
b0 N
b0 O
b100 Q
#51000
1#
b1 #!
b1 $
b1 )
b1 ,
1.
bz00000000000000000000000000000001 :
b1 N
b1 O
b100 Q
#60000
0!
0*
#70000
1!
b100 !!
b1 $!
b1 %!
0&!
0'!
b1 (!
1*
b1 +!
b10000 ,!
00
b0 3
b0 5
b1 6
07
b0 <
b1 G
b10000001000000011000001000000010100000110000001110000100000001001000010100000101100001100000011010000111000001111 H
#71000
b10 #!
b10 $
b10 )
b10 ,
bz00000000000000000000000000000010 :
b10 N
b10 O
b100 Q
#80000
0!
0*
#90000
1!
b100 !!
b1000000000000000000000000000000001 $!
b10 %!
0&!
0'!
b1000000000000000000000000000000001 (!
1*
b1000000000000000000000000000000001 +!
b10000 ,!
00
b10000001000000011000001000000010100000110000001110000100000001001000010100000101100001100000011010000111000001110 2!
b0 3
b0 5
b1000000000000000000000000000000001 6
b0 <
b1000000000000000000000000000000001 G
b10000001000000011000001000000010100000110000001110000100000001001000010100000101100001100000011010000111000001110 H
#91000
b11 #!
b11 $
b11 )
b11 ,
bz00000000000000000000000000000011 :
b11 N
b11 O
b100 Q
#100000
0!
0*
#110000
1!
b100 !!
b110000000000000000000000000000001000000000000000000000000000000001 $!
b11 %!
0&!
1'!
b110000000000000000000000000000001000000000000000000000000000000001 (!
1*
b110000000000000000000000000000001000000000000000000000000000000001 +!
b10000 ,!
00
b10000001000000011000001000000010100000110000001110000100000001001000010100000100100001100000011010000111000001110 2!
b0 3
b0 5
b110000000000000000000000000000001000000000000000000000000000000001 6
18
b0 <
b110000000000000000000000000000001000000000000000000000000000000001 G
b10000001000000011000001000000010100000110000001110000100000001001000010100000100100001100000011010000111000001110 H
#111000
b100 #!
b100 $
b100 )
b100 ,
bz00000000000000000000000000000100 :
b100 N
b100 O
b100 Q
#120000
0!
0*
#130000
1!
b100 !!
b100000000000000000000000000000000110000000000000000000000000000001000000000000000000000000000000001 $!
b0 %!
0&!
0'!
b100000000000000000000000000000000110000000000000000000000000000001000000000000000000000000000000001 (!
1*
b100000000000000000000000000000000110000000000000000000000000000001000000000000000000000000000000001 +!
b10000 ,!
00
b10000001000000011000001000000010100000110000001000000100000001001000010100000100100001100000011010000111000001110 2!
b0 3
b0 5
b100000000000000000000000000000000110000000000000000000000000000001000000000000000000000000000000001 6
08
b0 <
b100000000000000000000000000000000110000000000000000000000000000001000000000000000000000000000000001 G
b10000001000000011000001000000010100000110000001000000100000001001000010100000100100001100000011010000111000001110 H
#131000
0#
b101 )
0.
#140000
0!
0*
#150000
1!
1&!
0'!
1*
b10000 ,!
00
b10000001000000111000001000000010100000110000001000000100000001001000010100000100100001100000011010000111000001110 2!
b0 3
b0 5
17
b0 <
b10000001000000111000001000000010100000110000001000000100000001001000010100000100100001100000011010000111000001110 H
#151000
1#
b1 $
0%
b110 )
b1 ,
0-
1.
b1 P
#160000
0!
0*
#170000
1!
b100 !!
b100000000000000000000000000000000110000000000000000000000000000001000000000000000000000000000000100 $!
b1 %!
0&!
0'!
b100000000000000000000000000000000110000000000000000000000000000001000000000000000000000000000000100 (!
1*
b100000000000000000000000000000000110000000000000000000000000000001000000000000000000000000000000100 +!
b10000 ,!
b1 /
00
b0 3
b1 4
b0 5
b100000000000000000000000000000000110000000000000000000000000000001000000000000000000000000000000100 6
07
b0 <
b100000000000000000000000000000000110000000000000000000000000000001000000000000000000000000000000100 G
b10000001000000111000001000000010100000110000001000000100000001001000010100000100100001100000011010000111000001110 H
#171000
0#
0.
#180000
0!
0*
#190000
1!
1&!
0'!
1*
b10000 ,!
00
b10000001000000111000001000000010100000110000001000000100000001001000010100000100100001100000011010000111000001011 2!
b1 3
b10 4
b0 5
17
b0 <
b10000001000000111000001000000010100000110000001000000100000001001000010100000100100001100000011010000111000001011 H
#200000
0!
0*
#210000
1!
0'!
1*
b10000 ,!
b10000 /!
00
10!
b10 3
b10000001000000111000001000000010100000110000001000000100000001001000010100000100100001100000011010000111000001011 3!
b11 4
b1011 6!
b101011 ;
b0 <
b10000001000000111000001000000010100000110000001000000100000001001000010100000100100001100000011010000111000001011 H
b1011 I
1J
b101011 R
bz00101011 U
#220000
0!
0*
#230000
1!
0'!
1*
b10000 ,!
00
00!
11!
b11 3
b1 4!
b1110 6!
b10101011 ;
b1 <
1=
1@
b10000001000000111000001000000010100000110000001000000100000001001000010100000100100001100000011010000111000001011 H
b1110 I
0J
b10101011 R
1T
bz10101011 U
b101011 W
b1 X
#240000
0!
0*
#250000
1!
0'!
1*
b10000 ,!
00
b11 3
b10 4!
b1101 6!
b11010111 ;
b10 <
b10000001000000111000001000000010100000110000001000000100000001001000010100000100100001100000011010000111000001011 H
b1101 I
b11010111 R
bz11010111 U
b1010101100101011 W
b10 X
#260000
0!
0*
#270000
1!
0'!
1*
b10000 ,!
00
b11 3
b11 4!
b1100 6!
b11111110 ;
b11 <
b10000001000000111000001000000010100000110000001000000100000001001000010100000100100001100000011010000111000001011 H
b1100 I
b11111110 R
bz11111110 U
b110101111010101100101011 W
b11 X
#280000
0!
0*
#290000
1!
0'!
1*
b10000 ,!
00
b11 3
b100 4!
b1001 6!
b1 ;
b100 <
b10000001000000111000001000000010100000110000001000000100000001001000010100000100100001100000011010000111000001011 H
b1001 I
b1 R
bz00000001 U
b11111110110101111010101100101011 W
b100 X
#300000
0!
0*
#310000
1!
0'!
1*
b10000 ,!
00
b11 3
b101 4!
b1010 6!
b1100111 ;
b101 <
b10000001000000111000001000000010100000110000001000000100000001001000010100000100100001100000011010000111000001011 H
b1010 I
b1100111 R
bz01100111 U
b111111110110101111010101100101011 W
b101 X
#320000
0!
0*
#330000
1!
0'!
1*
b10000 ,!
00
b11 3
b110 4!
b1001 6!
b1 ;
b110 <
b10000001000000111000001000000010100000110000001000000100000001001000010100000100100001100000011010000111000001011 H
b1001 I
b1 R
bz00000001 U
b11001110000000111111110110101111010101100101011 W
b110 X
#340000
0!
0*
#350000
1!
0'!
1*
b10000 ,!
00
b11 3
b111 4!
b1000 6!
b110000 ;
b111 <
b10000001000000111000001000000010100000110000001000000100000001001000010100000100100001100000011010000111000001011 H
b1000 I
b110000 R
bz00110000 U
b1011001110000000111111110110101111010101100101011 W
b111 X
#360000
0!
0*
#370000
1!
0'!
1*
b10000 ,!
00
b11 3
b1000 4!
b100 6!
b11110010 ;
b1000 <
b10000001000000111000001000000010100000110000001000000100000001001000010100000100100001100000011010000111000001011 H
b100 I
b11110010 R
bz11110010 U
b11000000000001011001110000000111111110110101111010101100101011 W
b1000 X
#380000
0!
0*
#390000
1!
0'!
1*
b10000 ,!
00
b11 3
b1001 4!
b110 6!
b1101111 ;
b1001 <
b10000001000000111000001000000010100000110000001000000100000001001000010100000100100001100000011010000111000001011 H
b110 I
b1101111 R
bz01101111 U
b111100100011000000000001011001110000000111111110110101111010101100101011 W
b1001 X
#400000
0!
0*
#410000
1!
0'!
1*
b10000 ,!
00
b11 3
b1010 4!
b101 6!
b1101011 ;
b1010 <
b10000001000000111000001000000010100000110000001000000100000001001000010100000100100001100000011010000111000001011 H
b101 I
b1101011 R
bz01101011 U
b1101111111100100011000000000001011001110000000111111110110101111010101100101011 W
b1010 X
#420000
0!
0*
#430000
1!
0'!
1*
b10000 ,!
00
b11 3
b1011 4!
b100 6!
b11110010 ;
b1011 <
b10000001000000111000001000000010100000110000001000000100000001001000010100000100100001100000011010000111000001011 H
b100 I
b11110010 R
bz11110010 U
b110101101101111111100100011000000000001011001110000000111111110110101111010101100101011 W
b1011 X
#440000
0!
0*
#450000
1!
0'!
1*
b10000 ,!
00
b11 3
b1100 4!
b111 6!
b11000101 ;
b1100 <
b10000001000000111000001000000010100000110000001000000100000001001000010100000100100001100000011010000111000001011 H
b111 I
b11000101 R
bz11000101 U
b111100100110101101101111111100100011000000000001011001110000000111111110110101111010101100101011 W
b1100 X
#460000
0!
0*
#470000
1!
0'!
1*
b10000 ,!
00
b11 3
b1101 4!
b10 6!
b1110111 ;
b1101 <
b10000001000000111000001000000010100000110000001000000100000001001000010100000100100001100000011010000111000001011 H
b10 I
b1110111 R
bz01110111 U
b11000101111100100110101101101111111100100011000000000001011001110000000111111110110101111010101100101011 W
b1101 X
#480000
0!
0*
#490000
1!
0'!
1*
b10000 ,!
00
b11 3
b1110 4!
b1 6!
b1111100 ;
b1110 <
b10000001000000111000001000000010100000110000001000000100000001001000010100000100100001100000011010000111000001011 H
b1 I
b1111100 R
bz01111100 U
b111011111000101111100100110101101101111111100100011000000000001011001110000000111111110110101111010101100101011 W
b1110 X
#500000
0!
0*
#510000
1!
0'!
1*
b10000 ,!
00
b11 3
b100 4
b1111 4!
b0 6!
b1100011 ;
b1111 <
b10000001000000111000001000000010100000110000001000000100000001001000010100000100100001100000011010000111000001011 H
b0 I
b1100011 R
bz01100011 U
b11111000111011111000101111100100110101101101111111100100011000000000001011001110000000111111110110101111010101100101011 W
b1111 X
#520000
0!
0*
#530000
1!
0'!
1*
b10000 ,!
00
01!
b100 3
b101 4
b0 <
0=
b1111100011101111100010100000000011011111111001011110010011010110000000100110000000000010110011111111110110101111010101100101011 ?
0@
1A
b10000001000000111000001000000010100000110000001000000100000001001000010100000100100001100000011010000111000001011 H
0T
1V
b1111100011101111100010100000000011011111111001011110010011010110000000100110000000000010110011111111110110101111010101100101011 Y
#540000
0!
0*
#550000
1!
0'!
1*
b10000 ,!
00
b101 3
b110 4
b0 <
0A
b10100100110001101001101000110110010010101111011011011111011001110011010000000101100110101111110000000101100001100001100100110011 B
1C
b10000001000000111000001000000010100000110000001000000100000001001000010100000100100001100000011010000111000001011 H
0V
1[
b1111100011101111100010100000000011011111111001011110010011010110000000100110000000000010110011111111110110101111010101100101011 \
b10100100110001101001101000110110010010101111011011011111011001110011010000000101100110101111110000000101100001100001100100110011 ]
b10000 ^
b10100100110001101001101000110110010010101111011011011111011001110011010000000101100110101111110000000101100001100001100100110011 _
b10000000100000000000000010000000000000000000000010000000000000001000000000000000000000001000000000000000000000000 `
b11111000 a
b1111100 b
b10011001 c
b1110111 d
b0 f
b10 g
b0 h
b1000 i
b0 k
b0 l
b100011011 m
b0 n
b111 o
b10000000100000000000000010000000000000000000000010000000000000001000000000000000000000001000000000000000000000000 p
b1111100011101111100010100000000011011111111001011110010011010110000000100110000000000010110011111111110110101111010101100101011 q
b100 r
b100 s
b1111 t
b100 u
bx0110xxxx1001xxxx1011xxxx0111 v
bx0101xxxx1010xxxx1000xxxx0100 w
b0 x
b0 y
b10000000100000000000000010000000000000000000000010000000000000001000000000000000000000001000000000000000000000000 z
#560000
0!
0*
#570000
1!
0'!
1*
b100000000000000000000000000000000110000000000000000000000000000001000000000000000000000000000000100 +!
b10000 ,!
00
b110 3
b1100 4
b0 <
0C
b10100100110001101001101000110110010010101111011011011111011001110011010000000101100110101111110000000101100001100001100100110011 D
1F
b10000001000000111000001000000010100000110000001000000100000001001000010100000100100001100000011010000111000001011 H
0[
1|
b10100100110001101001101000110110010010101111011011011111011001110011010000000101100110101111110000000101100001100001100100110011 }
b10100100110001101001101000110110010010101111011011011111011001110011010000000101100110101111110000000101100001100001100100110011 ~
#580000
0!
0*
#590000
1!
0'!
1*
b10000 ,!
00
b1100 3
b1 4
b0 <
0F
b10000001000000111000001000000010100000110000001000000100000001001000010100000100100001100000011010000111000001011 H
0|
#600000
0!
0*
#610000
1!
0'!
b1 )!
1*
b10100100110001101001101000110110010010101111011011011111011001110011010000000101100110101111110000000101100001100001100100110011 +!
b10000 ,!
b1 -!
b10000001000000011000001000000010100000110000001110000100000001001000010100000101100001100000011010000111000001111 .!
00
b1 3
b10 4
b1 5
b0 <
b10100100110001101001101000110110010010101111011011011111011001110011010000000101100110101111110000000101100001100001100100110011 G
b10000001000000111000001000000010100000110000001000000100000001001000010100000100100001100000011010000111000001011 H
#620000
0!
0*
#630000
1!
0'!
1*
b10000 ,!
b10000 /!
00
10!
b10100100110001111001100000110101010011101111001111011001011000000011110000001100100100001111011100001001100010110001011100111100 2!
b10 3
b10100100110001111001100000110101010011101111001111011001011000000011110000001100100100001111011100001001100010110001011100111100 3!
b11 4
b10100100 6!
b1001001 ;
b0 <
b10100100110001111001100000110101010011101111001111011001011000000011110000001100100100001111011100001001100010110001011100111100 H
b10100100 I
1J
b1001001 R
bz01001001 U
#640000
0!
0*
#650000
1!
0'!
1*
b10000 ,!
00
00!
11!
b11 3
b0 4!
b111100 6!
b11101011 ;
b1 <
1=
1@
b10100100110001111001100000110101010011101111001111011001011000000011110000001100100100001111011100001001100010110001011100111100 H
b111100 I
0J
b11101011 R
1T
bz11101011 U
b1001001011111000111011111000101111100100110101101101111111100100011000000000001011001110000000111111110110101111010101100101011 W
b0 X
#660000
0!
0*
#670000
1!
0'!
1*
b10000 ,!
00
b11 3
b1 4!
b10111 6!
b11110000 ;
b10 <
b10100100110001111001100000110101010011101111001111011001011000000011110000001100100100001111011100001001100010110001011100111100 H
b10111 I
b11110000 R
bz11110000 U
b1001001011111000111011111000101111100100110101101101111111100100011000000000001011001110000000111111110110101111010101111101011 W
b1 X
#680000
0!
0*
#690000
1!
0'!
1*
b10000 ,!
00
b11 3
b10 4!
b10001011 6!
b111101 ;
b11 <
b10100100110001111001100000110101010011101111001111011001011000000011110000001100100100001111011100001001100010110001011100111100 H
b10001011 I
b111101 R
bz00111101 U
b1001001011111000111011111000101111100100110101101101111111100100011000000000001011001110000000111111110110101111111000011101011 W
b10 X
#700000
0!
0*
#710000
1!
0'!
1*
b10000 ,!
00
b11 3
b11 4!
b1001 6!
b1 ;
b100 <
b10100100110001111001100000110101010011101111001111011001011000000011110000001100100100001111011100001001100010110001011100111100 H
b1001 I
b1 R
bz00000001 U
b1001001011111000111011111000101111100100110101101101111111100100011000000000001011001110000000111111110001111011111000011101011 W
b11 X
#720000
0!
0*
#730000
1!
0'!
1*
b10000 ,!
00
b11 3
b100 4!
b11110111 6!
b1101000 ;
b101 <
b10100100110001111001100000110101010011101111001111011001011000000011110000001100100100001111011100001001100010110001011100111100 H
b11110111 I
b1101000 R
bz01101000 U
b1001001011111000111011111000101111100100110101101101111111100100011000000000001011001110000000100000001001111011111000011101011 W
b100 X
#740000
0!
0*
#750000
1!
0'!
1*
b10000 ,!
00
b11 3
b101 4!
b10010000 6!
b1100000 ;
b110 <
b10100100110001111001100000110101010011101111001111011001011000000011110000001100100100001111011100001001100010110001011100111100 H
b10010000 I
b1100000 R
bz01100000 U
b1001001011111000111011111000101111100100110101101101111111100100011000000000001011001110110100000000001001111011111000011101011 W
b101 X
#760000
0!
0*
#770000
1!
0'!
1*
b10000 ,!
00
b11 3
b110 4!
b1100 6!
b11111110 ;
b111 <
b10100100110001111001100000110101010011101111001111011001011000000011110000001100100100001111011100001001100010110001011100111100 H
b1100 I
b11111110 R
bz11111110 U
b1001001011111000111011111000101111100100110101101101111111100100011000000000001011000000110100000000001001111011111000011101011 W
b110 X
#780000
0!
0*
#790000
1!
0'!
1*
b10000 ,!
00
b11 3
b111 4!
b111100 6!
b11101011 ;
b1000 <
b10100100110001111001100000110101010011101111001111011001011000000011110000001100100100001111011100001001100010110001011100111100 H
b111100 I
b11101011 R
bz11101011 U
b1001001011111000111011111000101111100100110101101101111111100100011000011111110011000000110100000000001001111011111000011101011 W
b111 X
#800000
0!
0*
#810000
1!
0'!
1*
b10000 ,!
00
b11 3
b1000 4!
b1100000 6!
b11010000 ;
b1001 <
b10100100110001111001100000110101010011101111001111011001011000000011110000001100100100001111011100001001100010110001011100111100 H
b1100000 I
b11010000 R
bz11010000 U
b1001001011111000111011111000101111100100110101101101111111100101110101111111110011000000110100000000001001111011111000011101011 W
b1000 X
#820000
0!
0*
#830000
1!
0'!
1*
b10000 ,!
00
b11 3
b1001 4!
b11011001 6!
b110101 ;
b1010 <
b10100100110001111001100000110101010011101111001111011001011000000011110000001100100100001111011100001001100010110001011100111100 H
b11011001 I
b110101 R
bz00110101 U
b1001001011111000111011111000101111100100110101101101111110100001110101111111110011000000110100000000001001111011111000011101011 W
b1001 X
#840000
0!
0*
#850000
1!
0'!
1*
b10000 ,!
00
b11 3
b1010 4!
b11110011 6!
b1101 ;
b1011 <
b10100100110001111001100000110101010011101111001111011001011000000011110000001100100100001111011100001001100010110001011100111100 H
b11110011 I
b1101 R
bz00001101 U
b1001001011111000111011111000101111100100110101100110101110100001110101111111110011000000110100000000001001111011111000011101011 W
b1010 X
#860000
0!
0*
#870000
1!
0'!
1*
b10000 ,!
00
b11 3
b1011 4!
b1001110 6!
b101111 ;
b1100 <
b10100100110001111001100000110101010011101111001111011001011000000011110000001100100100001111011100001001100010110001011100111100 H
b1001110 I
b101111 R
bz00101111 U
b1001001011111000111011111000101111100100000110100110101110100001110101111111110011000000110100000000001001111011111000011101011 W
b1011 X
#880000
0!
0*
#890000
1!
0'!
1*
b10000 ,!
00
b11 3
b1100 4!
b110101 6!
b10010110 ;
b1101 <
b10100100110001111001100000110101010011101111001111011001011000000011110000001100100100001111011100001001100010110001011100111100 H
b110101 I
b10010110 R
bz10010110 U
b1001001011111000111011111000101001011110000110100110101110100001110101111111110011000000110100000000001001111011111000011101011 W
b1100 X
#900000
0!
0*
#910000
1!
0'!
1*
b10000 ,!
00
b11 3
b1101 4!
b10011000 6!
b1000110 ;
b1110 <
b10100100110001111001100000110101010011101111001111011001011000000011110000001100100100001111011100001001100010110001011100111100 H
b10011000 I
b1000110 R
bz01000110 U
b1001001011111000111011110010110001011110000110100110101110100001110101111111110011000000110100000000001001111011111000011101011 W
b1101 X
#920000
0!
0*
#930000
1!
0'!
1*
b10000 ,!
00
b11 3
b100 4
b1110 4!
b11000111 6!
b11000110 ;
b1111 <
b10100100110001111001100000110101010011101111001111011001011000000011110000001100100100001111011100001001100010110001011100111100 H
b11000111 I
b11000110 R
bz11000110 U
b1001001011111000100011010010110001011110000110100110101110100001110101111111110011000000110100000000001001111011111000011101011 W
b1110 X
#940000
0!
0*
#950000
1!
0'!
1*
b10000 ,!
00
01!
b100 3
b101 4
b0 <
0=
b1111100010001101001011001001001001101011101000000101111000011010110100011101011111111100110000000000001001111011111000011101011 ?
0@
1A
b10100100110001111001100000110101010011101111001111011001011000000011110000001100100100001111011100001001100010110001011100111100 H
0T
1V
b1111100010001101001011001001001001101011101000000101111000011010110100011101011111111100110000000000001001111011111000011101011 Y
#960000
0!
0*
#970000
1!
0'!
1*
b10000 ,!
00
b101 3
b110 4
b0 <
0A
b11101101000110001101011011000110001000111111001010101100101110100110100011011100110001000110110101011110100110111110000100000011 B
1C
b10100100110001111001100000110101010011101111001111011001011000000011110000001100100100001111011100001001100010110001011100111100 H
0V
1[
b1111100010001101001011001001001001101011101000000101111000011010110100011101011111111100110000000000001001111011111000011101011 \
b11101101000110001101011011000110001000111111001010101100101110100110100011011100110001000110110101011110100110111110000100000011 ]
b10000 ^
b11101101000110001101011011000110001000111111001010101100101110100110100011011100110001000110110101011110100110111110000100000011 _
b1000000010000000100000000000000000000000100000000000000000000000100000000000000010000000100000000000000000000000100000000 `
b11111000 a
b1111100 b
b11001010 c
b1000110 d
b0 f
b10 g
b0 h
b1000 i
b11 k
b11 l
b11 n
b111 o
b1000000010000000100000000000000000000000100000000000000000000000100000000000000010000000100000000000000000000000100000000 p
b1111100010001101001011001001001001101011101000000101111000011010110100011101011111111100110000000000001001111011111000011101011 q
b100 r
b100 s
b1111 t
b100 u
bx0101xxxx0011xxxx0100xxxx1101 v
bx1010xxxx1100xxxx1011xxxx0010 w
b0 x
b11 y
b1000000010000000100000000000000000000000100000000000000000000000100000000000000010000000100000000000000000000000100000000 z
#980000
0!
0*
#990000
1!
0'!
1*
b11101101000110001101011011000110001000111111001010101100101110100110100011011100110001000110110101011110100110111110000100000011 +!
b10000 ,!
00
b110 3
b1100 4
b0 <
0C
b11101101000110001101011011000110001000111111001010101100101110100110100011011100110001000110110101011110100110111110000100000011 D
1F
b11101101000110001101011011000110001000111111001010101100101110100110100011011100110001000110110101011110100110111110000100000011 G
b10100100110001111001100000110101010011101111001111011001011000000011110000001100100100001111011100001001100010110001011100111100 H
0[
1|
b11101101000110001101011011000110001000111111001010101100101110100110100011011100110001000110110101011110100110111110000100000011 }
b11101101000110001101011011000110001000111111001010101100101110100110100011011100110001000110110101011110100110111110000100000011 ~
