Vivado_projects/AES256_device/AES256_device.sim/sim_1/behav/xsim/wv_AES256_device.vcd
$date
   Thu Dec 30 23:33:26 2021
$end
$version
  2020.2
$end
$timescale
  1ps
$end
$scope module tb_AES256_device $end
$var reg 1 ! clk $end
$var reg 1 " resetn $end
$var reg 1 # ctrl_dataIn $end
$var reg 1 $ ctrl_dataOut $end
$var reg 2 % mod_en [1:0] $end
$var reg 128 & inp_device [127:0] $end
$var reg 128 ' out_device [127:0] $end
$var reg 128 ( enc_dataOut [127:0] $end
$var reg 128 ) dec_dataOut [127:0] $end
$var integer 32 * i $end
$var integer 32 + j $end
$var integer 32 , index $end
$scope module DUT $end
$var wire 1 - clk $end
$var wire 1 . resetn $end
$var wire 2 / mod_en [1:0] $end
$var wire 1 0 ctrl_dataIn $end
$var wire 128 1 inp_device [127:0] $end
$var reg 1 $ ctrl_dataOut $end
$var reg 128 ' outp_device [127:0] $end
$var reg 3 2 dev_st [2:0] $end
$var reg 3 3 dev_st_next [2:0] $end
$var reg 4 4 rom_cnt [3:0] $end
$var reg 2 5 seed_cnt [1:0] $end
$var reg 4 6 mod_cnt [3:0] $end
$var reg 1 7 mod_decrease $end
$var reg 1 8 mod_decrease_delay $end
$var reg 1 9 mod_fifo_full $end
$var reg 1 : rom_dataStored $end
$var reg 1 ; end_st_reg $end
$var reg 128 < seed_reg [127:0] $end
$var reg 128 = data_fifo [127:0] $end
$var reg 20 > mod_fifo [9:0] $end
$var reg 128 ? key [127:0] $end
$var reg 4 @ keyAddr [3:0] $end
$var reg 1 A ctrl_keyAddr $end
$var reg 1 B ctrl_dataIn_enc $end
$var wire 1 C ctrl_dataOut_enc $end
$var reg 128 D enc_dataIn [127:0] $end
$var reg 128 E enc_dataOut [127:0] $end
$var wire 4 F enc_keyAddr [3:0] $end
$var reg 1 G ctrl_dataIn_dec $end
$var reg 1 H ctrl_dataOut_dec $end
$var reg 128 I dec_dataIn [127:0] $end
$var reg 128 J dec_dataOut [127:0] $end
$var wire 4 K dec_keyAddr [3:0] $end
$var reg 1 L ctrl_dataIn_kg $end
$var reg 1 M ctrl_dataOut_kg $end
$var reg 128 N kg_dataIn [127:0] $end
$var wire 128 O kg_dataOut [127:0] $end
$var reg 128 P inp_romKey [127:0] $end
$var reg 1 Q wr_en_rom $end
$var integer 32 R index $end
$scope module encrypter $end
$var wire 1 - clk $end
$var wire 1 . resetn $end
$var wire 1 S ctrl_dataIn_enc $end
$var wire 128 T enc_key [127:0] $end
$var wire 128 U enc_dataIn [127:0] $end
$var reg 1 V ctrl_dataOut_enc $end
$var reg 4 W enc_keyAddr [3:0] $end
$var reg 128 E enc_dataOut [127:0] $end
$var reg 128 X auxData [15:0] $end
$var integer 32 Y i $end
$var integer 32 Z index $end
$var reg 4 [ aes_st [3:0] $end
$var reg 4 \ aes_st_next [3:0] $end
$var reg 4 ] round [3:0] $end
$var reg 1 ^ end_st_reg $end
$var reg 1 _ end_st_reg_delay $end
$var reg 1 ` mux_chgInp $end
$var wire 8 a dataOut_ROM [7:0] $end
$var reg 5 b rom_cnt [4:0] $end
$var reg 1 c req_rom $end
$var reg 1 d req_rom_delay $end
$var wire 128 e dataOut_shifter [15:0] $end
$var reg 1 f outp_en_shf $end
$var reg 1 g outp_en_shf_delay $end
$var wire 128 h dataOut_mixColumns [15:0] $end
$var reg 1 i wr_mC $end
$var reg 1 j wr_mC_delay $end
$var wire 128 k dataOut_reg16_2 [15:0] $end
$var reg 2 l reg162_cnt [1:0] $end
$var reg 1 m wr_reg162 $end
$var reg 1 n wr_reg162_delay $end
$var wire 128 o dataIn_addRK [15:0] $end
$var reg 128 p dataOut_addRK [15:0] $end
$var wire 8 q dataOut_reg163 [7:0] $end
$var reg 1 r wr_reg163 $end
$var wire 128 s key [127:0] $end
$scope module mux $end
$var wire 1 t addr $end
$var wire 128 u inp0 [15:0] $end
$var wire 128 k inp1 [15:0] $end
$var reg 128 v aux [15:0] $end
$var reg 128 w outp [15:0] $end
$upscope $end
$scope module addRK $end
$var wire 1 - clk $end
$var wire 1 . resetn $end
$var wire 128 s inp_key_addRK [127:0] $end
$var wire 128 o inp_addRK [15:0] $end
$var reg 128 p outp_addRK [15:0] $end
$var integer 32 x index $end
$var integer 32 y row $end
$upscope $end
$scope module reg16_3 $end
$var integer 32 z index $end
$var wire 1 - clk $end
$var wire 1 . resetn $end
$var wire 1 { wr_en $end
$var wire 1 | req_rom $end
$var wire 128 } inp_reg163 [15:0] $end
$var reg 128 ~ aux [15:0] $end
$var reg 4 !! n_read [3:0] $end
$var reg 4 "! n_read_delay [3:0] $end
$var reg 8 #! outp_reg163 [7:0] $end
$upscope $end
$scope module rom_Sbox $end
$var wire 1 - clk $end
$var wire 1 . resetn $end
$var wire 8 q addr_romSbox [7:0] $end
$var reg 8 $! outp_romSbox [7:0] $end
$upscope $end
$scope module shifter $end
$var wire 1 - clk $end
$var wire 1 . resetn $end
$var wire 1 %! wr_en $end
$var wire 8 a inp_shf [7:0] $end
$var wire 1 &! outp_en $end
$var reg 128 '! aux [15:0] $end
$var reg 4 (! counter [3:0] $end
$var wire 128 e outp_shf [15:0] $end
$var integer 32 )! index $end
$upscope $end
$scope module mixColumns $end
$var wire 1 - clk $end
$var wire 1 . resetn $end
$var wire 128 e inp_mC [15:0] $end
$var wire 1 *! wr_en $end
$var reg 32 +! row [3:0] $end
$var reg 128 ,! temp [15:0] $end
$var reg 128 -! auxIn [15:0] $end
$var reg 128 .! outp_mC [15:0] $end
$var integer 32 /! index $end
$var integer 32 0! rowNum $end
$scope function mix_columns $end
$var reg 128 1! mix_columns [15:0] $end
$var reg 128 2! inp_mC [15:0] $end
$upscope $end
$scope function xtime $end
$var reg 8 3! xtime [7:0] $end
$var reg 8 4! num [7:0] $end
$upscope $end
$upscope $end
$scope module reg16_2 $end
$var integer 32 5! index $end
$var wire 1 - clk $end
$var wire 1 . resetn $end
$var wire 1 6! wr_en $end
$var wire 4 7! round [3:0] $end
$var wire 128 h inp_reg162_mC [15:0] $end
$var wire 128 e inp_reg162_shf [15:0] $end
$var reg 128 8! aux [15:0] $end
$var reg 128 9! outp_reg162 [15:0] $end
$upscope $end
$upscope $end
$scope module decrypter $end
$var wire 1 - clk $end
$var wire 1 . resetn $end
$var wire 1 :! ctrl_dataIn_dec $end
$var wire 128 ;! dec_dataIn [127:0] $end
$var wire 128 <! dec_key [127:0] $end
$var reg 1 H ctrl_dataOut_dec $end
$var reg 4 =! dec_keyAddr [3:0] $end
$var reg 128 J dec_dataOut [127:0] $end
$var reg 128 >! auxData [15:0] $end
$var integer 32 ?! i $end
$var integer 32 @! index $end
$var reg 4 A! aes_st [3:0] $end
$var reg 4 B! aes_st_next [3:0] $end
$var reg 4 C! round [3:0] $end
$var wire 128 D! dataOut_reg416 [15:0] $end
$var wire 1 E! reg416_empty $end
$var wire 1 F! reg416_full $end
$var wire 8 G! dataOut1_demux [7:0] $end
$var wire 128 H! dataOut2_demux [15:0] $end
$var wire 8 I! dataOut_ROM [7:0] $end
$var reg 5 J! rom_cnt [4:0] $end
$var reg 1 K! req_rom $end
$var reg 1 L! shf_reg $end
$var wire 128 M! dataIn_shifter [15:0] $end
$var wire 128 N! dataOut_shifter [15:0] $end
$var reg 1 O! wr_shf $end
$var reg 1 P! wr_shf_delay $end
$var reg 1 Q! outp_en_shf $end
$var reg 1 R! outp_en_shf_delay $end
$var wire 128 S! dataOut_mixColumns [15:0] $end
$var reg 1 T! wr_mC $end
$var reg 1 U! wr_mC_delay $end
$var wire 128 V! dataOut_reg162 [15:0] $end
$var reg 2 W! reg162_cnt [1:0] $end
$var reg 1 X! wr_reg162 $end
$var reg 1 Y! wr_reg162_delay $end
$var wire 128 Z! dataOut_reg161 [15:0] $end
$var reg 1 [! wr_reg161 $end
$var wire 128 \! dataIn_addRK [15:0] $end
$var reg 128 ]! dataOut_addRK [15:0] $end
$var reg 1 ^! wr_addRK $end
$var wire 8 _! dataOut_reg163 [7:0] $end
$var reg 1 `! wr_reg163 $end
$var wire 128 a! key [127:0] $end
$var reg 1 b! mux1_chgInp $end
$var reg 1 c! mux1_chgInp_delay $end
$var reg 1 d! mux1_chgInp_delay2 $end
$var reg 1 e! mux2_chgInp $end
$var reg 1 f! end_st_reg $end
$scope module mux $end
$var wire 1 g! addr $end
$var wire 128 h! inp0 [15:0] $end
$var wire 128 V! inp1 [15:0] $end
$var reg 128 i! aux [15:0] $end
$var reg 128 j! outp [15:0] $end
$upscope $end
$scope module shifter $end
$var wire 1 - clk $end
$var wire 1 . resetn $end
$var wire 128 M! inp_shf [15:0] $end
$var wire 1 k! outp_en $end
$var reg 128 l! aux [15:0] $end
$var reg 128 m! outp_shf [15:0] $end
$var integer 32 n! index $end
$upscope $end
$scope module reg16_3 $end
$var integer 32 o! index $end
$var wire 1 - clk $end
$var wire 1 . resetn $end
$var wire 1 p! wr_en $end
$var wire 1 q! req_rom $end
$var wire 128 N! inp_reg163 [15:0] $end
$var reg 128 r! aux [15:0] $end
$var reg 4 s! n_read [3:0] $end
$var reg 4 t! n_read_delay [3:0] $end
$var reg 8 u! outp_reg163 [7:0] $end
$upscope $end
$scope module rom_Sbox $end
$var wire 1 - clk $end
$var wire 1 . resetn $end
$var wire 8 _! addr_romSbox [7:0] $end
$var reg 8 v! aux [7:0] $end
$var reg 8 w! outp_romSbox [7:0] $end
$upscope $end
$scope module reg16_1 $end
$var integer 32 x! index $end
$var wire 1 - clk $end
$var wire 1 . resetn $end
$var wire 1 y! wr_en $end
$var wire 8 I! i [7:0] $end
$var reg 128 z! aux [15:0] $end
$var reg 4 {! counter [3:0] $end
$var reg 128 |! o [15:0] $end
$upscope $end
$scope module mux2 $end
$var wire 1 }! addr $end
$var wire 128 ~! inp0 [15:0] $end
$var wire 128 Z! inp1 [15:0] $end
$var reg 128 !" aux [15:0] $end
$var reg 128 "" outp [15:0] $end
$upscope $end
$scope module addRK $end
$var wire 1 - clk $end
$var wire 1 . resetn $end
$var wire 128 a! inp_key_addRK [127:0] $end
$var wire 128 \! inp_addRK [15:0] $end
$var reg 128 ]! outp_addRK [15:0] $end
$var integer 32 #" index $end
$var integer 32 $" row $end
$upscope $end
$scope module mixColumns $end
$var wire 1 - clk $end
$var wire 1 . resetn $end
$var wire 128 %" inp_mC [15:0] $end
$var wire 1 &" wr_en $end
$var reg 128 '" lookup [15:0] $end
$var reg 128 (" temp [15:0] $end
$var reg 128 )" auxIn [15:0] $end
$var reg 128 *" outp_mC [15:0] $end
$var integer 32 +" index $end
$var integer 32 ," i $end
$var integer 32 -" j $end
$scope function invMixColumns $end
$var reg 128 ." invMixColumns [15:0] $end
$var reg 128 /" inp_mC [15:0] $end
$upscope $end
$scope function xtime $end
$var reg 8 0" xtime [7:0] $end
$var reg 8 1" num [7:0] $end
$upscope $end
$upscope $end
$scope module reg16_2 $end
$var integer 32 2" index $end
$var wire 1 - clk $end
$var wire 1 . resetn $end
$var wire 1 3" wr_en $end
$var wire 4 4" round [3:0] $end
$var wire 128 S! inp_reg162_mC [15:0] $end
$var wire 128 5" inp_reg162_shf [15:0] $end
$var reg 128 6" aux [15:0] $end
$var reg 128 7" outp_reg162 [15:0] $end
$upscope $end
$upscope $end
$scope module keygen $end
$var wire 1 - clk $end
$var wire 1 . resetn $end
$var wire 128 8" kg_dataIn [127:0] $end
$var wire 1 9" ctrl_dataIn_kg $end
$var reg 128 :" kg_dataOut [127:0] $end
$var reg 1 M ctrl_dataOut_kg $end
$var reg 4 ;" kg_st [3:0] $end
$var reg 4 <" kg_st_next [3:0] $end
$var reg 8 =" round [7:0] $end
$var reg 3 >" word_cnt [2:0] $end
$var reg 128 ?" key_aux [127:0] $end
$var reg 3 @" cond_getWord [2:0] $end
$var reg 2 A" subWord_cnt [1:0] $end
$var reg 32 B" temp [3:0] $end
$var reg 32 C" temp2 [3:0] $end
$var reg 1920 D" wordlist [239:0] $end
$var reg 56 E" Rcon [6:0] $end
$var integer 32 F" index $end
$var integer 32 G" i $end
$var integer 32 H" iAux $end
$var integer 32 I" iOut $end
$var reg 2 J" key_num [1:0] $end
$var reg 2 K" key_num_delay [1:0] $end
$var reg 32 L" dataIn_rotWord [3:0] $end
$var wire 32 M" dataOut_rotWord [3:0] $end
$var reg 1 N" wr_rotWord $end
$var reg 8 O" dataIn_subWord [7:0] $end
$var wire 8 P" dataOut_subWord [7:0] $end
$var reg 1 Q" end_st_reg $end
$scope module rotWord $end
$var wire 1 - clk $end
$var wire 1 . resetn $end
$var wire 1 R" wr_rotWord $end
$var wire 32 S" inp_rotWord [3:0] $end
$var reg 32 T" outp_rotWord [3:0] $end
$upscope $end
$scope module subWord $end
$var wire 1 - clk $end
$var wire 1 . resetn $end
$var wire 8 U" addr_subWord [7:0] $end
$var reg 8 V" outp_subWord [7:0] $end
$var integer 32 W" index $end
$upscope $end
$upscope $end
$scope module romKey $end
$var wire 1 - clk $end
$var wire 1 . resetn $end
$var wire 4 X" addr_romKey [3:0] $end
$var wire 128 O inp_romKey [127:0] $end
$var wire 1 Y" wrEn_romKey $end
$var reg 128 ? outp_romKey [127:0] $end
$var reg 1920 Z" rom [14:0] $end
$var reg 4 [" key_cnt [3:0] $end
$upscope $end
$upscope $end
$scope task enableResetn $end
$upscope $end
$upscope $end
$enddefinitions $end
#0
$dumpvars
0!
bx !!
bx !"
x"
bx "!
bx ""
x#
bx #!
bx #"
x$
bx $!
bx $"
bx %
x%!
bx %"
bx &
x&!
x&"
bx '
bx '!
bx '"
bx (
bx (!
bx ("
bx )
bx )!
bx )"
b0 *
x*!
bx *"
b0 +
bx +!
bx +"
bx ,
bx ,!
bx ,"
0-
bx -!
bx -"
x.
bx .!
bx ."
bx /
bx /!
bx /"
x0
bx 0!
b0 0"
bx 1
bx 1!
bx 1"
bx 2
bx 2!
bx 2"
bx 3
b0 3!
x3"
bx 4
bx 4!
bx 4"
bx 5
bx 5!
bx 5"
bx 6
x6!
bx 6"
x7
bx 7!
bx 7"
x8
bx 8!
bx 8"
x9
bx 9!
x9"
x:
x:!
bx :"
x;
bx ;!
bx ;"
bx <
bx <!
bx <"
bx =
bx =!
bx ="
bx >
bx >!
bx >"
bx ?
bx ?!
bx ?"
bx @
bx @!
bx @"
xA
bx A!
bx A"
xB
bx B!
bx B"
xC
bx C!
bx C"
bx D
bz D!
bx D"
bx E
zE!
bx E"
bx F
zF!
bx F"
xG
bz G!
bx G"
xH
bz H!
bx H"
bx I
bx I!
bx I"
bx J
bx J!
bx J"
bx K
xK!
bx K"
xL
xL!
bx L"
xM
bx M!
bx M"
bx N
bx N!
xN"
bx O
xO!
bx O"
bx P
xP!
bx P"
xQ
xQ!
xQ"
bx R
xR!
xR"
xS
bx S!
bx S"
bx T
xT!
bx T"
bx U
xU!
bx U"
xV
bx V!
bx V"
bx W
bx W!
bx W"
bx X
xX!
bx X"
bx Y
xY!
xY"
bx Z
bx Z!
bx Z"
bx [
x[!
bx ["
bx \
bx \!
bx ]
bx ]!
x^
x^!
x_
bx _!
x`
x`!
bx a
bx a!
bx b
xb!
xc
xc!
xd
xd!
bx e
xe!
xf
xf!
xg
xg!
bx h
bx h!
xi
bx i!
xj
bx j!
bx k
xk!
bx l
bx l!
xm
bx m!
xn
bx n!
bx o
bx o!
bx p
xp!
bx q
xq!
xr
bx r!
bx s
bx s!
xt
bx t!
bx u
bx u!
bx v
bx v!
bx w
bx w!
bx x
bx x!
bx y
xy!
bx z
bx z!
x{
bx {!
x|
bx |!
bx }
x}!
bx ~
bx ~!
$end
#10000
1!
b10000 #"
0$
bx $"
0&!
0&"
0*!
1-
03"
b0 4
06!
b0 A"
0C
0H
b0 I"
b0 J!
0K!
0M
0N"
0Q!
0Q"
0R"
0T!
bx U"
0V
0X!
0Y"
0^
0`!
b0 b
0c
0f
0f!
0i
0k!
0m
0p!
0q!
0r
b10000 x
bx y
0{
0|
#11000
b0 !!
0"
b0 "!
bx ""
0#
b0 #!
b10000 #"
b0 $"
0%!
b0 %"
b0 '!
b0 (!
b0 )"
b0 *"
b10000 +"
b0 ,
b0 -!
0.
b0 .!
00
b0 2
b0 3
b0 4"
b0 5
b0 5"
b0 6
b0 6"
07
b0 7!
b0 7"
b0 8!
09
b0 9!
09"
0:
0:!
0;
b0 ;"
b0 <
b0 <"
b0 =
b1110 =!
b1000 ="
b11111111111111111111 >
b10000 ?!
bx0 @
b0 A!
0B
b0 B!
b0 B"
b0 C!
b0 C"
b0 D"
bx0000000000000000 E
b1000000001000000001000000001000000001000000001000000001 E"
b0 F
0G
bx0000000000000000 J
b0 J"
b1110 K
b0 K"
0L
b0 M!
b0 M"
b0 N!
b1100011 P"
b1010 R
0S
b0 S!
b0 T"
b0 U"
b0 V!
b1100011 V"
b0 W
bx0 X"
b10000 Y
b0 Z!
b0 Z"
b0 [
0[!
b0 ["
b0 \
b0 ]
b0 ]!
b0 _!
0`
0b!
0d
b0 e
0e!
0g!
b0 h
b0 h!
b0 j!
b0 k
b0 m!
b0 p
b0 q
b0 r!
b0 s!
0t
b0 t!
b0 u!
bx w
b0 y
0y!
b0 z!
b0 {!
b0 |!
b0 }
0}!
b0 ~
#20000
0!
0-
#30000
1!
b10000 #"
b1100011 $!
b10000 +"
1-
b10000 ?!
b1010010 I!
b1010 R
b10000 Y
b1100011 a
b1010010 w!
#31000
1"
1.
#40000
0!
0-
#50000
1!
b10000 #"
b1 $"
bx %"
b1 ,
1-
bx 5"
08
0C
bx M!
bx N!
0V
bx ]!
0_
bx h!
bx j!
bx m!
bx p
b10000 x
b1 y
bx }
#60000
0!
0-
#70000
1!
b10000 #"
b10 $"
b10 ,
1-
b10000 x
b10 y
#80000
0!
0-
#90000
1!
b10000 #"
b11 $"
b11 ,
1-
b10000 x
b11 y
#100000
0!
0-
#110000
1!
1#
b10000 #"
b100 $"
b10 %
b1111000011100000110100001100000010110000101000001001000010000000011100000110000001010000010000000011000000100000000100000000 &
b100 ,
1-
b10 /
10
b1111000011100000110100001100000010110000101000001001000010000000011100000110000001010000010000000011000000100000000100000000 1
b101 3
b10000 x
b100 y
#120000
0!
0-
#130000
1!
b10000 #"
b101 $"
b101 ,
1-
b101 2
b1 6
b1111000011100000110100001100000010110000101000001001000010000000011100000110000001010000010000000011000000100000000100000000 <
b11111111111111111110 >
b10000 x
b101 y
#140000
0!
0-
#150000
1!
b10000 #"
b110 $"
b0 %
b100000000000000000000000000000000110000000000000000000000000000001000000000000000000000000000000001000000000000000000000000 &
b110 ,
1-
b0 /
b100000000000000000000000000000000110000000000000000000000000000001000000000000000000000000000000001000000000000000000000000 1
b1 5
b10 6
17
b1111000011100000110100001100000010110000101000001001000010000000011100000110000001010000010000000011000000100000000100000000 8"
19"
b11111111111111111010 >
1L
b1111000011100000110100001100000010110000101000001001000010000000011100000110000001010000010000000011000000100000000100000000 N
b10000 x
b110 y
#160000
0!
0-
#170000
1!
0#
b10000 #"
b111 $"
b111 ,
1-
00
b11 3
b10 5
b11 6
18
b100000000000000000000000000000000110000000000000000000000000000001000000000000000000000000000000001000000000000000000000000 =
b11111111111111001010 >
b1111000011100000110100001100000010110000101000001001000010000000011100000110000001010000010000000011000000100000000100000000 D"
b10000 G"
b1 J"
b10000 x
b111 y
#180000
0!
0-
#190000
1!
b10000 #"
b1000 $"
1-
b11 2
b10 6
07
b11111111111111110010 >
b111100001110000011010000110000001011000010100000100100001000000001110000011000000101000001000000001100000010000000010000000000001111000011100000110100001100000010110000101000001001000010000000011100000110000001010000010000000011000000100000000100000000 D"
b10000 G"
b10 J"
b1 K"
b1001 R
b10000 x
b1000 y
#200000
0!
0-
#210000
1!
b10000 #"
b1001 $"
1-
b1 6
08
b1 <"
b11111111111111111100 >
b11110000111000001101000011000000101100001010000010010000100000000111000001100000010100000100000000110000001000000001000000000000111100001110000011010000110000001011000010100000100100001000000001110000011000000101000001000000001100000010000000010000000000001111000011100000110100001100000010110000101000001001000010000000011100000110000001010000010000000011000000100000000100000000 D"
b10000 G"
b11 J"
b10 K"
b1001 R
b10000 x
b1001 y
#220000
0!
0-
#230000
1!
b10000 #"
b1010 $"
1-
b1 ;"
b10 <"
b0 @"
b10000 x
b1010 y
#240000
0!
0-
#250000
1!
b10000 #"
b1011 $"
1-
b10 ;"
b100 <"
b1111000011100000110100001100 B"
b100 G"
b11111110 P"
b1100 U"
b11111110 V"
b10000 x
b1011 y
#260000
0!
0-
#270000
1!
b10000 #"
b1100 $"
1-
b100 ;"
b11 <"
b1111000011100000110100001100 L"
1N"
1R"
b1111000011100000110100001100 S"
b10000 x
b1100 y
#280000
0!
0-
#290000
1!
b10000 #"
b1101 $"
1-
b11 ;"
b101 <"
b1100000011110000111000001101 M"
0N"
0R"
b1100000011110000111000001101 T"
b10000 x
b1101 y
#300000
0!
0-
#310000
1!
b10000 #"
b1110 $"
1-
b101 ;"
b1100000011110000111000001101 B"
b11010111 P"
b1101 U"
b11010111 V"
b10000 x
b1110 y
#320000
0!
0-
#330000
1!
b10000 #"
b1111 $"
1-
b1 A"
b1100000011110000111011010111 B"
b10101011 P"
b1110 U"
b10101011 V"
b10000 x
b1111 y
#340000
0!
0-
#350000
1!
b10000 #"
b10000 $"
1-
b10 A"
b1100000011111010101111010111 B"
b1110110 P"
b1111 U"
b1110110 V"
b10000 x
b10000 y
#360000
0!
0-
#370000
1!
b10000 #"
b10001 $"
1-
b110 <"
b11 A"
b1100011101101010101111010111 B"
b11111110 P"
b1100 U"
b11111110 V"
b10000 x
b10001 y
#380000
0!
0-
#390000
1!
b10000 #"
b10010 $"
1-
b110 ;"
b1110 <"
b0 A"
b11111110011101101010101111010111 B"
b1110 P"
b11010111 U"
b1110 V"
b10000 x
b10010 y
#400000
0!
0-
#410000
1!
b10000 #"
b10011 $"
1-
b1110 ;"
b1 <"
b0 >"
b0 ?"
b11111110011101101010101111010110 B"
b11110000111000001101000011000000101100001010000010010000100000000111000001100000010100000100111111010111010010101010110101100000111100001110000011010000110000001011000010100000100100001000000001110000011000000101000001000000001100000010000000010000000000001111000011100000110100001100000010110000101000001001000010000000011100000110000001010000010000000011000000100000000100000000 D"
b100 G"
b11110110 P"
b11010110 U"
b11110110 V"
b10000 x
b10011 y
#420000
0!
0-
#430000
1!
b10000 #"
b10100 $"
1-
b1 ;"
b1110 <"
b1001 ="
b1 @"
b10000 x
b10100 y
#440000
0!
0-
#450000
1!
b10000 #"
b10101 $"
1-
b1110 ;"
b1 <"
b1 >"
b11111101011101001010101011010110 ?"
b11111101011101001010101011010110 B"
b11110000111000001101000011000000101100001010000010010000100011111010011100101010111111010010111111010111010010101010110101100000111100001110000011010000110000001011000010100000100100001000000001110000011000000101000001000000001100000010000000010000000000001111000011100000110100001100000010110000101000001001000010000000011100000110000001010000010000000011000000100000000100000000 D"
b100 G"
b11010110 U"
b10000 x
b10101 y
#460000
0!
0-
#470000
1!
b10000 #"
b10110 $"
1-
b1 ;"
b1110 <"
b1010 ="
b10 @"
b10000 x
b10110 y
#480000
0!
0-
#490000
1!
b10000 #"
b10111 $"
1-
b1110 ;"
b1 <"
b10 >"
b1111110101110100101010101101011011111010011100101010111111010010 ?"
b11111010011100101010111111010010 B"
b11110000111000001101000011001111000101111000101001101101101011111010011100101010111111010010111111010111010010101010110101100000111100001110000011010000110000001011000010100000100100001000000001110000011000000101000001000000001100000010000000010000000000001111000011100000110100001100000010110000101000001001000010000000011100000110000001010000010000000011000000100000000100000000 D"
b100 G"
b10110101 P"
b11010010 U"
b10110101 V"
b10000 x
b10111 y
#500000
0!
0-
#510000
1!
b10000 #"
b11000 $"
1-
b1 ;"
b1110 <"
b1011 ="
b11 @"
b10000 x
b11000 y
#520000
0!
0-
#530000
1!
b10000 #"
b11001 $"
1-
b1110 ;"
b1 <"
b11 >"
b111111010111010010101010110101101111101001110010101011111101001011110001011110001010011011011010 ?"
b11110001011110001010011011011010 B"
b111111100111011010101011110101101111000101111000101001101101101011111010011100101010111111010010111111010111010010101010110101100000111100001110000011010000110000001011000010100000100100001000000001110000011000000101000001000000001100000010000000010000000000001111000011100000110100001100000010110000101000001001000010000000011100000110000001010000010000000011000000100000000100000000 D"
b100 G"
b1010111 P"
b11011010 U"
b1010111 V"
b10000 x
b11001 y
#540000
0!
0-
#550000
1!
b10000 #"
b11010 $"
1-
b1 ;"
b101 <"
b1100 ="
b100 @"
b10000 x
b11010 y
#560000
0!
0-
#570000
1!
b10000 #"
b11011 $"
1-
b101 ;"
b11111110011101101010101111010110 B"
b100 G"
b11110110 P"
b11010110 U"
b11110110 V"
b10000 x
b11011 y
#580000
0!
0-
#590000
1!
b10000 #"
b11100 $"
1-
b1 A"
b11111110011101101010101111110110 B"
b1100010 P"
b10101011 U"
b1100010 V"
b10000 x
b11100 y
#600000
0!
0-
#610000
1!
b10000 #"
b11101 $"
1-
b10 A"
b11111110011101100110001011110110 B"
b111000 P"
b1110110 U"
b111000 V"
b10000 x
b11101 y
#620000
0!
0-
#630000
1!
b10000 #"
b11110 $"
1-
b1110 <"
b11 A"
b11111110001110000110001011110110 B"
b10111011 P"
b11111110 U"
b10111011 V"
b10000 x
b11110 y
#640000
0!
0-
#650000
1!
b10000 #"
b11111 $"
1-
b1110 ;"
b1 <"
b100 >"
b11111101011101001010101011010110111110100111001010101111110100101111000101111000101001101101101010111011001110000110001011110110 ?"
b0 A"
b10111011001110000110001011110110 B"
b10111000001110100110001111110110111111100111011010101011110101101111000101111000101001101101101011111010011100101010111111010010111111010111010010101010110101100000111100001110000011010000110000001011000010100000100100001000000001110000011000000101000001000000001100000010000000010000000000001111000011100000110100001100000010110000101000001001000010000000011100000110000001010000010000000011000000100000000100000000 D"
b100 G"
b1000010 P"
b11110110 U"
b1000010 V"
b10000 x
b11111 y
#660000
0!
0-
#670000
1!
b10000 #"
b100000 $"
1-
b1 ;"
b1110 <"
b1101 ="
b101 @"
b10000 x
b100000 y
#680000
0!
0-
#690000
1!
b10000 #"
b100001 $"
1-
b1110 ;"
b1 <"
b0 >"
b0 ?"
b10111000001110100110001111110110 B"
b1011111100111100011001101111001010111000001110100110001111110110111111100111011010101011110101101111000101111000101001101101101011111010011100101010111111010010111111010111010010101010110101100000111100001110000011010000110000001011000010100000100100001000000001110000011000000101000001000000001100000010000000010000000000001111000011100000110100001100000010110000101000001001000010000000011100000110000001010000010000000011000000100000000100000000 D"
b100 G"
b11110110 U"
b10000 x
b100001 y
#700000
0!
0-
#710000
1!
b10000 #"
b100010 $"
1-
b1 ;"
b1110 <"
b1110 ="
b110 @"
b10000 x
b100010 y
#720000
0!
0-
#730000
1!
b10000 #"
b100011 $"
1-
b1110 ;"
b1 <"
b1 >"
b10111111001111000110011011110010 ?"
b10111111001111000110011011110010 B"
b101101000011011001101111111110101011111100111100011001101111001010111000001110100110001111110110111111100111011010101011110101101111000101111000101001101101101011111010011100101010111111010010111111010111010010101010110101100000111100001110000011010000110000001011000010100000100100001000000001110000011000000101000001000000001100000010000000010000000000001111000011100000110100001100000010110000101000001001000010000000011100000110000001010000010000000011000000100000000100000000 D"
b100 G"
b10001001 P"
b11110010 U"
b10001001 V"
b10000 x
b100011 y
#740000
0!
0-
#750000
1!
b10000 #"
b100100 $"
1-
b1 ;"
b1110 <"
b1111 ="
b111 @"
b10000 x
b100100 y
#760000
0!
0-
#770000
1!
b10000 #"
b100101 $"
1-
b1110 ;"
b1 <"
b10 >"
b1011111100111100011001101111001010110100001101100110111111111010 ?"
b10110100001101100110111111111010 B"
b10111011001110000110001011110110101101000011011001101111111110101011111100111100011001101111001010111000001110100110001111110110111111100111011010101011110101101111000101111000101001101101101011111010011100101010111111010010111111010111010010101010110101100000111100001110000011010000110000001011000010100000100100001000000001110000011000000101000001000000001100000010000000010000000000001111000011100000110100001100000010110000101000001001000010000000011100000110000001010000010000000011000000100000000100000000 D"
b100 G"
b101101 P"
b11111010 U"
b101101 V"
b10000 x
b100101 y
#780000
0!
0-
#790000
1!
b10000 #"
b100110 $"
1-
b1 ;"
b10 <"
b10000 ="
b0 @"
b10000 x
b100110 y
#800000
0!
0-
#810000
1!
b10000 #"
b100111 $"
1-
b10 ;"
b100 <"
b10111011001110000110001011110110 B"
b100 G"
b1000010 P"
b11110110 U"
b1000010 V"
b10000 x
b100111 y
#820000
0!
0-
#830000
1!
b10000 #"
b101000 $"
1-
b100 ;"
b11 <"
b10111011001110000110001011110110 L"
1N"
1R"
b10111011001110000110001011110110 S"
b10000 x
b101000 y
#840000
0!
0-
#850000
1!
b10000 #"
b101001 $"
1-
b11 ;"
b101 <"
b11110110101110110011100001100010 M"
0N"
0R"
b11110110101110110011100001100010 T"
b10000 x
b101001 y
#860000
0!
0-
#870000
1!
b10000 #"
b101010 $"
1-
b101 ;"
b11110110101110110011100001100010 B"
b10101010 P"
b1100010 U"
b10101010 V"
b10000 x
b101010 y
#880000
0!
0-
#890000
1!
b10000 #"
b101011 $"
1-
b1 A"
b11110110101110110011100010101010 B"
b111 P"
b111000 U"
b111 V"
b10000 x
b101011 y
#900000
0!
0-
#910000
1!
b10000 #"
b101100 $"
1-
b10 A"
b11110110101110110000011110101010 B"
b11101010 P"
b10111011 U"
b11101010 V"
b10000 x
b101100 y
#920000
0!
0-
#930000
1!
b10000 #"
b101101 $"
1-
b110 <"
b11 A"
b11110110111010100000011110101010 B"
b1000010 P"
b11110110 U"
b1000010 V"
b10000 x
b101101 y
#940000
0!
0-
#950000
1!
b10000 #"
b101110 $"
1-
b110 ;"
b1110 <"
b0 A"
b1000010111010100000011110101010 B"
b10101100 P"
b10101010 U"
b10101100 V"
b10000 x
b101110 y
#960000
0!
0-
