verilogCode/tb/wv_waveforms/wv_mod_enc_addRoundKey.vcd
$date
	Sat Aug 21 12:40:03 2021
$end
$version
	Icarus Verilog
$end
$timescale
	10ps
$end
$scope module tb_mod_enc_addRoundKey $end
$var wire 1 ! ok $end
$var wire 128 " o [127:0] $end
$var reg 1 # clk $end
$var reg 128 $ in [127:0] $end
$var reg 128 % k [127:0] $end
$var integer 32 & i [31:0] $end
$scope module DUT $end
$var wire 1 # clk $end
$var wire 128 ' k [127:0] $end
$var wire 1 ! ok $end
$var wire 128 ( p [127:0] $end
$var wire 128 ) o [127:0] $end
$scope begin genblk1[0] $end
$upscope $end
$scope begin genblk1[1] $end
$upscope $end
$scope begin genblk1[2] $end
$upscope $end
$scope begin genblk1[3] $end
$upscope $end
$scope begin genblk1[4] $end
$upscope $end
$scope begin genblk1[5] $end
$upscope $end
$scope begin genblk1[6] $end
$upscope $end
$scope begin genblk1[7] $end
$upscope $end
$scope begin genblk1[8] $end
$upscope $end
$scope begin genblk1[9] $end
$upscope $end
$scope begin genblk1[10] $end
$upscope $end
$scope begin genblk1[11] $end
$upscope $end
$scope begin genblk1[12] $end
$upscope $end
$scope begin genblk1[13] $end
$upscope $end
$scope begin genblk1[14] $end
$upscope $end
$scope begin genblk1[15] $end
$upscope $end
$upscope $end
$scope task test_addRK $end
$upscope $end
$upscope $end
$enddefinitions $end
#0
$dumpvars
b110000001100010011001000110011001000010010000000100011001000100001001000010011000100000001000100000011000000100000000100000000 )
b110011001100100011000100110000001000110010001000100001001000000001001100010010000100010001000000000011000000100000000100000000 (
b11000000110000001100000011000000100000001000000010000000100000000100000001000000010000000100000000000000000000000000000000 '
bx &
b11000000110000001100000011000000100000001000000010000000100000000100000001000000010000000100000000000000000000000000000000 %
b110011001100100011000100110000001000110010001000100001001000000001001100010010000100010001000000000011000000100000000100000000 $
0#
b110000001100010011001000110011001000010010000000100011001000100001001000010011000100000001000100000011000000100000000100000000 "
1!
$end
#2000
b0 &
#4000
b1 &
#6000
b10 &
#8000
b11 &
#10000
b100 &
1#
#12000
b101 &
#14000
b110 &
#16000
b111 &
#18000
b1000 &
#20000
b1001 &
0#
#22000
b1010 &
#24000
b1011 &
#26000
b1100 &
#28000
b1101 &
#30000
b1110 &
1#
#32000
b1111 &
